ARM GAS  /tmp/ccrzzBPj.s 			page 1


   1              		.syntax unified
   2              		.cpu cortex-m3
   3              		.fpu softvfp
   4              		.eabi_attribute 20, 1
   5              		.eabi_attribute 21, 1
   6              		.eabi_attribute 23, 3
   7              		.eabi_attribute 24, 1
   8              		.eabi_attribute 25, 1
   9              		.eabi_attribute 26, 1
  10              		.eabi_attribute 30, 2
  11              		.eabi_attribute 18, 4
  12              		.thumb
  13              		.file	"chvt.c"
  14              		.section	.debug_abbrev,"",%progbits
  15              	.Ldebug_abbrev0:
  16              		.section	.debug_info,"",%progbits
  17              	.Ldebug_info0:
  18              		.section	.debug_line,"",%progbits
  19              	.Ldebug_line0:
  20 0000 88020000 		.text
  20      02000D02 
  20      00000201 
  20      FB0E0D00 
  20      01010101 
  21              	.Ltext0:
  22              		.cfi_sections	.debug_frame
  23              		.section	.text._vt_init,"ax",%progbits
  24              		.align	2
  25              		.p2align 4,,15
  26              		.global	_vt_init
  27              		.thumb
  28              		.thumb_func
  29              		.type	_vt_init, %function
  30              	_vt_init:
  31              	.LFB7:
  32              		.file 1 "/home/jairom/Documentos/Proyectos/Embebidos/Robocop/Source/code/matrix-creator-mcu/third_
  33              		.loc 1 50 0
  34              		.cfi_startproc
  35              		@ args = 0, pretend = 0, frame = 0
  36              		@ frame_needed = 0, uses_anonymous_args = 0
  37              		@ link register save eliminated.
  38              		.loc 1 52 0
  39 0000 044B     		ldr	r3, .L2
  40              		.loc 1 53 0
  41 0002 4FF0FF30 		mov	r0, #-1
  42              		.loc 1 54 0
  43 0006 0022     		movs	r2, #0
  44              		.loc 1 52 0
  45 0008 5B60     		str	r3, [r3, #4]
  46 000a 1B60     		str	r3, [r3, #0]
  47              		.loc 1 53 0
  48 000c 9860     		str	r0, [r3, #8]
  49              		.loc 1 54 0
  50 000e DA60     		str	r2, [r3, #12]
  51              		.loc 1 55 0
  52 0010 7047     		bx	lr
  53              	.L3:
ARM GAS  /tmp/ccrzzBPj.s 			page 2


  54 0012 00BF     		.align	2
  55              	.L2:
  56 0014 00000000 		.word	.LANCHOR0
  57              		.cfi_endproc
  58              	.LFE7:
  59              		.size	_vt_init, .-_vt_init
  60 0018 AFF30080 		.section	.text.chVTSetI,"ax",%progbits
  60      AFF30080 
  61              		.align	2
  62              		.p2align 4,,15
  63              		.global	chVTSetI
  64              		.thumb
  65              		.thumb_func
  66              		.type	chVTSetI, %function
  67              	chVTSetI:
  68              	.LFB8:
  69              		.loc 1 77 0
  70              		.cfi_startproc
  71              		@ args = 0, pretend = 0, frame = 0
  72              		@ frame_needed = 0, uses_anonymous_args = 0
  73              		@ link register save eliminated.
  74              	.LVL0:
  75 0000 70B4     		push	{r4, r5, r6}
  76              	.LCFI0:
  77              		.cfi_def_cfa_offset 12
  78              		.loc 1 86 0
  79 0002 0C4C     		ldr	r4, .L11
  80              		.cfi_offset 6, -4
  81              		.cfi_offset 5, -8
  82              		.cfi_offset 4, -12
  83              		.loc 1 84 0
  84 0004 0361     		str	r3, [r0, #16]
  85              		.loc 1 86 0
  86 0006 2568     		ldr	r5, [r4, #0]
  87              	.LVL1:
  88              		.loc 1 85 0
  89 0008 C260     		str	r2, [r0, #12]
  90              		.loc 1 87 0
  91 000a AE68     		ldr	r6, [r5, #8]
  92 000c B142     		cmp	r1, r6
  93 000e 04D9     		bls	.L5
  94              	.LVL2:
  95              	.L8:
  96              		.loc 1 89 0
  97 0010 2D68     		ldr	r5, [r5, #0]
  98              	.LVL3:
  99              		.loc 1 88 0
 100 0012 891B     		subs	r1, r1, r6
 101              	.LVL4:
 102              		.loc 1 87 0
 103 0014 AE68     		ldr	r6, [r5, #8]
 104 0016 8E42     		cmp	r6, r1
 105 0018 FAD3     		bcc	.L8
 106              	.L5:
 107              		.loc 1 92 0
 108 001a 6B68     		ldr	r3, [r5, #4]
 109              	.LVL5:
ARM GAS  /tmp/ccrzzBPj.s 			page 3


 110              		.loc 1 95 0
 111 001c A542     		cmp	r5, r4
 112              		.loc 1 92 0
 113 001e 0560     		str	r5, [r0, #0]
 114 0020 4360     		str	r3, [r0, #4]
 115              		.loc 1 93 0
 116 0022 1860     		str	r0, [r3, #0]
 117 0024 6860     		str	r0, [r5, #4]
 118              		.loc 1 94 0
 119 0026 8160     		str	r1, [r0, #8]
 120              		.loc 1 95 0
 121 0028 02D0     		beq	.L4
 122              		.loc 1 96 0
 123 002a A868     		ldr	r0, [r5, #8]
 124              	.LVL6:
 125 002c 411A     		subs	r1, r0, r1
 126              	.LVL7:
 127 002e A960     		str	r1, [r5, #8]
 128              	.L4:
 129              		.loc 1 97 0
 130 0030 70BC     		pop	{r4, r5, r6}
 131 0032 7047     		bx	lr
 132              	.L12:
 133              		.align	2
 134              	.L11:
 135 0034 00000000 		.word	.LANCHOR0
 136              		.cfi_endproc
 137              	.LFE8:
 138              		.size	chVTSetI, .-chVTSetI
 139 0038 AFF30080 		.section	.text.chVTResetI,"ax",%progbits
 139      AFF30080 
 140              		.align	2
 141              		.p2align 4,,15
 142              		.global	chVTResetI
 143              		.thumb
 144              		.thumb_func
 145              		.type	chVTResetI, %function
 146              	chVTResetI:
 147              	.LFB9:
 148              		.loc 1 107 0
 149              		.cfi_startproc
 150              		@ args = 0, pretend = 0, frame = 0
 151              		@ frame_needed = 0, uses_anonymous_args = 0
 152              		@ link register save eliminated.
 153              	.LVL8:
 154              		.loc 1 115 0
 155 0000 0368     		ldr	r3, [r0, #0]
 156 0002 074A     		ldr	r2, .L15
 157 0004 9342     		cmp	r3, r2
 158 0006 03D0     		beq	.L14
 159              		.loc 1 116 0
 160 0008 9968     		ldr	r1, [r3, #8]
 161 000a 8268     		ldr	r2, [r0, #8]
 162 000c 8918     		adds	r1, r1, r2
 163 000e 9960     		str	r1, [r3, #8]
 164              	.L14:
 165              		.loc 1 117 0
ARM GAS  /tmp/ccrzzBPj.s 			page 4


 166 0010 4268     		ldr	r2, [r0, #4]
 167              		.loc 1 119 0
 168 0012 0021     		movs	r1, #0
 169              		.loc 1 117 0
 170 0014 1360     		str	r3, [r2, #0]
 171              		.loc 1 118 0
 172 0016 0368     		ldr	r3, [r0, #0]
 173              		.loc 1 119 0
 174 0018 C160     		str	r1, [r0, #12]
 175              		.loc 1 118 0
 176 001a 5A60     		str	r2, [r3, #4]
 177              		.loc 1 120 0
 178 001c 7047     		bx	lr
 179              	.L16:
 180 001e 00BF     		.align	2
 181              	.L15:
 182 0020 00000000 		.word	.LANCHOR0
 183              		.cfi_endproc
 184              	.LFE9:
 185              		.size	chVTResetI, .-chVTResetI
 186 0024 AFF30080 		.section	.text.chTimeIsWithin,"ax",%progbits
 186      AFF30080 
 186      AFF30080 
 187              		.align	2
 188              		.p2align 4,,15
 189              		.global	chTimeIsWithin
 190              		.thumb
 191              		.thumb_func
 192              		.type	chTimeIsWithin, %function
 193              	chTimeIsWithin:
 194              	.LFB10:
 195              		.loc 1 135 0
 196              		.cfi_startproc
 197              		@ args = 0, pretend = 0, frame = 0
 198              		@ frame_needed = 0, uses_anonymous_args = 0
 199              		@ link register save eliminated.
 200              	.LVL9:
 201              		.loc 1 137 0
 202 0000 084B     		ldr	r3, .L23
 203              		.loc 1 138 0
 204 0002 8142     		cmp	r1, r0
 205              		.loc 1 137 0
 206 0004 DB68     		ldr	r3, [r3, #12]
 207              	.LVL10:
 208              		.loc 1 138 0
 209 0006 06D9     		bls	.L18
 210              		.loc 1 138 0 is_stmt 0 discriminator 1
 211 0008 8342     		cmp	r3, r0
 212 000a 08D3     		bcc	.L20
 213              	.L22:
 214              		.loc 1 138 0
 215 000c 8B42     		cmp	r3, r1
 216 000e 2CBF     		ite	cs
 217 0010 0020     		movcs	r0, #0
 218              	.LVL11:
 219 0012 0120     		movcc	r0, #1
 220 0014 7047     		bx	lr
ARM GAS  /tmp/ccrzzBPj.s 			page 5


 221              	.LVL12:
 222              	.L18:
 223              		.loc 1 138 0 discriminator 2
 224 0016 8342     		cmp	r3, r0
 225 0018 F8D3     		bcc	.L22
 226              		.loc 1 138 0
 227 001a 0120     		movs	r0, #1
 228              	.LVL13:
 229              		.loc 1 140 0 is_stmt 1
 230 001c 7047     		bx	lr
 231              	.LVL14:
 232              	.L20:
 233              		.loc 1 138 0
 234 001e 0020     		movs	r0, #0
 235              	.LVL15:
 236 0020 7047     		bx	lr
 237              	.L24:
 238 0022 00BF     		.align	2
 239              	.L23:
 240 0024 00000000 		.word	.LANCHOR0
 241              		.cfi_endproc
 242              	.LFE10:
 243              		.size	chTimeIsWithin, .-chTimeIsWithin
 244              		.global	vtlist
 245 0028 AFF30080 		.section	.bss.vtlist,"aw",%nobits
 245      AFF30080 
 246              		.align	2
 247              		.set	.LANCHOR0,. + 0
 248              		.type	vtlist, %object
 249              		.size	vtlist, 16
 250              	vtlist:
 251 0000 00000000 		.space	16
 251      00000000 
 251      00000000 
 251      00000000 
 252              		.text
 253              	.Letext0:
 254              		.section	.debug_loc,"",%progbits
 255              	.Ldebug_loc0:
 256              	.LLST0:
 257 0000 00000000 		.4byte	.LFB8
 258 0004 02000000 		.4byte	.LCFI0
 259 0008 0200     		.2byte	0x2
 260 000a 7D       		.byte	0x7d
 261 000b 00       		.sleb128 0
 262 000c 02000000 		.4byte	.LCFI0
 263 0010 38000000 		.4byte	.LFE8
 264 0014 0200     		.2byte	0x2
 265 0016 7D       		.byte	0x7d
 266 0017 0C       		.sleb128 12
 267 0018 00000000 		.4byte	0x0
 268 001c 00000000 		.4byte	0x0
 269              	.LLST1:
 270 0020 00000000 		.4byte	.LVL0
 271 0024 2C000000 		.4byte	.LVL6
 272 0028 0100     		.2byte	0x1
 273 002a 50       		.byte	0x50
ARM GAS  /tmp/ccrzzBPj.s 			page 6


 274 002b 2C000000 		.4byte	.LVL6
 275 002f 38000000 		.4byte	.LFE8
 276 0033 0200     		.2byte	0x2
 277 0035 75       		.byte	0x75
 278 0036 04       		.sleb128 4
 279 0037 00000000 		.4byte	0x0
 280 003b 00000000 		.4byte	0x0
 281              	.LLST2:
 282 003f 00000000 		.4byte	.LVL0
 283 0043 14000000 		.4byte	.LVL4
 284 0047 0100     		.2byte	0x1
 285 0049 51       		.byte	0x51
 286 004a 14000000 		.4byte	.LVL4
 287 004e 2E000000 		.4byte	.LVL7
 288 0052 0100     		.2byte	0x1
 289 0054 51       		.byte	0x51
 290 0055 2E000000 		.4byte	.LVL7
 291 0059 38000000 		.4byte	.LFE8
 292 005d 0500     		.2byte	0x5
 293 005f 75       		.byte	0x75
 294 0060 04       		.sleb128 4
 295 0061 06       		.byte	0x6
 296 0062 23       		.byte	0x23
 297 0063 08       		.uleb128 0x8
 298 0064 00000000 		.4byte	0x0
 299 0068 00000000 		.4byte	0x0
 300              	.LLST3:
 301 006c 00000000 		.4byte	.LVL0
 302 0070 1C000000 		.4byte	.LVL5
 303 0074 0100     		.2byte	0x1
 304 0076 53       		.byte	0x53
 305 0077 1C000000 		.4byte	.LVL5
 306 007b 2C000000 		.4byte	.LVL6
 307 007f 0200     		.2byte	0x2
 308 0081 70       		.byte	0x70
 309 0082 10       		.sleb128 16
 310 0083 2C000000 		.4byte	.LVL6
 311 0087 38000000 		.4byte	.LFE8
 312 008b 0500     		.2byte	0x5
 313 008d 75       		.byte	0x75
 314 008e 04       		.sleb128 4
 315 008f 06       		.byte	0x6
 316 0090 23       		.byte	0x23
 317 0091 10       		.uleb128 0x10
 318 0092 00000000 		.4byte	0x0
 319 0096 00000000 		.4byte	0x0
 320              	.LLST4:
 321 009a 08000000 		.4byte	.LVL1
 322 009e 10000000 		.4byte	.LVL2
 323 00a2 0500     		.2byte	0x5
 324 00a4 03       		.byte	0x3
 325 00a5 00000000 		.4byte	vtlist
 326 00a9 10000000 		.4byte	.LVL2
 327 00ad 12000000 		.4byte	.LVL3
 328 00b1 0100     		.2byte	0x1
 329 00b3 55       		.byte	0x55
 330 00b4 14000000 		.4byte	.LVL4
ARM GAS  /tmp/ccrzzBPj.s 			page 7


 331 00b8 38000000 		.4byte	.LFE8
 332 00bc 0100     		.2byte	0x1
 333 00be 55       		.byte	0x55
 334 00bf 00000000 		.4byte	0x0
 335 00c3 00000000 		.4byte	0x0
 336              	.LLST5:
 337 00c7 00000000 		.4byte	.LVL9
 338 00cb 12000000 		.4byte	.LVL11
 339 00cf 0100     		.2byte	0x1
 340 00d1 50       		.byte	0x50
 341 00d2 16000000 		.4byte	.LVL12
 342 00d6 1C000000 		.4byte	.LVL13
 343 00da 0100     		.2byte	0x1
 344 00dc 50       		.byte	0x50
 345 00dd 1E000000 		.4byte	.LVL14
 346 00e1 20000000 		.4byte	.LVL15
 347 00e5 0100     		.2byte	0x1
 348 00e7 50       		.byte	0x50
 349 00e8 00000000 		.4byte	0x0
 350 00ec 00000000 		.4byte	0x0
 351              		.file 2 "/usr/local/CodeBench_1802_EABI/bin/../lib/gcc/arm-none-eabi/4.5.2/../../../../arm-none-ea
 352              		.file 3 "/home/jairom/Documentos/Proyectos/Embebidos/Robocop/Source/code/matrix-creator-mcu/third_
 353              		.file 4 "/home/jairom/Documentos/Proyectos/Embebidos/Robocop/Source/code/matrix-creator-mcu/third_
 354              		.section	.debug_info
 355 0000 73020000 		.4byte	0x273
 356 0004 0200     		.2byte	0x2
 357 0006 00000000 		.4byte	.Ldebug_abbrev0
 358 000a 04       		.byte	0x4
 359 000b 01       		.uleb128 0x1
 360 000c 09000000 		.4byte	.LASF29
 361 0010 01       		.byte	0x1
 362 0011 E6000000 		.4byte	.LASF30
 363 0015 00000000 		.4byte	0x0
 364 0019 00000000 		.4byte	0x0
 365 001d 00000000 		.4byte	.Ldebug_ranges0+0x0
 366 0021 00000000 		.4byte	.Ldebug_line0
 367 0025 02       		.uleb128 0x2
 368 0026 04       		.byte	0x4
 369 0027 05       		.byte	0x5
 370 0028 696E7400 		.ascii	"int\000"
 371 002c 03       		.uleb128 0x3
 372 002d 04       		.byte	0x4
 373 002e 07       		.byte	0x7
 374 002f 85000000 		.4byte	.LASF0
 375 0033 03       		.uleb128 0x3
 376 0034 01       		.byte	0x1
 377 0035 06       		.byte	0x6
 378 0036 A1010000 		.4byte	.LASF1
 379 003a 03       		.uleb128 0x3
 380 003b 01       		.byte	0x1
 381 003c 08       		.byte	0x8
 382 003d 6E000000 		.4byte	.LASF2
 383 0041 03       		.uleb128 0x3
 384 0042 02       		.byte	0x2
 385 0043 05       		.byte	0x5
 386 0044 6E010000 		.4byte	.LASF3
 387 0048 03       		.uleb128 0x3
ARM GAS  /tmp/ccrzzBPj.s 			page 8


 388 0049 02       		.byte	0x2
 389 004a 07       		.byte	0x7
 390 004b 4E000000 		.4byte	.LASF4
 391 004f 04       		.uleb128 0x4
 392 0050 BD000000 		.4byte	.LASF6
 393 0054 02       		.byte	0x2
 394 0055 4F       		.byte	0x4f
 395 0056 5A000000 		.4byte	0x5a
 396 005a 03       		.uleb128 0x3
 397 005b 04       		.byte	0x4
 398 005c 05       		.byte	0x5
 399 005d 98010000 		.4byte	.LASF5
 400 0061 04       		.uleb128 0x4
 401 0062 8F010000 		.4byte	.LASF7
 402 0066 02       		.byte	0x2
 403 0067 50       		.byte	0x50
 404 0068 6C000000 		.4byte	0x6c
 405 006c 03       		.uleb128 0x3
 406 006d 04       		.byte	0x4
 407 006e 07       		.byte	0x7
 408 006f 3C000000 		.4byte	.LASF8
 409 0073 03       		.uleb128 0x3
 410 0074 08       		.byte	0x8
 411 0075 05       		.byte	0x5
 412 0076 D0000000 		.4byte	.LASF9
 413 007a 03       		.uleb128 0x3
 414 007b 08       		.byte	0x8
 415 007c 07       		.byte	0x7
 416 007d 92000000 		.4byte	.LASF10
 417 0081 04       		.uleb128 0x4
 418 0082 25000000 		.4byte	.LASF11
 419 0086 03       		.byte	0x3
 420 0087 2E       		.byte	0x2e
 421 0088 4F000000 		.4byte	0x4f
 422 008c 04       		.uleb128 0x4
 423 008d 15000000 		.4byte	.LASF12
 424 0091 03       		.byte	0x3
 425 0092 36       		.byte	0x36
 426 0093 61000000 		.4byte	0x61
 427 0097 05       		.uleb128 0x5
 428 0098 04       		.byte	0x4
 429 0099 04       		.uleb128 0x4
 430 009a 2C000000 		.4byte	.LASF13
 431 009e 04       		.byte	0x4
 432 009f 53       		.byte	0x53
 433 00a0 A4000000 		.4byte	0xa4
 434 00a4 06       		.uleb128 0x6
 435 00a5 04       		.byte	0x4
 436 00a6 AA000000 		.4byte	0xaa
 437 00aa 07       		.uleb128 0x7
 438 00ab 01       		.byte	0x1
 439 00ac B6000000 		.4byte	0xb6
 440 00b0 08       		.uleb128 0x8
 441 00b1 97000000 		.4byte	0x97
 442 00b5 00       		.byte	0x0
 443 00b6 04       		.uleb128 0x4
 444 00b7 61000000 		.4byte	.LASF14
ARM GAS  /tmp/ccrzzBPj.s 			page 9


 445 00bb 04       		.byte	0x4
 446 00bc 58       		.byte	0x58
 447 00bd C1000000 		.4byte	0xc1
 448 00c1 09       		.uleb128 0x9
 449 00c2 61000000 		.4byte	.LASF14
 450 00c6 14       		.byte	0x14
 451 00c7 04       		.byte	0x4
 452 00c8 5F       		.byte	0x5f
 453 00c9 14010000 		.4byte	0x114
 454 00cd 0A       		.uleb128 0xa
 455 00ce B4010000 		.4byte	.LASF15
 456 00d2 04       		.byte	0x4
 457 00d3 60       		.byte	0x60
 458 00d4 14010000 		.4byte	0x114
 459 00d8 02       		.byte	0x2
 460 00d9 23       		.byte	0x23
 461 00da 00       		.uleb128 0x0
 462 00db 0A       		.uleb128 0xa
 463 00dc 87010000 		.4byte	.LASF16
 464 00e0 04       		.byte	0x4
 465 00e1 62       		.byte	0x62
 466 00e2 14010000 		.4byte	0x114
 467 00e6 02       		.byte	0x2
 468 00e7 23       		.byte	0x23
 469 00e8 04       		.uleb128 0x4
 470 00e9 0A       		.uleb128 0xa
 471 00ea B5000000 		.4byte	.LASF17
 472 00ee 04       		.byte	0x4
 473 00ef 64       		.byte	0x64
 474 00f0 8C000000 		.4byte	0x8c
 475 00f4 02       		.byte	0x2
 476 00f5 23       		.byte	0x23
 477 00f6 08       		.uleb128 0x8
 478 00f7 0A       		.uleb128 0xa
 479 00f8 DE000000 		.4byte	.LASF18
 480 00fc 04       		.byte	0x4
 481 00fd 65       		.byte	0x65
 482 00fe 99000000 		.4byte	0x99
 483 0102 02       		.byte	0x2
 484 0103 23       		.byte	0x23
 485 0104 0C       		.uleb128 0xc
 486 0105 0A       		.uleb128 0xa
 487 0106 67010000 		.4byte	.LASF19
 488 010a 04       		.byte	0x4
 489 010b 67       		.byte	0x67
 490 010c 97000000 		.4byte	0x97
 491 0110 02       		.byte	0x2
 492 0111 23       		.byte	0x23
 493 0112 10       		.uleb128 0x10
 494 0113 00       		.byte	0x0
 495 0114 06       		.uleb128 0x6
 496 0115 04       		.byte	0x4
 497 0116 B6000000 		.4byte	0xb6
 498 011a 0B       		.uleb128 0xb
 499 011b 10       		.byte	0x10
 500 011c 04       		.byte	0x4
 501 011d 71       		.byte	0x71
ARM GAS  /tmp/ccrzzBPj.s 			page 10


 502 011e 5B010000 		.4byte	0x15b
 503 0122 0A       		.uleb128 0xa
 504 0123 B4010000 		.4byte	.LASF15
 505 0127 04       		.byte	0x4
 506 0128 72       		.byte	0x72
 507 0129 14010000 		.4byte	0x114
 508 012d 02       		.byte	0x2
 509 012e 23       		.byte	0x23
 510 012f 00       		.uleb128 0x0
 511 0130 0A       		.uleb128 0xa
 512 0131 87010000 		.4byte	.LASF16
 513 0135 04       		.byte	0x4
 514 0136 74       		.byte	0x74
 515 0137 14010000 		.4byte	0x114
 516 013b 02       		.byte	0x2
 517 013c 23       		.byte	0x23
 518 013d 04       		.uleb128 0x4
 519 013e 0A       		.uleb128 0xa
 520 013f B5000000 		.4byte	.LASF17
 521 0143 04       		.byte	0x4
 522 0144 76       		.byte	0x76
 523 0145 8C000000 		.4byte	0x8c
 524 0149 02       		.byte	0x2
 525 014a 23       		.byte	0x23
 526 014b 08       		.uleb128 0x8
 527 014c 0A       		.uleb128 0xa
 528 014d C5000000 		.4byte	.LASF20
 529 0151 04       		.byte	0x4
 530 0152 77       		.byte	0x77
 531 0153 5B010000 		.4byte	0x15b
 532 0157 02       		.byte	0x2
 533 0158 23       		.byte	0x23
 534 0159 0C       		.uleb128 0xc
 535 015a 00       		.byte	0x0
 536 015b 0C       		.uleb128 0xc
 537 015c 8C000000 		.4byte	0x8c
 538 0160 04       		.uleb128 0x4
 539 0161 AD010000 		.4byte	.LASF21
 540 0165 04       		.byte	0x4
 541 0166 78       		.byte	0x78
 542 0167 1A010000 		.4byte	0x11a
 543 016b 03       		.uleb128 0x3
 544 016c 01       		.byte	0x1
 545 016d 08       		.byte	0x8
 546 016e 62010000 		.4byte	.LASF22
 547 0172 0D       		.uleb128 0xd
 548 0173 01       		.byte	0x1
 549 0174 7C000000 		.4byte	.LASF31
 550 0178 01       		.byte	0x1
 551 0179 32       		.byte	0x32
 552 017a 01       		.byte	0x1
 553 017b 00000000 		.4byte	.LFB7
 554 017f 18000000 		.4byte	.LFE7
 555 0183 02       		.byte	0x2
 556 0184 7D       		.byte	0x7d
 557 0185 00       		.sleb128 0
 558 0186 0E       		.uleb128 0xe
ARM GAS  /tmp/ccrzzBPj.s 			page 11


 559 0187 01       		.byte	0x1
 560 0188 00000000 		.4byte	.LASF25
 561 018c 01       		.byte	0x1
 562 018d 4D       		.byte	0x4d
 563 018e 01       		.byte	0x1
 564 018f 00000000 		.4byte	.LFB8
 565 0193 38000000 		.4byte	.LFE8
 566 0197 00000000 		.4byte	.LLST0
 567 019b E7010000 		.4byte	0x1e7
 568 019f 0F       		.uleb128 0xf
 569 01a0 76747000 		.ascii	"vtp\000"
 570 01a4 01       		.byte	0x1
 571 01a5 4D       		.byte	0x4d
 572 01a6 14010000 		.4byte	0x114
 573 01aa 20000000 		.4byte	.LLST1
 574 01ae 10       		.uleb128 0x10
 575 01af B0000000 		.4byte	.LASF23
 576 01b3 01       		.byte	0x1
 577 01b4 4D       		.byte	0x4d
 578 01b5 8C000000 		.4byte	0x8c
 579 01b9 3F000000 		.4byte	.LLST2
 580 01bd 11       		.uleb128 0x11
 581 01be 35000000 		.4byte	.LASF24
 582 01c2 01       		.byte	0x1
 583 01c3 4D       		.byte	0x4d
 584 01c4 99000000 		.4byte	0x99
 585 01c8 01       		.byte	0x1
 586 01c9 52       		.byte	0x52
 587 01ca 0F       		.uleb128 0xf
 588 01cb 70617200 		.ascii	"par\000"
 589 01cf 01       		.byte	0x1
 590 01d0 4D       		.byte	0x4d
 591 01d1 97000000 		.4byte	0x97
 592 01d5 6C000000 		.4byte	.LLST3
 593 01d9 12       		.uleb128 0x12
 594 01da 7000     		.ascii	"p\000"
 595 01dc 01       		.byte	0x1
 596 01dd 4E       		.byte	0x4e
 597 01de 14010000 		.4byte	0x114
 598 01e2 9A000000 		.4byte	.LLST4
 599 01e6 00       		.byte	0x0
 600 01e7 13       		.uleb128 0x13
 601 01e8 01       		.byte	0x1
 602 01e9 BC010000 		.4byte	.LASF26
 603 01ed 01       		.byte	0x1
 604 01ee 6B       		.byte	0x6b
 605 01ef 01       		.byte	0x1
 606 01f0 00000000 		.4byte	.LFB9
 607 01f4 24000000 		.4byte	.LFE9
 608 01f8 02       		.byte	0x2
 609 01f9 7D       		.byte	0x7d
 610 01fa 00       		.sleb128 0
 611 01fb 0D020000 		.4byte	0x20d
 612 01ff 14       		.uleb128 0x14
 613 0200 76747000 		.ascii	"vtp\000"
 614 0204 01       		.byte	0x1
 615 0205 6B       		.byte	0x6b
ARM GAS  /tmp/ccrzzBPj.s 			page 12


 616 0206 14010000 		.4byte	0x114
 617 020a 01       		.byte	0x1
 618 020b 50       		.byte	0x50
 619 020c 00       		.byte	0x0
 620 020d 15       		.uleb128 0x15
 621 020e 01       		.byte	0x1
 622 020f 78010000 		.4byte	.LASF32
 623 0213 01       		.byte	0x1
 624 0214 87       		.byte	0x87
 625 0215 01       		.byte	0x1
 626 0216 81000000 		.4byte	0x81
 627 021a 00000000 		.4byte	.LFB10
 628 021e 28000000 		.4byte	.LFE10
 629 0222 02       		.byte	0x2
 630 0223 7D       		.byte	0x7d
 631 0224 00       		.sleb128 0
 632 0225 57020000 		.4byte	0x257
 633 0229 10       		.uleb128 0x10
 634 022a 1F000000 		.4byte	.LASF27
 635 022e 01       		.byte	0x1
 636 022f 87       		.byte	0x87
 637 0230 8C000000 		.4byte	0x8c
 638 0234 C7000000 		.4byte	.LLST5
 639 0238 14       		.uleb128 0x14
 640 0239 656E6400 		.ascii	"end\000"
 641 023d 01       		.byte	0x1
 642 023e 87       		.byte	0x87
 643 023f 8C000000 		.4byte	0x8c
 644 0243 01       		.byte	0x1
 645 0244 51       		.byte	0x51
 646 0245 16       		.uleb128 0x16
 647 0246 B0000000 		.4byte	.LASF23
 648 024a 01       		.byte	0x1
 649 024b 89       		.byte	0x89
 650 024c 8C000000 		.4byte	0x8c
 651 0250 05       		.byte	0x5
 652 0251 03       		.byte	0x3
 653 0252 0C000000 		.4byte	vtlist+12
 654 0256 00       		.byte	0x0
 655 0257 17       		.uleb128 0x17
 656 0258 A9000000 		.4byte	.LASF28
 657 025c 04       		.byte	0x4
 658 025d 7A       		.byte	0x7a
 659 025e 60010000 		.4byte	0x160
 660 0262 01       		.byte	0x1
 661 0263 01       		.byte	0x1
 662 0264 18       		.uleb128 0x18
 663 0265 A9000000 		.4byte	.LASF28
 664 0269 01       		.byte	0x1
 665 026a 2A       		.byte	0x2a
 666 026b 60010000 		.4byte	0x160
 667 026f 01       		.byte	0x1
 668 0270 05       		.byte	0x5
 669 0271 03       		.byte	0x3
 670 0272 00000000 		.4byte	vtlist
 671 0276 00       		.byte	0x0
 672              		.section	.debug_abbrev
ARM GAS  /tmp/ccrzzBPj.s 			page 13


 673 0000 01       		.uleb128 0x1
 674 0001 11       		.uleb128 0x11
 675 0002 01       		.byte	0x1
 676 0003 25       		.uleb128 0x25
 677 0004 0E       		.uleb128 0xe
 678 0005 13       		.uleb128 0x13
 679 0006 0B       		.uleb128 0xb
 680 0007 03       		.uleb128 0x3
 681 0008 0E       		.uleb128 0xe
 682 0009 11       		.uleb128 0x11
 683 000a 01       		.uleb128 0x1
 684 000b 52       		.uleb128 0x52
 685 000c 01       		.uleb128 0x1
 686 000d 55       		.uleb128 0x55
 687 000e 06       		.uleb128 0x6
 688 000f 10       		.uleb128 0x10
 689 0010 06       		.uleb128 0x6
 690 0011 00       		.byte	0x0
 691 0012 00       		.byte	0x0
 692 0013 02       		.uleb128 0x2
 693 0014 24       		.uleb128 0x24
 694 0015 00       		.byte	0x0
 695 0016 0B       		.uleb128 0xb
 696 0017 0B       		.uleb128 0xb
 697 0018 3E       		.uleb128 0x3e
 698 0019 0B       		.uleb128 0xb
 699 001a 03       		.uleb128 0x3
 700 001b 08       		.uleb128 0x8
 701 001c 00       		.byte	0x0
 702 001d 00       		.byte	0x0
 703 001e 03       		.uleb128 0x3
 704 001f 24       		.uleb128 0x24
 705 0020 00       		.byte	0x0
 706 0021 0B       		.uleb128 0xb
 707 0022 0B       		.uleb128 0xb
 708 0023 3E       		.uleb128 0x3e
 709 0024 0B       		.uleb128 0xb
 710 0025 03       		.uleb128 0x3
 711 0026 0E       		.uleb128 0xe
 712 0027 00       		.byte	0x0
 713 0028 00       		.byte	0x0
 714 0029 04       		.uleb128 0x4
 715 002a 16       		.uleb128 0x16
 716 002b 00       		.byte	0x0
 717 002c 03       		.uleb128 0x3
 718 002d 0E       		.uleb128 0xe
 719 002e 3A       		.uleb128 0x3a
 720 002f 0B       		.uleb128 0xb
 721 0030 3B       		.uleb128 0x3b
 722 0031 0B       		.uleb128 0xb
 723 0032 49       		.uleb128 0x49
 724 0033 13       		.uleb128 0x13
 725 0034 00       		.byte	0x0
 726 0035 00       		.byte	0x0
 727 0036 05       		.uleb128 0x5
 728 0037 0F       		.uleb128 0xf
 729 0038 00       		.byte	0x0
ARM GAS  /tmp/ccrzzBPj.s 			page 14


 730 0039 0B       		.uleb128 0xb
 731 003a 0B       		.uleb128 0xb
 732 003b 00       		.byte	0x0
 733 003c 00       		.byte	0x0
 734 003d 06       		.uleb128 0x6
 735 003e 0F       		.uleb128 0xf
 736 003f 00       		.byte	0x0
 737 0040 0B       		.uleb128 0xb
 738 0041 0B       		.uleb128 0xb
 739 0042 49       		.uleb128 0x49
 740 0043 13       		.uleb128 0x13
 741 0044 00       		.byte	0x0
 742 0045 00       		.byte	0x0
 743 0046 07       		.uleb128 0x7
 744 0047 15       		.uleb128 0x15
 745 0048 01       		.byte	0x1
 746 0049 27       		.uleb128 0x27
 747 004a 0C       		.uleb128 0xc
 748 004b 01       		.uleb128 0x1
 749 004c 13       		.uleb128 0x13
 750 004d 00       		.byte	0x0
 751 004e 00       		.byte	0x0
 752 004f 08       		.uleb128 0x8
 753 0050 05       		.uleb128 0x5
 754 0051 00       		.byte	0x0
 755 0052 49       		.uleb128 0x49
 756 0053 13       		.uleb128 0x13
 757 0054 00       		.byte	0x0
 758 0055 00       		.byte	0x0
 759 0056 09       		.uleb128 0x9
 760 0057 13       		.uleb128 0x13
 761 0058 01       		.byte	0x1
 762 0059 03       		.uleb128 0x3
 763 005a 0E       		.uleb128 0xe
 764 005b 0B       		.uleb128 0xb
 765 005c 0B       		.uleb128 0xb
 766 005d 3A       		.uleb128 0x3a
 767 005e 0B       		.uleb128 0xb
 768 005f 3B       		.uleb128 0x3b
 769 0060 0B       		.uleb128 0xb
 770 0061 01       		.uleb128 0x1
 771 0062 13       		.uleb128 0x13
 772 0063 00       		.byte	0x0
 773 0064 00       		.byte	0x0
 774 0065 0A       		.uleb128 0xa
 775 0066 0D       		.uleb128 0xd
 776 0067 00       		.byte	0x0
 777 0068 03       		.uleb128 0x3
 778 0069 0E       		.uleb128 0xe
 779 006a 3A       		.uleb128 0x3a
 780 006b 0B       		.uleb128 0xb
 781 006c 3B       		.uleb128 0x3b
 782 006d 0B       		.uleb128 0xb
 783 006e 49       		.uleb128 0x49
 784 006f 13       		.uleb128 0x13
 785 0070 38       		.uleb128 0x38
 786 0071 0A       		.uleb128 0xa
ARM GAS  /tmp/ccrzzBPj.s 			page 15


 787 0072 00       		.byte	0x0
 788 0073 00       		.byte	0x0
 789 0074 0B       		.uleb128 0xb
 790 0075 13       		.uleb128 0x13
 791 0076 01       		.byte	0x1
 792 0077 0B       		.uleb128 0xb
 793 0078 0B       		.uleb128 0xb
 794 0079 3A       		.uleb128 0x3a
 795 007a 0B       		.uleb128 0xb
 796 007b 3B       		.uleb128 0x3b
 797 007c 0B       		.uleb128 0xb
 798 007d 01       		.uleb128 0x1
 799 007e 13       		.uleb128 0x13
 800 007f 00       		.byte	0x0
 801 0080 00       		.byte	0x0
 802 0081 0C       		.uleb128 0xc
 803 0082 35       		.uleb128 0x35
 804 0083 00       		.byte	0x0
 805 0084 49       		.uleb128 0x49
 806 0085 13       		.uleb128 0x13
 807 0086 00       		.byte	0x0
 808 0087 00       		.byte	0x0
 809 0088 0D       		.uleb128 0xd
 810 0089 2E       		.uleb128 0x2e
 811 008a 00       		.byte	0x0
 812 008b 3F       		.uleb128 0x3f
 813 008c 0C       		.uleb128 0xc
 814 008d 03       		.uleb128 0x3
 815 008e 0E       		.uleb128 0xe
 816 008f 3A       		.uleb128 0x3a
 817 0090 0B       		.uleb128 0xb
 818 0091 3B       		.uleb128 0x3b
 819 0092 0B       		.uleb128 0xb
 820 0093 27       		.uleb128 0x27
 821 0094 0C       		.uleb128 0xc
 822 0095 11       		.uleb128 0x11
 823 0096 01       		.uleb128 0x1
 824 0097 12       		.uleb128 0x12
 825 0098 01       		.uleb128 0x1
 826 0099 40       		.uleb128 0x40
 827 009a 0A       		.uleb128 0xa
 828 009b 00       		.byte	0x0
 829 009c 00       		.byte	0x0
 830 009d 0E       		.uleb128 0xe
 831 009e 2E       		.uleb128 0x2e
 832 009f 01       		.byte	0x1
 833 00a0 3F       		.uleb128 0x3f
 834 00a1 0C       		.uleb128 0xc
 835 00a2 03       		.uleb128 0x3
 836 00a3 0E       		.uleb128 0xe
 837 00a4 3A       		.uleb128 0x3a
 838 00a5 0B       		.uleb128 0xb
 839 00a6 3B       		.uleb128 0x3b
 840 00a7 0B       		.uleb128 0xb
 841 00a8 27       		.uleb128 0x27
 842 00a9 0C       		.uleb128 0xc
 843 00aa 11       		.uleb128 0x11
ARM GAS  /tmp/ccrzzBPj.s 			page 16


 844 00ab 01       		.uleb128 0x1
 845 00ac 12       		.uleb128 0x12
 846 00ad 01       		.uleb128 0x1
 847 00ae 40       		.uleb128 0x40
 848 00af 06       		.uleb128 0x6
 849 00b0 01       		.uleb128 0x1
 850 00b1 13       		.uleb128 0x13
 851 00b2 00       		.byte	0x0
 852 00b3 00       		.byte	0x0
 853 00b4 0F       		.uleb128 0xf
 854 00b5 05       		.uleb128 0x5
 855 00b6 00       		.byte	0x0
 856 00b7 03       		.uleb128 0x3
 857 00b8 08       		.uleb128 0x8
 858 00b9 3A       		.uleb128 0x3a
 859 00ba 0B       		.uleb128 0xb
 860 00bb 3B       		.uleb128 0x3b
 861 00bc 0B       		.uleb128 0xb
 862 00bd 49       		.uleb128 0x49
 863 00be 13       		.uleb128 0x13
 864 00bf 02       		.uleb128 0x2
 865 00c0 06       		.uleb128 0x6
 866 00c1 00       		.byte	0x0
 867 00c2 00       		.byte	0x0
 868 00c3 10       		.uleb128 0x10
 869 00c4 05       		.uleb128 0x5
 870 00c5 00       		.byte	0x0
 871 00c6 03       		.uleb128 0x3
 872 00c7 0E       		.uleb128 0xe
 873 00c8 3A       		.uleb128 0x3a
 874 00c9 0B       		.uleb128 0xb
 875 00ca 3B       		.uleb128 0x3b
 876 00cb 0B       		.uleb128 0xb
 877 00cc 49       		.uleb128 0x49
 878 00cd 13       		.uleb128 0x13
 879 00ce 02       		.uleb128 0x2
 880 00cf 06       		.uleb128 0x6
 881 00d0 00       		.byte	0x0
 882 00d1 00       		.byte	0x0
 883 00d2 11       		.uleb128 0x11
 884 00d3 05       		.uleb128 0x5
 885 00d4 00       		.byte	0x0
 886 00d5 03       		.uleb128 0x3
 887 00d6 0E       		.uleb128 0xe
 888 00d7 3A       		.uleb128 0x3a
 889 00d8 0B       		.uleb128 0xb
 890 00d9 3B       		.uleb128 0x3b
 891 00da 0B       		.uleb128 0xb
 892 00db 49       		.uleb128 0x49
 893 00dc 13       		.uleb128 0x13
 894 00dd 02       		.uleb128 0x2
 895 00de 0A       		.uleb128 0xa
 896 00df 00       		.byte	0x0
 897 00e0 00       		.byte	0x0
 898 00e1 12       		.uleb128 0x12
 899 00e2 34       		.uleb128 0x34
 900 00e3 00       		.byte	0x0
ARM GAS  /tmp/ccrzzBPj.s 			page 17


 901 00e4 03       		.uleb128 0x3
 902 00e5 08       		.uleb128 0x8
 903 00e6 3A       		.uleb128 0x3a
 904 00e7 0B       		.uleb128 0xb
 905 00e8 3B       		.uleb128 0x3b
 906 00e9 0B       		.uleb128 0xb
 907 00ea 49       		.uleb128 0x49
 908 00eb 13       		.uleb128 0x13
 909 00ec 02       		.uleb128 0x2
 910 00ed 06       		.uleb128 0x6
 911 00ee 00       		.byte	0x0
 912 00ef 00       		.byte	0x0
 913 00f0 13       		.uleb128 0x13
 914 00f1 2E       		.uleb128 0x2e
 915 00f2 01       		.byte	0x1
 916 00f3 3F       		.uleb128 0x3f
 917 00f4 0C       		.uleb128 0xc
 918 00f5 03       		.uleb128 0x3
 919 00f6 0E       		.uleb128 0xe
 920 00f7 3A       		.uleb128 0x3a
 921 00f8 0B       		.uleb128 0xb
 922 00f9 3B       		.uleb128 0x3b
 923 00fa 0B       		.uleb128 0xb
 924 00fb 27       		.uleb128 0x27
 925 00fc 0C       		.uleb128 0xc
 926 00fd 11       		.uleb128 0x11
 927 00fe 01       		.uleb128 0x1
 928 00ff 12       		.uleb128 0x12
 929 0100 01       		.uleb128 0x1
 930 0101 40       		.uleb128 0x40
 931 0102 0A       		.uleb128 0xa
 932 0103 01       		.uleb128 0x1
 933 0104 13       		.uleb128 0x13
 934 0105 00       		.byte	0x0
 935 0106 00       		.byte	0x0
 936 0107 14       		.uleb128 0x14
 937 0108 05       		.uleb128 0x5
 938 0109 00       		.byte	0x0
 939 010a 03       		.uleb128 0x3
 940 010b 08       		.uleb128 0x8
 941 010c 3A       		.uleb128 0x3a
 942 010d 0B       		.uleb128 0xb
 943 010e 3B       		.uleb128 0x3b
 944 010f 0B       		.uleb128 0xb
 945 0110 49       		.uleb128 0x49
 946 0111 13       		.uleb128 0x13
 947 0112 02       		.uleb128 0x2
 948 0113 0A       		.uleb128 0xa
 949 0114 00       		.byte	0x0
 950 0115 00       		.byte	0x0
 951 0116 15       		.uleb128 0x15
 952 0117 2E       		.uleb128 0x2e
 953 0118 01       		.byte	0x1
 954 0119 3F       		.uleb128 0x3f
 955 011a 0C       		.uleb128 0xc
 956 011b 03       		.uleb128 0x3
 957 011c 0E       		.uleb128 0xe
ARM GAS  /tmp/ccrzzBPj.s 			page 18


 958 011d 3A       		.uleb128 0x3a
 959 011e 0B       		.uleb128 0xb
 960 011f 3B       		.uleb128 0x3b
 961 0120 0B       		.uleb128 0xb
 962 0121 27       		.uleb128 0x27
 963 0122 0C       		.uleb128 0xc
 964 0123 49       		.uleb128 0x49
 965 0124 13       		.uleb128 0x13
 966 0125 11       		.uleb128 0x11
 967 0126 01       		.uleb128 0x1
 968 0127 12       		.uleb128 0x12
 969 0128 01       		.uleb128 0x1
 970 0129 40       		.uleb128 0x40
 971 012a 0A       		.uleb128 0xa
 972 012b 01       		.uleb128 0x1
 973 012c 13       		.uleb128 0x13
 974 012d 00       		.byte	0x0
 975 012e 00       		.byte	0x0
 976 012f 16       		.uleb128 0x16
 977 0130 34       		.uleb128 0x34
 978 0131 00       		.byte	0x0
 979 0132 03       		.uleb128 0x3
 980 0133 0E       		.uleb128 0xe
 981 0134 3A       		.uleb128 0x3a
 982 0135 0B       		.uleb128 0xb
 983 0136 3B       		.uleb128 0x3b
 984 0137 0B       		.uleb128 0xb
 985 0138 49       		.uleb128 0x49
 986 0139 13       		.uleb128 0x13
 987 013a 02       		.uleb128 0x2
 988 013b 0A       		.uleb128 0xa
 989 013c 00       		.byte	0x0
 990 013d 00       		.byte	0x0
 991 013e 17       		.uleb128 0x17
 992 013f 34       		.uleb128 0x34
 993 0140 00       		.byte	0x0
 994 0141 03       		.uleb128 0x3
 995 0142 0E       		.uleb128 0xe
 996 0143 3A       		.uleb128 0x3a
 997 0144 0B       		.uleb128 0xb
 998 0145 3B       		.uleb128 0x3b
 999 0146 0B       		.uleb128 0xb
 1000 0147 49       		.uleb128 0x49
 1001 0148 13       		.uleb128 0x13
 1002 0149 3F       		.uleb128 0x3f
 1003 014a 0C       		.uleb128 0xc
 1004 014b 3C       		.uleb128 0x3c
 1005 014c 0C       		.uleb128 0xc
 1006 014d 00       		.byte	0x0
 1007 014e 00       		.byte	0x0
 1008 014f 18       		.uleb128 0x18
 1009 0150 34       		.uleb128 0x34
 1010 0151 00       		.byte	0x0
 1011 0152 03       		.uleb128 0x3
 1012 0153 0E       		.uleb128 0xe
 1013 0154 3A       		.uleb128 0x3a
 1014 0155 0B       		.uleb128 0xb
ARM GAS  /tmp/ccrzzBPj.s 			page 19


 1015 0156 3B       		.uleb128 0x3b
 1016 0157 0B       		.uleb128 0xb
 1017 0158 49       		.uleb128 0x49
 1018 0159 13       		.uleb128 0x13
 1019 015a 3F       		.uleb128 0x3f
 1020 015b 0C       		.uleb128 0xc
 1021 015c 02       		.uleb128 0x2
 1022 015d 0A       		.uleb128 0xa
 1023 015e 00       		.byte	0x0
 1024 015f 00       		.byte	0x0
 1025 0160 00       		.byte	0x0
 1026              		.section	.debug_pubnames,"",%progbits
 1027 0000 55000000 		.4byte	0x55
 1028 0004 0200     		.2byte	0x2
 1029 0006 00000000 		.4byte	.Ldebug_info0
 1030 000a 77020000 		.4byte	0x277
 1031 000e 72010000 		.4byte	0x172
 1032 0012 5F76745F 		.ascii	"_vt_init\000"
 1032      696E6974 
 1032      00
 1033 001b 86010000 		.4byte	0x186
 1034 001f 63685654 		.ascii	"chVTSetI\000"
 1034      53657449 
 1034      00
 1035 0028 E7010000 		.4byte	0x1e7
 1036 002c 63685654 		.ascii	"chVTResetI\000"
 1036      52657365 
 1036      744900
 1037 0037 0D020000 		.4byte	0x20d
 1038 003b 63685469 		.ascii	"chTimeIsWithin\000"
 1038      6D654973 
 1038      57697468 
 1038      696E00
 1039 004a 64020000 		.4byte	0x264
 1040 004e 76746C69 		.ascii	"vtlist\000"
 1040      737400
 1041 0055 00000000 		.4byte	0x0
 1042              		.section	.debug_pubtypes,"",%progbits
 1043 0000 7A000000 		.4byte	0x7a
 1044 0004 0200     		.2byte	0x2
 1045 0006 00000000 		.4byte	.Ldebug_info0
 1046 000a 77020000 		.4byte	0x277
 1047 000e 4F000000 		.4byte	0x4f
 1048 0012 696E7433 		.ascii	"int32_t\000"
 1048      325F7400 
 1049 001a 61000000 		.4byte	0x61
 1050 001e 75696E74 		.ascii	"uint32_t\000"
 1050      33325F74 
 1050      00
 1051 0027 81000000 		.4byte	0x81
 1052 002b 626F6F6C 		.ascii	"bool_t\000"
 1052      5F7400
 1053 0032 8C000000 		.4byte	0x8c
 1054 0036 73797374 		.ascii	"systime_t\000"
 1054      696D655F 
 1054      7400
 1055 0040 99000000 		.4byte	0x99
ARM GAS  /tmp/ccrzzBPj.s 			page 20


 1056 0044 76746675 		.ascii	"vtfunc_t\000"
 1056      6E635F74 
 1056      00
 1057 004d B6000000 		.4byte	0xb6
 1058 0051 56697274 		.ascii	"VirtualTimer\000"
 1058      75616C54 
 1058      696D6572 
 1058      00
 1059 005e C1000000 		.4byte	0xc1
 1060 0062 56697274 		.ascii	"VirtualTimer\000"
 1060      75616C54 
 1060      696D6572 
 1060      00
 1061 006f 60010000 		.4byte	0x160
 1062 0073 56544C69 		.ascii	"VTList\000"
 1062      737400
 1063 007a 00000000 		.4byte	0x0
 1064              		.section	.debug_aranges,"",%progbits
 1065 0000 34000000 		.4byte	0x34
 1066 0004 0200     		.2byte	0x2
 1067 0006 00000000 		.4byte	.Ldebug_info0
 1068 000a 04       		.byte	0x4
 1069 000b 00       		.byte	0x0
 1070 000c 0000     		.2byte	0x0
 1071 000e 0000     		.2byte	0x0
 1072 0010 00000000 		.4byte	.LFB7
 1073 0014 18000000 		.4byte	.LFE7-.LFB7
 1074 0018 00000000 		.4byte	.LFB8
 1075 001c 38000000 		.4byte	.LFE8-.LFB8
 1076 0020 00000000 		.4byte	.LFB9
 1077 0024 24000000 		.4byte	.LFE9-.LFB9
 1078 0028 00000000 		.4byte	.LFB10
 1079 002c 28000000 		.4byte	.LFE10-.LFB10
 1080 0030 00000000 		.4byte	0x0
 1081 0034 00000000 		.4byte	0x0
 1082              		.section	.debug_ranges,"",%progbits
 1083              	.Ldebug_ranges0:
 1084 0000 00000000 		.4byte	.LFB7
 1085 0004 18000000 		.4byte	.LFE7
 1086 0008 00000000 		.4byte	.LFB8
 1087 000c 38000000 		.4byte	.LFE8
 1088 0010 00000000 		.4byte	.LFB9
 1089 0014 24000000 		.4byte	.LFE9
 1090 0018 00000000 		.4byte	.LFB10
 1091 001c 28000000 		.4byte	.LFE10
 1092 0020 00000000 		.4byte	0x0
 1093 0024 00000000 		.4byte	0x0
 1094              		.section	.debug_str,"MS",%progbits,1
 1095              	.LASF25:
 1096 0000 63685654 		.ascii	"chVTSetI\000"
 1096      53657449 
 1096      00
 1097              	.LASF29:
 1098 0009 474E5520 		.ascii	"GNU C 4.5.2\000"
 1098      4320342E 
 1098      352E3200 
 1099              	.LASF12:
ARM GAS  /tmp/ccrzzBPj.s 			page 21


 1100 0015 73797374 		.ascii	"systime_t\000"
 1100      696D655F 
 1100      7400
 1101              	.LASF27:
 1102 001f 73746172 		.ascii	"start\000"
 1102      7400
 1103              	.LASF11:
 1104 0025 626F6F6C 		.ascii	"bool_t\000"
 1104      5F7400
 1105              	.LASF13:
 1106 002c 76746675 		.ascii	"vtfunc_t\000"
 1106      6E635F74 
 1106      00
 1107              	.LASF24:
 1108 0035 76746675 		.ascii	"vtfunc\000"
 1108      6E6300
 1109              	.LASF8:
 1110 003c 6C6F6E67 		.ascii	"long unsigned int\000"
 1110      20756E73 
 1110      69676E65 
 1110      6420696E 
 1110      7400
 1111              	.LASF4:
 1112 004e 73686F72 		.ascii	"short unsigned int\000"
 1112      7420756E 
 1112      7369676E 
 1112      65642069 
 1112      6E7400
 1113              	.LASF14:
 1114 0061 56697274 		.ascii	"VirtualTimer\000"
 1114      75616C54 
 1114      696D6572 
 1114      00
 1115              	.LASF2:
 1116 006e 756E7369 		.ascii	"unsigned char\000"
 1116      676E6564 
 1116      20636861 
 1116      7200
 1117              	.LASF31:
 1118 007c 5F76745F 		.ascii	"_vt_init\000"
 1118      696E6974 
 1118      00
 1119              	.LASF0:
 1120 0085 756E7369 		.ascii	"unsigned int\000"
 1120      676E6564 
 1120      20696E74 
 1120      00
 1121              	.LASF10:
 1122 0092 6C6F6E67 		.ascii	"long long unsigned int\000"
 1122      206C6F6E 
 1122      6720756E 
 1122      7369676E 
 1122      65642069 
 1123              	.LASF28:
 1124 00a9 76746C69 		.ascii	"vtlist\000"
 1124      737400
 1125              	.LASF23:
ARM GAS  /tmp/ccrzzBPj.s 			page 22


 1126 00b0 74696D65 		.ascii	"time\000"
 1126      00
 1127              	.LASF17:
 1128 00b5 76745F74 		.ascii	"vt_time\000"
 1128      696D6500 
 1129              	.LASF6:
 1130 00bd 696E7433 		.ascii	"int32_t\000"
 1130      325F7400 
 1131              	.LASF20:
 1132 00c5 76745F73 		.ascii	"vt_systime\000"
 1132      79737469 
 1132      6D6500
 1133              	.LASF9:
 1134 00d0 6C6F6E67 		.ascii	"long long int\000"
 1134      206C6F6E 
 1134      6720696E 
 1134      7400
 1135              	.LASF18:
 1136 00de 76745F66 		.ascii	"vt_func\000"
 1136      756E6300 
 1137              	.LASF30:
 1138 00e6 2F686F6D 		.ascii	"/home/jairom/Documentos/Proyectos/Embebidos/Robocop"
 1138      652F6A61 
 1138      69726F6D 
 1138      2F446F63 
 1138      756D656E 
 1139 0119 2F536F75 		.ascii	"/Source/code/matrix-creator-mcu/third_party/ChibiOS"
 1139      7263652F 
 1139      636F6465 
 1139      2F6D6174 
 1139      7269782D 
 1140 014c 2F6F732F 		.ascii	"/os/kernel/src/chvt.c\000"
 1140      6B65726E 
 1140      656C2F73 
 1140      72632F63 
 1140      6876742E 
 1141              	.LASF22:
 1142 0162 63686172 		.ascii	"char\000"
 1142      00
 1143              	.LASF19:
 1144 0167 76745F70 		.ascii	"vt_par\000"
 1144      617200
 1145              	.LASF3:
 1146 016e 73686F72 		.ascii	"short int\000"
 1146      7420696E 
 1146      7400
 1147              	.LASF32:
 1148 0178 63685469 		.ascii	"chTimeIsWithin\000"
 1148      6D654973 
 1148      57697468 
 1148      696E00
 1149              	.LASF16:
 1150 0187 76745F70 		.ascii	"vt_prev\000"
 1150      72657600 
 1151              	.LASF7:
 1152 018f 75696E74 		.ascii	"uint32_t\000"
 1152      33325F74 
ARM GAS  /tmp/ccrzzBPj.s 			page 23


 1152      00
 1153              	.LASF5:
 1154 0198 6C6F6E67 		.ascii	"long int\000"
 1154      20696E74 
 1154      00
 1155              	.LASF1:
 1156 01a1 7369676E 		.ascii	"signed char\000"
 1156      65642063 
 1156      68617200 
 1157              	.LASF21:
 1158 01ad 56544C69 		.ascii	"VTList\000"
 1158      737400
 1159              	.LASF15:
 1160 01b4 76745F6E 		.ascii	"vt_next\000"
 1160      65787400 
 1161              	.LASF26:
 1162 01bc 63685654 		.ascii	"chVTResetI\000"
 1162      52657365 
 1162      744900
 1163              		.ident	"GCC: (Sourcery G++ Lite 2011.03-42) 4.5.2"
ARM GAS  /tmp/ccrzzBPj.s 			page 24


DEFINED SYMBOLS
                            *ABS*:00000000 chvt.c
     /tmp/ccrzzBPj.s:24     .text._vt_init:00000000 $t
     /tmp/ccrzzBPj.s:30     .text._vt_init:00000000 _vt_init
     /tmp/ccrzzBPj.s:56     .text._vt_init:00000014 $d
     /tmp/ccrzzBPj.s:61     .text.chVTSetI:00000000 $t
     /tmp/ccrzzBPj.s:67     .text.chVTSetI:00000000 chVTSetI
     /tmp/ccrzzBPj.s:135    .text.chVTSetI:00000034 $d
     /tmp/ccrzzBPj.s:140    .text.chVTResetI:00000000 $t
     /tmp/ccrzzBPj.s:146    .text.chVTResetI:00000000 chVTResetI
     /tmp/ccrzzBPj.s:182    .text.chVTResetI:00000020 $d
     /tmp/ccrzzBPj.s:187    .text.chTimeIsWithin:00000000 $t
     /tmp/ccrzzBPj.s:193    .text.chTimeIsWithin:00000000 chTimeIsWithin
     /tmp/ccrzzBPj.s:240    .text.chTimeIsWithin:00000024 $d
     /tmp/ccrzzBPj.s:250    .bss.vtlist:00000000 vtlist
     /tmp/ccrzzBPj.s:246    .bss.vtlist:00000000 $d
                     .debug_frame:00000010 $d
     /tmp/ccrzzBPj.s:60     .text._vt_init:00000018 $t
     /tmp/ccrzzBPj.s:139    .text.chVTSetI:00000038 $t
     /tmp/ccrzzBPj.s:186    .text.chVTResetI:00000024 $t
     /tmp/ccrzzBPj.s:245    .text.chTimeIsWithin:00000028 $t

NO UNDEFINED SYMBOLS
