ARM GAS  /tmp/cceTjG3L.s 			page 1


   1              		.syntax unified
   2              		.cpu cortex-m3
   3              		.fpu softvfp
   4              		.eabi_attribute 20, 1
   5              		.eabi_attribute 21, 1
   6              		.eabi_attribute 23, 3
   7              		.eabi_attribute 24, 1
   8              		.eabi_attribute 25, 1
   9              		.eabi_attribute 26, 1
  10              		.eabi_attribute 30, 2
  11              		.eabi_attribute 18, 4
  12              		.thumb
  13              		.file	"hal_lld.c"
  14              		.section	.debug_abbrev,"",%progbits
  15              	.Ldebug_abbrev0:
  16              		.section	.debug_info,"",%progbits
  17              	.Ldebug_info0:
  18              		.section	.debug_line,"",%progbits
  19              	.Ldebug_line0:
  20 0000 62010000 		.text
  20      02003101 
  20      00000201 
  20      FB0E0D00 
  20      01010101 
  21              	.Ltext0:
  22              		.cfi_sections	.debug_frame
  23              		.section	.text.hal_lld_init,"ax",%progbits
  24              		.align	2
  25              		.p2align 4,,15
  26              		.global	hal_lld_init
  27              		.thumb
  28              		.thumb_func
  29              		.type	hal_lld_init, %function
  30              	hal_lld_init:
  31              	.LFB36:
  32              		.file 1 "/home/jairom/Documentos/Proyectos/Embebidos/Robocop/Source/code/matrix-creator-mcu/third_
  33              		.loc 1 66 0
  34              		.cfi_startproc
  35              		@ args = 0, pretend = 0, frame = 0
  36              		@ frame_needed = 0, uses_anonymous_args = 0
  37 0000 08B5     		push	{r3, lr}
  38              	.LCFI0:
  39              		.cfi_def_cfa_offset 8
  40              		.loc 1 68 0
  41              		.cfi_offset 14, -4
  42              		.cfi_offset 3, -8
  43 0002 FFF7FEFF 		bl	SystemCoreClockUpdate
  44              		.loc 1 71 0
  45 0006 0B20     		movs	r0, #11
  46 0008 0821     		movs	r1, #8
  47 000a FFF7FEFF 		bl	nvicSetSystemHandlerPriority
  48              		.loc 1 72 0
  49 000e 074B     		ldr	r3, .L2
  50 0010 0748     		ldr	r0, .L2+4
  51 0012 1A68     		ldr	r2, [r3, #0]
  52 0014 074B     		ldr	r3, .L2+8
  53 0016 A0FB0201 		umull	r0, r1, r0, r2
ARM GAS  /tmp/cceTjG3L.s 			page 2


  54 001a 8A09     		lsrs	r2, r1, #6
  55 001c 511E     		subs	r1, r2, #1
  56              		.loc 1 73 0
  57 001e 0020     		movs	r0, #0
  58              		.loc 1 74 0
  59 0020 0722     		movs	r2, #7
  60              		.loc 1 72 0
  61 0022 5960     		str	r1, [r3, #4]
  62              		.loc 1 73 0
  63 0024 9860     		str	r0, [r3, #8]
  64              		.loc 1 74 0
  65 0026 1A60     		str	r2, [r3, #0]
  66              		.loc 1 77 0
  67 0028 08BD     		pop	{r3, pc}
  68              	.L3:
  69 002a 00BF     		.align	2
  70              	.L2:
  71 002c 00000000 		.word	SystemCoreClock
  72 0030 D34D6210 		.word	274877907
  73 0034 10E000E0 		.word	-536813552
  74              		.cfi_endproc
  75              	.LFE36:
  76              		.size	hal_lld_init, .-hal_lld_init
  77 0038 AFF30080 		.section	.text.at91sam3_clock_init,"ax",%progbits
  77      AFF30080 
  78              		.align	2
  79              		.p2align 4,,15
  80              		.global	at91sam3_clock_init
  81              		.thumb
  82              		.thumb_func
  83              		.type	at91sam3_clock_init, %function
  84              	at91sam3_clock_init:
  85              	.LFB37:
  86              		.loc 1 92 0
  87              		.cfi_startproc
  88              		@ args = 0, pretend = 0, frame = 0
  89              		@ frame_needed = 0, uses_anonymous_args = 0
  90              		@ link register save eliminated.
  91              		.loc 1 94 0
  92              		.loc 1 93 0
  93 0000 FFF7FEBF 		b	SystemInit
  94              		.cfi_endproc
  95              	.LFE37:
  96              		.size	at91sam3_clock_init, .-at91sam3_clock_init
  97 0004 AFF30080 		.text
  97      AFF30080 
  97      AFF30080 
  98              	.Letext0:
  99              		.section	.debug_loc,"",%progbits
 100              	.Ldebug_loc0:
 101              	.LLST0:
 102 0000 00000000 		.4byte	.LFB36
 103 0004 02000000 		.4byte	.LCFI0
 104 0008 0200     		.2byte	0x2
 105 000a 7D       		.byte	0x7d
 106 000b 00       		.sleb128 0
 107 000c 02000000 		.4byte	.LCFI0
ARM GAS  /tmp/cceTjG3L.s 			page 3


 108 0010 38000000 		.4byte	.LFE36
 109 0014 0200     		.2byte	0x2
 110 0016 7D       		.byte	0x7d
 111 0017 08       		.sleb128 8
 112 0018 00000000 		.4byte	0x0
 113 001c 00000000 		.4byte	0x0
 114              		.file 2 "/home/jairom/Documentos/Proyectos/Embebidos/Robocop/Source/code/matrix-creator-mcu/third_
 115              		.file 3 "/usr/local/CodeBench_1802_EABI/bin/../lib/gcc/arm-none-eabi/4.5.2/../../../../arm-none-ea
 116              		.file 4 "/home/jairom/Documentos/Proyectos/Embebidos/Robocop/Source/code/matrix-creator-mcu/third_
 117              		.section	.debug_info
 118 0000 3A010000 		.4byte	0x13a
 119 0004 0200     		.2byte	0x2
 120 0006 00000000 		.4byte	.Ldebug_abbrev0
 121 000a 04       		.byte	0x4
 122 000b 01       		.uleb128 0x1
 123 000c 21000000 		.4byte	.LASF19
 124 0010 01       		.byte	0x1
 125 0011 C9000000 		.4byte	.LASF20
 126 0015 00000000 		.4byte	0x0
 127 0019 00000000 		.4byte	0x0
 128 001d 00000000 		.4byte	.Ldebug_ranges0+0x0
 129 0021 00000000 		.4byte	.Ldebug_line0
 130 0025 02       		.uleb128 0x2
 131 0026 04       		.byte	0x4
 132 0027 05       		.byte	0x5
 133 0028 696E7400 		.ascii	"int\000"
 134 002c 03       		.uleb128 0x3
 135 002d 04       		.byte	0x4
 136 002e 07       		.byte	0x7
 137 002f 2D000000 		.4byte	.LASF0
 138 0033 03       		.uleb128 0x3
 139 0034 01       		.byte	0x1
 140 0035 06       		.byte	0x6
 141 0036 6F010000 		.4byte	.LASF1
 142 003a 03       		.uleb128 0x3
 143 003b 01       		.byte	0x1
 144 003c 08       		.byte	0x8
 145 003d 9E000000 		.4byte	.LASF2
 146 0041 03       		.uleb128 0x3
 147 0042 02       		.byte	0x2
 148 0043 05       		.byte	0x5
 149 0044 7B010000 		.4byte	.LASF3
 150 0048 03       		.uleb128 0x3
 151 0049 02       		.byte	0x2
 152 004a 07       		.byte	0x7
 153 004b 0E000000 		.4byte	.LASF4
 154 004f 03       		.uleb128 0x3
 155 0050 04       		.byte	0x4
 156 0051 05       		.byte	0x5
 157 0052 BA000000 		.4byte	.LASF5
 158 0056 04       		.uleb128 0x4
 159 0057 B1000000 		.4byte	.LASF13
 160 005b 03       		.byte	0x3
 161 005c 50       		.byte	0x50
 162 005d 61000000 		.4byte	0x61
 163 0061 03       		.uleb128 0x3
 164 0062 04       		.byte	0x4
ARM GAS  /tmp/cceTjG3L.s 			page 4


 165 0063 07       		.byte	0x7
 166 0064 4A000000 		.4byte	.LASF6
 167 0068 03       		.uleb128 0x3
 168 0069 08       		.byte	0x8
 169 006a 05       		.byte	0x5
 170 006b 00000000 		.4byte	.LASF7
 171 006f 03       		.uleb128 0x3
 172 0070 08       		.byte	0x8
 173 0071 07       		.byte	0x7
 174 0072 61000000 		.4byte	.LASF8
 175 0076 05       		.uleb128 0x5
 176 0077 56000000 		.4byte	0x56
 177 007b 03       		.uleb128 0x3
 178 007c 01       		.byte	0x1
 179 007d 08       		.byte	0x8
 180 007e AC000000 		.4byte	.LASF9
 181 0082 06       		.uleb128 0x6
 182 0083 76000000 		.4byte	0x76
 183 0087 07       		.uleb128 0x7
 184 0088 10       		.byte	0x10
 185 0089 02       		.byte	0x2
 186 008a 6D01     		.2byte	0x16d
 187 008c CD000000 		.4byte	0xcd
 188 0090 08       		.uleb128 0x8
 189 0091 5C000000 		.4byte	.LASF10
 190 0095 02       		.byte	0x2
 191 0096 6F01     		.2byte	0x16f
 192 0098 76000000 		.4byte	0x76
 193 009c 02       		.byte	0x2
 194 009d 23       		.byte	0x23
 195 009e 00       		.uleb128 0x0
 196 009f 08       		.uleb128 0x8
 197 00a0 8C000000 		.4byte	.LASF11
 198 00a4 02       		.byte	0x2
 199 00a5 7001     		.2byte	0x170
 200 00a7 76000000 		.4byte	0x76
 201 00ab 02       		.byte	0x2
 202 00ac 23       		.byte	0x23
 203 00ad 04       		.uleb128 0x4
 204 00ae 09       		.uleb128 0x9
 205 00af 56414C00 		.ascii	"VAL\000"
 206 00b3 02       		.byte	0x2
 207 00b4 7101     		.2byte	0x171
 208 00b6 76000000 		.4byte	0x76
 209 00ba 02       		.byte	0x2
 210 00bb 23       		.byte	0x23
 211 00bc 08       		.uleb128 0x8
 212 00bd 08       		.uleb128 0x8
 213 00be C3000000 		.4byte	.LASF12
 214 00c2 02       		.byte	0x2
 215 00c3 7201     		.2byte	0x172
 216 00c5 82000000 		.4byte	0x82
 217 00c9 02       		.byte	0x2
 218 00ca 23       		.byte	0x23
 219 00cb 0C       		.uleb128 0xc
 220 00cc 00       		.byte	0x0
 221 00cd 0A       		.uleb128 0xa
ARM GAS  /tmp/cceTjG3L.s 			page 5


 222 00ce 91000000 		.4byte	.LASF14
 223 00d2 02       		.byte	0x2
 224 00d3 7301     		.2byte	0x173
 225 00d5 87000000 		.4byte	0x87
 226 00d9 0B       		.uleb128 0xb
 227 00da 01       		.byte	0x1
 228 00db 55010000 		.4byte	.LASF15
 229 00df 01       		.byte	0x1
 230 00e0 41       		.byte	0x41
 231 00e1 01       		.byte	0x1
 232 00e2 00000000 		.4byte	.LFB36
 233 00e6 38000000 		.4byte	.LFE36
 234 00ea 00000000 		.4byte	.LLST0
 235 00ee 0C       		.uleb128 0xc
 236 00ef 01       		.byte	0x1
 237 00f0 78000000 		.4byte	.LASF16
 238 00f4 01       		.byte	0x1
 239 00f5 5B       		.byte	0x5b
 240 00f6 01       		.byte	0x1
 241 00f7 00000000 		.4byte	.LFB37
 242 00fb 04000000 		.4byte	.LFE37
 243 00ff 02       		.byte	0x2
 244 0100 7D       		.byte	0x7d
 245 0101 00       		.sleb128 0
 246 0102 0D       		.uleb128 0xd
 247 0103 62010000 		.4byte	.LASF17
 248 0107 02       		.byte	0x2
 249 0108 CE06     		.2byte	0x6ce
 250 010a 10010000 		.4byte	0x110
 251 010e 01       		.byte	0x1
 252 010f 01       		.byte	0x1
 253 0110 05       		.uleb128 0x5
 254 0111 25000000 		.4byte	0x25
 255 0115 0E       		.uleb128 0xe
 256 0116 3A000000 		.4byte	.LASF18
 257 011a 04       		.byte	0x4
 258 011b 21       		.byte	0x21
 259 011c 56000000 		.4byte	0x56
 260 0120 01       		.byte	0x1
 261 0121 01       		.byte	0x1
 262 0122 0D       		.uleb128 0xd
 263 0123 62010000 		.4byte	.LASF17
 264 0127 02       		.byte	0x2
 265 0128 CE06     		.2byte	0x6ce
 266 012a 10010000 		.4byte	0x110
 267 012e 01       		.byte	0x1
 268 012f 01       		.byte	0x1
 269 0130 0E       		.uleb128 0xe
 270 0131 3A000000 		.4byte	.LASF18
 271 0135 04       		.byte	0x4
 272 0136 21       		.byte	0x21
 273 0137 56000000 		.4byte	0x56
 274 013b 01       		.byte	0x1
 275 013c 01       		.byte	0x1
 276 013d 00       		.byte	0x0
 277              		.section	.debug_abbrev
 278 0000 01       		.uleb128 0x1
ARM GAS  /tmp/cceTjG3L.s 			page 6


 279 0001 11       		.uleb128 0x11
 280 0002 01       		.byte	0x1
 281 0003 25       		.uleb128 0x25
 282 0004 0E       		.uleb128 0xe
 283 0005 13       		.uleb128 0x13
 284 0006 0B       		.uleb128 0xb
 285 0007 03       		.uleb128 0x3
 286 0008 0E       		.uleb128 0xe
 287 0009 11       		.uleb128 0x11
 288 000a 01       		.uleb128 0x1
 289 000b 52       		.uleb128 0x52
 290 000c 01       		.uleb128 0x1
 291 000d 55       		.uleb128 0x55
 292 000e 06       		.uleb128 0x6
 293 000f 10       		.uleb128 0x10
 294 0010 06       		.uleb128 0x6
 295 0011 00       		.byte	0x0
 296 0012 00       		.byte	0x0
 297 0013 02       		.uleb128 0x2
 298 0014 24       		.uleb128 0x24
 299 0015 00       		.byte	0x0
 300 0016 0B       		.uleb128 0xb
 301 0017 0B       		.uleb128 0xb
 302 0018 3E       		.uleb128 0x3e
 303 0019 0B       		.uleb128 0xb
 304 001a 03       		.uleb128 0x3
 305 001b 08       		.uleb128 0x8
 306 001c 00       		.byte	0x0
 307 001d 00       		.byte	0x0
 308 001e 03       		.uleb128 0x3
 309 001f 24       		.uleb128 0x24
 310 0020 00       		.byte	0x0
 311 0021 0B       		.uleb128 0xb
 312 0022 0B       		.uleb128 0xb
 313 0023 3E       		.uleb128 0x3e
 314 0024 0B       		.uleb128 0xb
 315 0025 03       		.uleb128 0x3
 316 0026 0E       		.uleb128 0xe
 317 0027 00       		.byte	0x0
 318 0028 00       		.byte	0x0
 319 0029 04       		.uleb128 0x4
 320 002a 16       		.uleb128 0x16
 321 002b 00       		.byte	0x0
 322 002c 03       		.uleb128 0x3
 323 002d 0E       		.uleb128 0xe
 324 002e 3A       		.uleb128 0x3a
 325 002f 0B       		.uleb128 0xb
 326 0030 3B       		.uleb128 0x3b
 327 0031 0B       		.uleb128 0xb
 328 0032 49       		.uleb128 0x49
 329 0033 13       		.uleb128 0x13
 330 0034 00       		.byte	0x0
 331 0035 00       		.byte	0x0
 332 0036 05       		.uleb128 0x5
 333 0037 35       		.uleb128 0x35
 334 0038 00       		.byte	0x0
 335 0039 49       		.uleb128 0x49
ARM GAS  /tmp/cceTjG3L.s 			page 7


 336 003a 13       		.uleb128 0x13
 337 003b 00       		.byte	0x0
 338 003c 00       		.byte	0x0
 339 003d 06       		.uleb128 0x6
 340 003e 26       		.uleb128 0x26
 341 003f 00       		.byte	0x0
 342 0040 49       		.uleb128 0x49
 343 0041 13       		.uleb128 0x13
 344 0042 00       		.byte	0x0
 345 0043 00       		.byte	0x0
 346 0044 07       		.uleb128 0x7
 347 0045 13       		.uleb128 0x13
 348 0046 01       		.byte	0x1
 349 0047 0B       		.uleb128 0xb
 350 0048 0B       		.uleb128 0xb
 351 0049 3A       		.uleb128 0x3a
 352 004a 0B       		.uleb128 0xb
 353 004b 3B       		.uleb128 0x3b
 354 004c 05       		.uleb128 0x5
 355 004d 01       		.uleb128 0x1
 356 004e 13       		.uleb128 0x13
 357 004f 00       		.byte	0x0
 358 0050 00       		.byte	0x0
 359 0051 08       		.uleb128 0x8
 360 0052 0D       		.uleb128 0xd
 361 0053 00       		.byte	0x0
 362 0054 03       		.uleb128 0x3
 363 0055 0E       		.uleb128 0xe
 364 0056 3A       		.uleb128 0x3a
 365 0057 0B       		.uleb128 0xb
 366 0058 3B       		.uleb128 0x3b
 367 0059 05       		.uleb128 0x5
 368 005a 49       		.uleb128 0x49
 369 005b 13       		.uleb128 0x13
 370 005c 38       		.uleb128 0x38
 371 005d 0A       		.uleb128 0xa
 372 005e 00       		.byte	0x0
 373 005f 00       		.byte	0x0
 374 0060 09       		.uleb128 0x9
 375 0061 0D       		.uleb128 0xd
 376 0062 00       		.byte	0x0
 377 0063 03       		.uleb128 0x3
 378 0064 08       		.uleb128 0x8
 379 0065 3A       		.uleb128 0x3a
 380 0066 0B       		.uleb128 0xb
 381 0067 3B       		.uleb128 0x3b
 382 0068 05       		.uleb128 0x5
 383 0069 49       		.uleb128 0x49
 384 006a 13       		.uleb128 0x13
 385 006b 38       		.uleb128 0x38
 386 006c 0A       		.uleb128 0xa
 387 006d 00       		.byte	0x0
 388 006e 00       		.byte	0x0
 389 006f 0A       		.uleb128 0xa
 390 0070 16       		.uleb128 0x16
 391 0071 00       		.byte	0x0
 392 0072 03       		.uleb128 0x3
ARM GAS  /tmp/cceTjG3L.s 			page 8


 393 0073 0E       		.uleb128 0xe
 394 0074 3A       		.uleb128 0x3a
 395 0075 0B       		.uleb128 0xb
 396 0076 3B       		.uleb128 0x3b
 397 0077 05       		.uleb128 0x5
 398 0078 49       		.uleb128 0x49
 399 0079 13       		.uleb128 0x13
 400 007a 00       		.byte	0x0
 401 007b 00       		.byte	0x0
 402 007c 0B       		.uleb128 0xb
 403 007d 2E       		.uleb128 0x2e
 404 007e 00       		.byte	0x0
 405 007f 3F       		.uleb128 0x3f
 406 0080 0C       		.uleb128 0xc
 407 0081 03       		.uleb128 0x3
 408 0082 0E       		.uleb128 0xe
 409 0083 3A       		.uleb128 0x3a
 410 0084 0B       		.uleb128 0xb
 411 0085 3B       		.uleb128 0x3b
 412 0086 0B       		.uleb128 0xb
 413 0087 27       		.uleb128 0x27
 414 0088 0C       		.uleb128 0xc
 415 0089 11       		.uleb128 0x11
 416 008a 01       		.uleb128 0x1
 417 008b 12       		.uleb128 0x12
 418 008c 01       		.uleb128 0x1
 419 008d 40       		.uleb128 0x40
 420 008e 06       		.uleb128 0x6
 421 008f 00       		.byte	0x0
 422 0090 00       		.byte	0x0
 423 0091 0C       		.uleb128 0xc
 424 0092 2E       		.uleb128 0x2e
 425 0093 00       		.byte	0x0
 426 0094 3F       		.uleb128 0x3f
 427 0095 0C       		.uleb128 0xc
 428 0096 03       		.uleb128 0x3
 429 0097 0E       		.uleb128 0xe
 430 0098 3A       		.uleb128 0x3a
 431 0099 0B       		.uleb128 0xb
 432 009a 3B       		.uleb128 0x3b
 433 009b 0B       		.uleb128 0xb
 434 009c 27       		.uleb128 0x27
 435 009d 0C       		.uleb128 0xc
 436 009e 11       		.uleb128 0x11
 437 009f 01       		.uleb128 0x1
 438 00a0 12       		.uleb128 0x12
 439 00a1 01       		.uleb128 0x1
 440 00a2 40       		.uleb128 0x40
 441 00a3 0A       		.uleb128 0xa
 442 00a4 00       		.byte	0x0
 443 00a5 00       		.byte	0x0
 444 00a6 0D       		.uleb128 0xd
 445 00a7 34       		.uleb128 0x34
 446 00a8 00       		.byte	0x0
 447 00a9 03       		.uleb128 0x3
 448 00aa 0E       		.uleb128 0xe
 449 00ab 3A       		.uleb128 0x3a
ARM GAS  /tmp/cceTjG3L.s 			page 9


 450 00ac 0B       		.uleb128 0xb
 451 00ad 3B       		.uleb128 0x3b
 452 00ae 05       		.uleb128 0x5
 453 00af 49       		.uleb128 0x49
 454 00b0 13       		.uleb128 0x13
 455 00b1 3F       		.uleb128 0x3f
 456 00b2 0C       		.uleb128 0xc
 457 00b3 3C       		.uleb128 0x3c
 458 00b4 0C       		.uleb128 0xc
 459 00b5 00       		.byte	0x0
 460 00b6 00       		.byte	0x0
 461 00b7 0E       		.uleb128 0xe
 462 00b8 34       		.uleb128 0x34
 463 00b9 00       		.byte	0x0
 464 00ba 03       		.uleb128 0x3
 465 00bb 0E       		.uleb128 0xe
 466 00bc 3A       		.uleb128 0x3a
 467 00bd 0B       		.uleb128 0xb
 468 00be 3B       		.uleb128 0x3b
 469 00bf 0B       		.uleb128 0xb
 470 00c0 49       		.uleb128 0x49
 471 00c1 13       		.uleb128 0x13
 472 00c2 3F       		.uleb128 0x3f
 473 00c3 0C       		.uleb128 0xc
 474 00c4 3C       		.uleb128 0x3c
 475 00c5 0C       		.uleb128 0xc
 476 00c6 00       		.byte	0x0
 477 00c7 00       		.byte	0x0
 478 00c8 00       		.byte	0x0
 479              		.section	.debug_pubnames,"",%progbits
 480 0000 37000000 		.4byte	0x37
 481 0004 0200     		.2byte	0x2
 482 0006 00000000 		.4byte	.Ldebug_info0
 483 000a 3E010000 		.4byte	0x13e
 484 000e D9000000 		.4byte	0xd9
 485 0012 68616C5F 		.ascii	"hal_lld_init\000"
 485      6C6C645F 
 485      696E6974 
 485      00
 486 001f EE000000 		.4byte	0xee
 487 0023 61743931 		.ascii	"at91sam3_clock_init\000"
 487      73616D33 
 487      5F636C6F 
 487      636B5F69 
 487      6E697400 
 488 0037 00000000 		.4byte	0x0
 489              		.section	.debug_pubtypes,"",%progbits
 490 0000 2C000000 		.4byte	0x2c
 491 0004 0200     		.2byte	0x2
 492 0006 00000000 		.4byte	.Ldebug_info0
 493 000a 3E010000 		.4byte	0x13e
 494 000e 56000000 		.4byte	0x56
 495 0012 75696E74 		.ascii	"uint32_t\000"
 495      33325F74 
 495      00
 496 001b CD000000 		.4byte	0xcd
 497 001f 53797354 		.ascii	"SysTick_Type\000"
ARM GAS  /tmp/cceTjG3L.s 			page 10


 497      69636B5F 
 497      54797065 
 497      00
 498 002c 00000000 		.4byte	0x0
 499              		.section	.debug_aranges,"",%progbits
 500 0000 24000000 		.4byte	0x24
 501 0004 0200     		.2byte	0x2
 502 0006 00000000 		.4byte	.Ldebug_info0
 503 000a 04       		.byte	0x4
 504 000b 00       		.byte	0x0
 505 000c 0000     		.2byte	0x0
 506 000e 0000     		.2byte	0x0
 507 0010 00000000 		.4byte	.LFB36
 508 0014 38000000 		.4byte	.LFE36-.LFB36
 509 0018 00000000 		.4byte	.LFB37
 510 001c 04000000 		.4byte	.LFE37-.LFB37
 511 0020 00000000 		.4byte	0x0
 512 0024 00000000 		.4byte	0x0
 513              		.section	.debug_ranges,"",%progbits
 514              	.Ldebug_ranges0:
 515 0000 00000000 		.4byte	.LFB36
 516 0004 38000000 		.4byte	.LFE36
 517 0008 00000000 		.4byte	.LFB37
 518 000c 04000000 		.4byte	.LFE37
 519 0010 00000000 		.4byte	0x0
 520 0014 00000000 		.4byte	0x0
 521              		.section	.debug_str,"MS",%progbits,1
 522              	.LASF7:
 523 0000 6C6F6E67 		.ascii	"long long int\000"
 523      206C6F6E 
 523      6720696E 
 523      7400
 524              	.LASF4:
 525 000e 73686F72 		.ascii	"short unsigned int\000"
 525      7420756E 
 525      7369676E 
 525      65642069 
 525      6E7400
 526              	.LASF19:
 527 0021 474E5520 		.ascii	"GNU C 4.5.2\000"
 527      4320342E 
 527      352E3200 
 528              	.LASF0:
 529 002d 756E7369 		.ascii	"unsigned int\000"
 529      676E6564 
 529      20696E74 
 529      00
 530              	.LASF18:
 531 003a 53797374 		.ascii	"SystemCoreClock\000"
 531      656D436F 
 531      7265436C 
 531      6F636B00 
 532              	.LASF6:
 533 004a 6C6F6E67 		.ascii	"long unsigned int\000"
 533      20756E73 
 533      69676E65 
 533      6420696E 
ARM GAS  /tmp/cceTjG3L.s 			page 11


 533      7400
 534              	.LASF10:
 535 005c 4354524C 		.ascii	"CTRL\000"
 535      00
 536              	.LASF8:
 537 0061 6C6F6E67 		.ascii	"long long unsigned int\000"
 537      206C6F6E 
 537      6720756E 
 537      7369676E 
 537      65642069 
 538              	.LASF16:
 539 0078 61743931 		.ascii	"at91sam3_clock_init\000"
 539      73616D33 
 539      5F636C6F 
 539      636B5F69 
 539      6E697400 
 540              	.LASF11:
 541 008c 4C4F4144 		.ascii	"LOAD\000"
 541      00
 542              	.LASF14:
 543 0091 53797354 		.ascii	"SysTick_Type\000"
 543      69636B5F 
 543      54797065 
 543      00
 544              	.LASF2:
 545 009e 756E7369 		.ascii	"unsigned char\000"
 545      676E6564 
 545      20636861 
 545      7200
 546              	.LASF9:
 547 00ac 63686172 		.ascii	"char\000"
 547      00
 548              	.LASF13:
 549 00b1 75696E74 		.ascii	"uint32_t\000"
 549      33325F74 
 549      00
 550              	.LASF5:
 551 00ba 6C6F6E67 		.ascii	"long int\000"
 551      20696E74 
 551      00
 552              	.LASF12:
 553 00c3 43414C49 		.ascii	"CALIB\000"
 553      4200
 554              	.LASF20:
 555 00c9 2F686F6D 		.ascii	"/home/jairom/Documentos/Proyectos/Embebidos/Robocop"
 555      652F6A61 
 555      69726F6D 
 555      2F446F63 
 555      756D656E 
 556 00fc 2F536F75 		.ascii	"/Source/code/matrix-creator-mcu/third_party/ChibiOS"
 556      7263652F 
 556      636F6465 
 556      2F6D6174 
 556      7269782D 
 557 012f 2F6F732F 		.ascii	"/os/hal/platforms/AT91SAM3S/hal_lld.c\000"
 557      68616C2F 
 557      706C6174 
ARM GAS  /tmp/cceTjG3L.s 			page 12


 557      666F726D 
 557      732F4154 
 558              	.LASF15:
 559 0155 68616C5F 		.ascii	"hal_lld_init\000"
 559      6C6C645F 
 559      696E6974 
 559      00
 560              	.LASF17:
 561 0162 49544D5F 		.ascii	"ITM_RxBuffer\000"
 561      52784275 
 561      66666572 
 561      00
 562              	.LASF1:
 563 016f 7369676E 		.ascii	"signed char\000"
 563      65642063 
 563      68617200 
 564              	.LASF3:
 565 017b 73686F72 		.ascii	"short int\000"
 565      7420696E 
 565      7400
 566              		.ident	"GCC: (Sourcery G++ Lite 2011.03-42) 4.5.2"
ARM GAS  /tmp/cceTjG3L.s 			page 13


DEFINED SYMBOLS
                            *ABS*:00000000 hal_lld.c
     /tmp/cceTjG3L.s:24     .text.hal_lld_init:00000000 $t
     /tmp/cceTjG3L.s:30     .text.hal_lld_init:00000000 hal_lld_init
     /tmp/cceTjG3L.s:71     .text.hal_lld_init:0000002c $d
     /tmp/cceTjG3L.s:78     .text.at91sam3_clock_init:00000000 $t
     /tmp/cceTjG3L.s:84     .text.at91sam3_clock_init:00000000 at91sam3_clock_init
                     .debug_frame:00000010 $d
     /tmp/cceTjG3L.s:77     .text.hal_lld_init:00000038 $t

UNDEFINED SYMBOLS
SystemCoreClockUpdate
nvicSetSystemHandlerPriority
SystemCoreClock
SystemInit
