ARM GAS  /tmp/ccZwcdmm.s 			page 1


   1              		.syntax unified
   2              		.cpu cortex-m3
   3              		.fpu softvfp
   4              		.eabi_attribute 20, 1
   5              		.eabi_attribute 21, 1
   6              		.eabi_attribute 23, 3
   7              		.eabi_attribute 24, 1
   8              		.eabi_attribute 25, 1
   9              		.eabi_attribute 26, 1
  10              		.eabi_attribute 30, 2
  11              		.eabi_attribute 18, 4
  12              		.thumb
  13              		.file	"pmc.c"
  14              		.section	.debug_abbrev,"",%progbits
  15              	.Ldebug_abbrev0:
  16              		.section	.debug_info,"",%progbits
  17              	.Ldebug_info0:
  18              		.section	.debug_line,"",%progbits
  19              	.Ldebug_line0:
  20 0000 27030000 		.text
  20      0200A301 
  20      00000201 
  20      FB0E0D00 
  20      01010101 
  21              	.Ltext0:
  22              		.cfi_sections	.debug_frame
  23              		.section	.text.PMC_EnablePeripheral,"ax",%progbits
  24              		.align	2
  25              		.p2align 4,,15
  26              		.global	PMC_EnablePeripheral
  27              		.thumb
  28              		.thumb_func
  29              		.type	PMC_EnablePeripheral, %function
  30              	PMC_EnablePeripheral:
  31              	.LFB0:
  32              		.file 1 "/home/jairom/Documentos/Proyectos/Embebidos/Robocop/Source/code/matrix-creator-mcu/third_
  33              		.loc 1 62 0
  34              		.cfi_startproc
  35              		@ args = 0, pretend = 0, frame = 0
  36              		@ frame_needed = 0, uses_anonymous_args = 0
  37              	.LVL0:
  38              		.loc 1 63 0
  39 0000 2228     		cmp	r0, #34
  40              		.loc 1 62 0
  41 0002 08B5     		push	{r3, lr}
  42              	.LCFI0:
  43              		.cfi_def_cfa_offset 8
  44              		.loc 1 63 0
  45 0004 1AD8     		bhi	.L6
  46              		.cfi_offset 14, -4
  47              		.cfi_offset 3, -8
  48              		.loc 1 65 0
  49 0006 1F28     		cmp	r0, #31
  50 0008 0AD8     		bhi	.L3
  51              		.loc 1 67 0
  52 000a 0123     		movs	r3, #1
  53 000c 13FA00F0 		lsls	r0, r3, r0
ARM GAS  /tmp/ccZwcdmm.s 			page 2


  54              	.LVL1:
  55 0010 0D4B     		ldr	r3, .L7
  56 0012 9969     		ldr	r1, [r3, #24]
  57 0014 00EA0102 		and	r2, r0, r1
  58 0018 9042     		cmp	r0, r2
  59 001a 0ED0     		beq	.L1
  60              		.loc 1 73 0
  61 001c 1861     		str	r0, [r3, #16]
  62 001e 08BD     		pop	{r3, pc}
  63              	.LVL2:
  64              	.L3:
  65              		.loc 1 78 0
  66 0020 2038     		subs	r0, r0, #32
  67              	.LVL3:
  68              		.loc 1 79 0
  69 0022 0123     		movs	r3, #1
  70 0024 13FA00F0 		lsls	r0, r3, r0
  71              	.LVL4:
  72 0028 0749     		ldr	r1, .L7
  73 002a D1F80821 		ldr	r2, [r1, #264]
  74 002e 00EA020C 		and	ip, r0, r2
  75 0032 6045     		cmp	r0, ip
  76              		.loc 1 85 0
  77 0034 18BF     		it	ne
  78 0036 C1F80001 		strne	r0, [r1, #256]
  79              	.L1:
  80 003a 08BD     		pop	{r3, pc}
  81              	.LVL5:
  82              	.L6:
  83              		.loc 1 63 0 discriminator 1
  84 003c 0348     		ldr	r0, .L7+4
  85              	.LVL6:
  86 003e 3F21     		movs	r1, #63
  87 0040 034A     		ldr	r2, .L7+8
  88 0042 044B     		ldr	r3, .L7+12
  89 0044 FFF7FEFF 		bl	__assert_func
  90              	.L8:
  91              		.align	2
  92              	.L7:
  93 0048 00040E40 		.word	1074660352
  94 004c 00000000 		.word	.LC0
  95 0050 00000000 		.word	.LANCHOR0
  96 0054 88000000 		.word	.LC1
  97              		.cfi_endproc
  98              	.LFE0:
  99              		.size	PMC_EnablePeripheral, .-PMC_EnablePeripheral
 100 0058 AFF30080 		.section	.text.PMC_DisablePeripheral,"ax",%progbits
 100      AFF30080 
 101              		.align	2
 102              		.p2align 4,,15
 103              		.global	PMC_DisablePeripheral
 104              		.thumb
 105              		.thumb_func
 106              		.type	PMC_DisablePeripheral, %function
 107              	PMC_DisablePeripheral:
 108              	.LFB1:
 109              		.loc 1 99 0
ARM GAS  /tmp/ccZwcdmm.s 			page 3


 110              		.cfi_startproc
 111              		@ args = 0, pretend = 0, frame = 0
 112              		@ frame_needed = 0, uses_anonymous_args = 0
 113              	.LVL7:
 114              		.loc 1 100 0
 115 0000 2228     		cmp	r0, #34
 116              		.loc 1 99 0
 117 0002 08B5     		push	{r3, lr}
 118              	.LCFI1:
 119              		.cfi_def_cfa_offset 8
 120              		.loc 1 100 0
 121 0004 1AD8     		bhi	.L13
 122              		.cfi_offset 14, -4
 123              		.cfi_offset 3, -8
 124              		.loc 1 102 0
 125 0006 1F28     		cmp	r0, #31
 126 0008 0DD9     		bls	.L14
 127              	.LVL8:
 128              		.loc 1 115 0
 129 000a 2038     		subs	r0, r0, #32
 130              	.LVL9:
 131              		.loc 1 116 0
 132 000c 0123     		movs	r3, #1
 133 000e 13FA00F0 		lsls	r0, r3, r0
 134              	.LVL10:
 135 0012 0D49     		ldr	r1, .L15
 136 0014 D1F80821 		ldr	r2, [r1, #264]
 137 0018 00EA020C 		and	ip, r0, r2
 138 001c 6045     		cmp	r0, ip
 139              		.loc 1 122 0
 140 001e 08BF     		it	eq
 141 0020 C1F80401 		streq	r0, [r1, #260]
 142              	.L9:
 143 0024 08BD     		pop	{r3, pc}
 144              	.LVL11:
 145              	.L14:
 146              		.loc 1 104 0
 147 0026 0123     		movs	r3, #1
 148 0028 13FA00F0 		lsls	r0, r3, r0
 149              	.LVL12:
 150 002c 064B     		ldr	r3, .L15
 151 002e 9969     		ldr	r1, [r3, #24]
 152 0030 00EA0102 		and	r2, r0, r1
 153 0034 9042     		cmp	r0, r2
 154 0036 F5D1     		bne	.L9
 155              		.loc 1 110 0
 156 0038 5861     		str	r0, [r3, #20]
 157 003a 08BD     		pop	{r3, pc}
 158              	.LVL13:
 159              	.L13:
 160              		.loc 1 100 0 discriminator 1
 161 003c 0348     		ldr	r0, .L15+4
 162              	.LVL14:
 163 003e 6421     		movs	r1, #100
 164 0040 034A     		ldr	r2, .L15+8
 165 0042 044B     		ldr	r3, .L15+12
 166 0044 FFF7FEFF 		bl	__assert_func
ARM GAS  /tmp/ccZwcdmm.s 			page 4


 167              	.L16:
 168              		.align	2
 169              	.L15:
 170 0048 00040E40 		.word	1074660352
 171 004c 00000000 		.word	.LC0
 172 0050 00000000 		.word	.LANCHOR1
 173 0054 88000000 		.word	.LC1
 174              		.cfi_endproc
 175              	.LFE1:
 176              		.size	PMC_DisablePeripheral, .-PMC_DisablePeripheral
 177 0058 AFF30080 		.section	.text.PMC_EnableAllPeripherals,"ax",%progbits
 177      AFF30080 
 178              		.align	2
 179              		.p2align 4,,15
 180              		.global	PMC_EnableAllPeripherals
 181              		.thumb
 182              		.thumb_func
 183              		.type	PMC_EnableAllPeripherals, %function
 184              	PMC_EnableAllPeripherals:
 185              	.LFB2:
 186              		.loc 1 131 0
 187              		.cfi_startproc
 188              		@ args = 0, pretend = 0, frame = 0
 189              		@ frame_needed = 0, uses_anonymous_args = 0
 190              		@ link register save eliminated.
 191              		.loc 1 132 0
 192 0000 0A49     		ldr	r1, .L22
 193 0002 6FF00303 		mvn	r3, #3
 194 0006 0B61     		str	r3, [r1, #16]
 195              	.L18:
 196              		.loc 1 133 0 discriminator 1
 197 0008 8B69     		ldr	r3, [r1, #24]
 198 000a 084A     		ldr	r2, .L22
 199 000c 23F00300 		bic	r0, r3, #3
 200 0010 10F1040F 		cmn	r0, #4
 201 0014 F8D1     		bne	.L18
 202              		.loc 1 135 0
 203 0016 4FF0FF31 		mov	r1, #-1
 204 001a C2F80011 		str	r1, [r2, #256]
 205              	.L19:
 206              		.loc 1 136 0 discriminator 1
 207 001e D2F80801 		ldr	r0, [r2, #264]
 208 0022 B0F1FF3F 		cmp	r0, #-1
 209 0026 FAD1     		bne	.L19
 210              		.loc 1 139 0
 211 0028 7047     		bx	lr
 212              	.L23:
 213 002a 00BF     		.align	2
 214              	.L22:
 215 002c 00040E40 		.word	1074660352
 216              		.cfi_endproc
 217              	.LFE2:
 218              		.size	PMC_EnableAllPeripherals, .-PMC_EnableAllPeripherals
 219              		.section	.text.PMC_DisableAllPeripherals,"ax",%progbits
 220              		.align	2
 221              		.p2align 4,,15
 222              		.global	PMC_DisableAllPeripherals
ARM GAS  /tmp/ccZwcdmm.s 			page 5


 223              		.thumb
 224              		.thumb_func
 225              		.type	PMC_DisableAllPeripherals, %function
 226              	PMC_DisableAllPeripherals:
 227              	.LFB3:
 228              		.loc 1 145 0
 229              		.cfi_startproc
 230              		@ args = 0, pretend = 0, frame = 0
 231              		@ frame_needed = 0, uses_anonymous_args = 0
 232              		@ link register save eliminated.
 233              		.loc 1 146 0
 234 0000 0849     		ldr	r1, .L29
 235 0002 6FF00303 		mvn	r3, #3
 236 0006 4B61     		str	r3, [r1, #20]
 237              	.L25:
 238              		.loc 1 147 0 discriminator 1
 239 0008 8869     		ldr	r0, [r1, #24]
 240 000a 064A     		ldr	r2, .L29
 241 000c 30F00300 		bics	r0, r0, #3
 242 0010 FAD1     		bne	.L25
 243              		.loc 1 149 0
 244 0012 4FF0FF31 		mov	r1, #-1
 245 0016 C2F80411 		str	r1, [r2, #260]
 246              	.L26:
 247              		.loc 1 150 0 discriminator 1
 248 001a D2F80831 		ldr	r3, [r2, #264]
 249 001e 002B     		cmp	r3, #0
 250 0020 FBD1     		bne	.L26
 251              		.loc 1 153 0
 252 0022 7047     		bx	lr
 253              	.L30:
 254              		.align	2
 255              	.L29:
 256 0024 00040E40 		.word	1074660352
 257              		.cfi_endproc
 258              	.LFE3:
 259              		.size	PMC_DisableAllPeripherals, .-PMC_DisableAllPeripherals
 260 0028 AFF30080 		.section	.text.PMC_IsPeriphEnabled,"ax",%progbits
 260      AFF30080 
 261              		.align	2
 262              		.p2align 4,,15
 263              		.global	PMC_IsPeriphEnabled
 264              		.thumb
 265              		.thumb_func
 266              		.type	PMC_IsPeriphEnabled, %function
 267              	PMC_IsPeriphEnabled:
 268              	.LFB4:
 269              		.loc 1 161 0
 270              		.cfi_startproc
 271              		@ args = 0, pretend = 0, frame = 0
 272              		@ frame_needed = 0, uses_anonymous_args = 0
 273              	.LVL15:
 274              		.loc 1 162 0
 275 0000 2228     		cmp	r0, #34
 276              		.loc 1 161 0
 277 0002 08B5     		push	{r3, lr}
 278              	.LCFI2:
ARM GAS  /tmp/ccZwcdmm.s 			page 6


 279              		.cfi_def_cfa_offset 8
 280              		.loc 1 162 0
 281 0004 11D8     		bhi	.L35
 282              		.cfi_offset 14, -4
 283              		.cfi_offset 3, -8
 284              		.loc 1 164 0
 285 0006 1F28     		cmp	r0, #31
 286 0008 08D9     		bls	.L36
 287              		.loc 1 169 0
 288 000a 2038     		subs	r0, r0, #32
 289              	.LVL16:
 290 000c 0122     		movs	r2, #1
 291 000e 12FA00F0 		lsls	r0, r2, r0
 292              	.LVL17:
 293 0012 0949     		ldr	r1, .L37
 294 0014 D1F80831 		ldr	r3, [r1, #264]
 295 0018 1840     		ands	r0, r0, r3
 296              		.loc 1 171 0
 297 001a 08BD     		pop	{r3, pc}
 298              	.LVL18:
 299              	.L36:
 300              		.loc 1 166 0
 301 001c 0122     		movs	r2, #1
 302 001e 12FA00F0 		lsls	r0, r2, r0
 303              	.LVL19:
 304 0022 0549     		ldr	r1, .L37
 305 0024 8B69     		ldr	r3, [r1, #24]
 306 0026 1840     		ands	r0, r0, r3
 307 0028 08BD     		pop	{r3, pc}
 308              	.LVL20:
 309              	.L35:
 310              		.loc 1 162 0 discriminator 1
 311 002a 0448     		ldr	r0, .L37+4
 312              	.LVL21:
 313 002c A221     		movs	r1, #162
 314 002e 044A     		ldr	r2, .L37+8
 315 0030 044B     		ldr	r3, .L37+12
 316 0032 FFF7FEFF 		bl	__assert_func
 317              	.L38:
 318 0036 00BF     		.align	2
 319              	.L37:
 320 0038 00040E40 		.word	1074660352
 321 003c 00000000 		.word	.LC0
 322 0040 00000000 		.word	.LANCHOR2
 323 0044 88000000 		.word	.LC1
 324              		.cfi_endproc
 325              	.LFE4:
 326              		.size	PMC_IsPeriphEnabled, .-PMC_IsPeriphEnabled
 327 0048 AFF30080 		.section	.text.PmcMasterClockSelection,"ax",%progbits
 327      AFF30080 
 328              		.align	2
 329              		.p2align 4,,15
 330              		.global	PmcMasterClockSelection
 331              		.thumb
 332              		.thumb_func
 333              		.type	PmcMasterClockSelection, %function
 334              	PmcMasterClockSelection:
ARM GAS  /tmp/ccZwcdmm.s 			page 7


 335              	.LFB5:
 336              		.loc 1 175 0
 337              		.cfi_startproc
 338              		@ args = 0, pretend = 0, frame = 0
 339              		@ frame_needed = 0, uses_anonymous_args = 0
 340              		@ link register save eliminated.
 341              	.LVL22:
 342 0000 30B4     		push	{r4, r5}
 343              	.LCFI3:
 344              		.cfi_def_cfa_offset 8
 345              		.loc 1 178 0
 346 0002 0328     		cmp	r0, #3
 347 0004 0FD8     		bhi	.L39
 348 0006 DFE800F0 		tbb	[pc, r0]
 349              		.cfi_offset 5, -4
 350              		.cfi_offset 4, -8
 351              	.L43:
 352 000a 45       		.byte	(.L41-.L43)/2
 353 000b 45       		.byte	(.L41-.L43)/2
 354 000c 10       		.byte	(.L42-.L43)/2
 355 000d 10       		.byte	(.L42-.L43)/2
 356              		.align	1
 357              	.LVL23:
 358              	.L66:
 359              		.loc 1 192 0 discriminator 2
 360 000e B3F1FF3F 		cmp	r3, #-1
 361 0012 08D0     		beq	.L39
 362              	.LVL24:
 363              		.loc 1 192 0 is_stmt 0
 364 0014 916E     		ldr	r1, [r2, #104]
 365 0016 0233     		adds	r3, r3, #2
 366 0018 11F0080F 		tst	r1, #8
 367 001c 03D1     		bne	.L39
 368              	.L46:
 369              	.LVL25:
 370              		.loc 1 192 0 discriminator 1
 371 001e 906E     		ldr	r0, [r2, #104]
 372 0020 10F0080F 		tst	r0, #8
 373 0024 F3D0     		beq	.L66
 374              	.LVL26:
 375              	.L39:
 376              		.loc 1 210 0 is_stmt 1
 377 0026 30BC     		pop	{r4, r5}
 378 0028 7047     		bx	lr
 379              	.LVL27:
 380              	.L42:
 381              		.loc 1 198 0
 382 002a 2D4C     		ldr	r4, .L70
 383              		.loc 1 176 0
 384 002c 0023     		movs	r3, #0
 385              		.loc 1 198 0
 386 002e 256B     		ldr	r5, [r4, #48]
 387              		.loc 1 201 0
 388 0030 2246     		mov	r2, r4
 389              		.loc 1 198 0
 390 0032 25F07005 		bic	r5, r5, #112
 391 0036 2943     		orrs	r1, r1, r5
ARM GAS  /tmp/ccZwcdmm.s 			page 8


 392              	.LVL28:
 393 0038 2163     		str	r1, [r4, #48]
 394              		.loc 1 201 0
 395 003a 06E0     		b	.L48
 396              	.LVL29:
 397              	.L67:
 398              		.loc 1 201 0 is_stmt 0 discriminator 2
 399 003c 946E     		ldr	r4, [r2, #104]
 400 003e 0133     		adds	r3, r3, #1
 401              	.LVL30:
 402 0040 14F0080F 		tst	r4, #8
 403 0044 05D1     		bne	.L47
 404              	.LVL31:
 405              		.loc 1 201 0
 406 0046 0133     		adds	r3, r3, #1
 407              	.LVL32:
 408 0048 03D0     		beq	.L47
 409              	.LVL33:
 410              	.L48:
 411              		.loc 1 201 0 discriminator 1
 412 004a 916E     		ldr	r1, [r2, #104]
 413 004c 11F0080F 		tst	r1, #8
 414 0050 F4D0     		beq	.L67
 415              	.L47:
 416              		.loc 1 204 0 is_stmt 1
 417 0052 2349     		ldr	r1, .L70
 418 0054 13F0010F 		tst	r3, #1
 419 0058 0C6B     		ldr	r4, [r1, #48]
 420              		.loc 1 207 0
 421 005a 0A46     		mov	r2, r1
 422              		.loc 1 204 0
 423 005c 24F00304 		bic	r4, r4, #3
 424 0060 40EA0400 		orr	r0, r0, r4
 425              	.LVL34:
 426 0064 0863     		str	r0, [r1, #48]
 427 0066 10D1     		bne	.L49
 428              		.loc 1 207 0
 429 0068 886E     		ldr	r0, [r1, #104]
 430 006a 10F0080F 		tst	r0, #8
 431 006e DAD1     		bne	.L39
 432              	.LVL35:
 433 0070 916E     		ldr	r1, [r2, #104]
 434 0072 0133     		adds	r3, r3, #1
 435              	.LVL36:
 436 0074 11F0080F 		tst	r1, #8
 437 0078 D5D1     		bne	.L39
 438              	.L68:
 439              	.LVL37:
 440              		.loc 1 207 0 is_stmt 0 discriminator 2
 441 007a B3F1FF3F 		cmp	r3, #-1
 442 007e D2D0     		beq	.L39
 443              	.LVL38:
 444              		.loc 1 207 0
 445 0080 906E     		ldr	r0, [r2, #104]
 446 0082 0233     		adds	r3, r3, #2
 447 0084 10F0080F 		tst	r0, #8
 448 0088 CDD1     		bne	.L39
ARM GAS  /tmp/ccZwcdmm.s 			page 9


 449              	.L49:
 450              	.LVL39:
 451              		.loc 1 207 0 discriminator 1
 452 008a 916E     		ldr	r1, [r2, #104]
 453 008c 11F0080F 		tst	r1, #8
 454 0090 F3D0     		beq	.L68
 455 0092 C8E7     		b	.L39
 456              	.LVL40:
 457              	.L41:
 458              		.loc 1 183 0 is_stmt 1
 459 0094 124C     		ldr	r4, .L70
 460              		.loc 1 176 0
 461 0096 0023     		movs	r3, #0
 462              		.loc 1 183 0
 463 0098 256B     		ldr	r5, [r4, #48]
 464              		.loc 1 186 0
 465 009a 2246     		mov	r2, r4
 466              		.loc 1 183 0
 467 009c 25F00305 		bic	r5, r5, #3
 468 00a0 2843     		orrs	r0, r0, r5
 469              	.LVL41:
 470 00a2 2063     		str	r0, [r4, #48]
 471              		.loc 1 186 0
 472 00a4 06E0     		b	.L45
 473              	.LVL42:
 474              	.L69:
 475              		.loc 1 186 0 is_stmt 0 discriminator 2
 476 00a6 946E     		ldr	r4, [r2, #104]
 477 00a8 0133     		adds	r3, r3, #1
 478              	.LVL43:
 479 00aa 14F0080F 		tst	r4, #8
 480 00ae 05D1     		bne	.L44
 481              	.LVL44:
 482              		.loc 1 186 0
 483 00b0 0133     		adds	r3, r3, #1
 484              	.LVL45:
 485 00b2 03D0     		beq	.L44
 486              	.LVL46:
 487              	.L45:
 488              		.loc 1 186 0 discriminator 1
 489 00b4 906E     		ldr	r0, [r2, #104]
 490 00b6 10F0080F 		tst	r0, #8
 491 00ba F4D0     		beq	.L69
 492              	.L44:
 493              		.loc 1 189 0 is_stmt 1
 494 00bc 0848     		ldr	r0, .L70
 495 00be 13F0010F 		tst	r3, #1
 496 00c2 046B     		ldr	r4, [r0, #48]
 497              		.loc 1 192 0
 498 00c4 0246     		mov	r2, r0
 499              		.loc 1 189 0
 500 00c6 24F07004 		bic	r4, r4, #112
 501 00ca 41EA0401 		orr	r1, r1, r4
 502              	.LVL47:
 503 00ce 0163     		str	r1, [r0, #48]
 504 00d0 A5D1     		bne	.L46
 505              		.loc 1 192 0
ARM GAS  /tmp/ccZwcdmm.s 			page 10


 506 00d2 816E     		ldr	r1, [r0, #104]
 507 00d4 11F0080F 		tst	r1, #8
 508 00d8 A5D1     		bne	.L39
 509              	.LVL48:
 510 00da 0133     		adds	r3, r3, #1
 511              	.LVL49:
 512 00dc 9FE7     		b	.L46
 513              	.L71:
 514 00de 00BF     		.align	2
 515              	.L70:
 516 00e0 00040E40 		.word	1074660352
 517              		.cfi_endproc
 518              	.LFE5:
 519              		.size	PmcMasterClockSelection, .-PmcMasterClockSelection
 520 00e4 AFF30080 		.section	.text.ConfigurePck,"ax",%progbits
 520      AFF30080 
 520      AFF30080 
 521              		.align	2
 522              		.p2align 4,,15
 523              		.global	ConfigurePck
 524              		.thumb
 525              		.thumb_func
 526              		.type	ConfigurePck, %function
 527              	ConfigurePck:
 528              	.LFB6:
 529              		.loc 1 213 0
 530              		.cfi_startproc
 531              		@ args = 0, pretend = 0, frame = 0
 532              		@ frame_needed = 0, uses_anonymous_args = 0
 533              		@ link register save eliminated.
 534              	.LVL50:
 535              		.loc 1 215 0
 536 0000 084B     		ldr	r3, .L75
 537              		.loc 1 219 0
 538 0002 0143     		orrs	r1, r1, r0
 539              	.LVL51:
 540              		.loc 1 215 0
 541 0004 0848     		ldr	r0, .L75+4
 542              	.LVL52:
 543              		.loc 1 217 0
 544 0006 4FF48062 		mov	r2, #1024
 545              		.loc 1 213 0
 546 000a 10B4     		push	{r4}
 547              	.LCFI4:
 548              		.cfi_def_cfa_offset 4
 549              		.loc 1 215 0
 550 000c C3F8E400 		str	r0, [r3, #228]
 551              		.loc 1 223 0
 552 0010 1C46     		mov	r4, r3
 553              		.cfi_offset 4, -4
 554              		.loc 1 217 0
 555 0012 5A60     		str	r2, [r3, #4]
 556              		.loc 1 219 0
 557 0014 9964     		str	r1, [r3, #72]
 558              		.loc 1 221 0
 559 0016 1A60     		str	r2, [r3, #0]
 560              	.L73:
ARM GAS  /tmp/ccZwcdmm.s 			page 11


 561              		.loc 1 223 0 discriminator 1
 562 0018 A26E     		ldr	r2, [r4, #104]
 563 001a 12F4806F 		tst	r2, #1024
 564 001e FBD0     		beq	.L73
 565              		.loc 1 224 0
 566 0020 10BC     		pop	{r4}
 567 0022 7047     		bx	lr
 568              	.L76:
 569              		.align	2
 570              	.L75:
 571 0024 00040E40 		.word	1074660352
 572 0028 00434D50 		.word	1347240704
 573              		.cfi_endproc
 574              	.LFE6:
 575              		.size	ConfigurePck, .-ConfigurePck
 576 002c AFF30080 		.section	.text.PmcMainClockSwitchMainOsc,"ax",%progbits
 577              		.align	2
 578              		.p2align 4,,15
 579              		.global	PmcMainClockSwitchMainOsc
 580              		.thumb
 581              		.thumb_func
 582              		.type	PmcMainClockSwitchMainOsc, %function
 583              	PmcMainClockSwitchMainOsc:
 584              	.LFB7:
 585              		.loc 1 228 0
 586              		.cfi_startproc
 587              		@ args = 0, pretend = 0, frame = 0
 588              		@ frame_needed = 0, uses_anonymous_args = 0
 589              		@ link register save eliminated.
 590              		.loc 1 232 0
 591 0000 0A4B     		ldr	r3, .L84
 592 0002 0B49     		ldr	r1, .L84+4
 593              		.loc 1 235 0
 594 0004 0022     		movs	r2, #0
 595              		.loc 1 232 0
 596 0006 1962     		str	r1, [r3, #32]
 597              	.LVL53:
 598              		.loc 1 235 0
 599 0008 0BE0     		b	.L79
 600              	.LVL54:
 601              	.L83:
 602              		.loc 1 235 0 is_stmt 0 discriminator 2
 603 000a B2F1FF3F 		cmp	r2, #-1
 604 000e 0CD0     		beq	.L77
 605              	.LVL55:
 606              		.loc 1 235 0
 607 0010 996E     		ldr	r1, [r3, #104]
 608 0012 0332     		adds	r2, r2, #3
 609              	.LVL56:
 610 0014 11F4803F 		tst	r1, #65536
 611 0018 07D1     		bne	.L77
 612              	.LVL57:
 613 001a 986E     		ldr	r0, [r3, #104]
 614 001c 10F4803F 		tst	r0, #65536
 615 0020 03D1     		bne	.L77
 616              	.LVL58:
 617              	.L79:
ARM GAS  /tmp/ccZwcdmm.s 			page 12


 618              		.loc 1 235 0 discriminator 1
 619 0022 986E     		ldr	r0, [r3, #104]
 620 0024 10F4803F 		tst	r0, #65536
 621 0028 EFD0     		beq	.L83
 622              	.LVL59:
 623              	.L77:
 624 002a 7047     		bx	lr
 625              	.L85:
 626              		.align	2
 627              	.L84:
 628 002c 00040E40 		.word	1074660352
 629 0030 09083701 		.word	20383753
 630              		.cfi_endproc
 631              	.LFE7:
 632              		.size	PmcMainClockSwitchMainOsc, .-PmcMainClockSwitchMainOsc
 633 0034 AFF30080 		.section	.text.PmcConfigurePllClock,"ax",%progbits
 633      AFF30080 
 633      AFF30080 
 634              		.align	2
 635              		.p2align 4,,15
 636              		.global	PmcConfigurePllClock
 637              		.thumb
 638              		.thumb_func
 639              		.type	PmcConfigurePllClock, %function
 640              	PmcConfigurePllClock:
 641              	.LFB8:
 642              		.loc 1 240 0 is_stmt 1
 643              		.cfi_startproc
 644              		@ args = 0, pretend = 0, frame = 0
 645              		@ frame_needed = 0, uses_anonymous_args = 0
 646              		@ link register save eliminated.
 647              	.LVL60:
 648 0000 10B4     		push	{r4}
 649              	.LCFI5:
 650              		.cfi_def_cfa_offset 4
 651              		.loc 1 243 0
 652 0002 F8B9     		cbnz	r0, .L87
 653              		.cfi_offset 4, -4
 654              		.loc 1 246 0
 655 0004 1E4C     		ldr	r4, .L99
 656 0006 0B04     		lsls	r3, r1, #16
 657 0008 42F0005C 		orr	ip, r2, #536870912
 658 000c 03EA0404 		and	r4, r3, r4
 659 0010 4CF4F852 		orr	r2, ip, #7936
 660              	.LVL61:
 661 0014 1B4B     		ldr	r3, .L99+4
 662 0016 42EA0404 		orr	r4, r2, r4
 663 001a 9C62     		str	r4, [r3, #40]
 664              		.loc 1 249 0
 665 001c 69B9     		cbnz	r1, .L89
 666              	.LVL62:
 667              	.L86:
 668              		.loc 1 268 0
 669 001e 10BC     		pop	{r4}
 670 0020 7047     		bx	lr
 671              	.LVL63:
 672              	.L97:
ARM GAS  /tmp/ccZwcdmm.s 			page 13


 673              		.loc 1 252 0 discriminator 2
 674 0022 B0F1FF3F 		cmp	r0, #-1
 675 0026 FAD0     		beq	.L86
 676              	.LVL64:
 677              		.loc 1 252 0 is_stmt 0
 678 0028 9A6E     		ldr	r2, [r3, #104]
 679 002a 0330     		adds	r0, r0, #3
 680              	.LVL65:
 681 002c 12F0020F 		tst	r2, #2
 682 0030 F5D1     		bne	.L86
 683              	.LVL66:
 684 0032 9A6E     		ldr	r2, [r3, #104]
 685 0034 12F0020F 		tst	r2, #2
 686 0038 F1D1     		bne	.L86
 687              	.LVL67:
 688              	.L89:
 689              		.loc 1 252 0 discriminator 1
 690 003a 996E     		ldr	r1, [r3, #104]
 691 003c 11F0020F 		tst	r1, #2
 692 0040 EFD0     		beq	.L97
 693 0042 ECE7     		b	.L86
 694              	.LVL68:
 695              	.L87:
 696              		.loc 1 256 0 is_stmt 1
 697 0044 0128     		cmp	r0, #1
 698 0046 EAD1     		bne	.L86
 699              		.loc 1 259 0
 700 0048 0D48     		ldr	r0, .L99
 701              	.LVL69:
 702 004a 42F00052 		orr	r2, r2, #536870912
 703              	.LVL70:
 704 004e 0C04     		lsls	r4, r1, #16
 705 0050 42F4F85C 		orr	ip, r2, #7936
 706 0054 04EA0003 		and	r3, r4, r0
 707 0058 0A4A     		ldr	r2, .L99+4
 708 005a 4CEA0300 		orr	r0, ip, r3
 709 005e D062     		str	r0, [r2, #44]
 710              		.loc 1 262 0
 711 0060 0029     		cmp	r1, #0
 712 0062 DCD0     		beq	.L86
 713              		.loc 1 262 0 is_stmt 0 discriminator 1
 714 0064 0023     		movs	r3, #0
 715 0066 05E0     		b	.L90
 716              	.LVL71:
 717              	.L98:
 718              		.loc 1 265 0 is_stmt 1 discriminator 2
 719 0068 906E     		ldr	r0, [r2, #104]
 720 006a 10F0040F 		tst	r0, #4
 721 006e D6D1     		bne	.L86
 722              		.loc 1 265 0 is_stmt 0
 723 0070 013B     		subs	r3, r3, #1
 724 0072 D4D0     		beq	.L86
 725              	.L90:
 726              		.loc 1 265 0 discriminator 1
 727 0074 916E     		ldr	r1, [r2, #104]
 728 0076 013B     		subs	r3, r3, #1
 729 0078 11F0040F 		tst	r1, #4
ARM GAS  /tmp/ccZwcdmm.s 			page 14


 730 007c F4D0     		beq	.L98
 731 007e CEE7     		b	.L86
 732              	.L100:
 733              		.align	2
 734              	.L99:
 735 0080 0000FF07 		.word	134152192
 736 0084 00040E40 		.word	1074660352
 737              		.cfi_endproc
 738              	.LFE8:
 739              		.size	PmcConfigurePllClock, .-PmcConfigurePllClock
 740 0088 AFF30080 		.section	.rodata.__func__.4648,"a",%progbits
 740      AFF30080 
 741              		.align	2
 742              		.set	.LANCHOR2,. + 0
 743              		.type	__func__.4648, %object
 744              		.size	__func__.4648, 20
 745              	__func__.4648:
 746 0000 504D435F 		.ascii	"PMC_IsPeriphEnabled\000"
 746      49735065 
 746      72697068 
 746      456E6162 
 746      6C656400 
 747              		.section	.rodata.__func__.4622,"a",%progbits
 748              		.align	2
 749              		.set	.LANCHOR0,. + 0
 750              		.type	__func__.4622, %object
 751              		.size	__func__.4622, 21
 752              	__func__.4622:
 753 0000 504D435F 		.ascii	"PMC_EnablePeripheral\000"
 753      456E6162 
 753      6C655065 
 753      72697068 
 753      6572616C 
 754 0015 000000   		.section	.rodata.str1.4,"aMS",%progbits,1
 755              		.align	2
 756              	.LC0:
 757 0000 2F686F6D 		.ascii	"/home/jairom/Documentos/Proyectos/Embebidos/Robocop"
 757      652F6A61 
 757      69726F6D 
 757      2F446F63 
 757      756D656E 
 758 0033 2F536F75 		.ascii	"/Source/code/matrix-creator-mcu/third_party/ChibiOS"
 758      7263652F 
 758      636F6465 
 758      2F6D6174 
 758      7269782D 
 759 0066 2F6F732F 		.ascii	"/os/hal/platforms/AT91SAM3S/pmc.c\000"
 759      68616C2F 
 759      706C6174 
 759      666F726D 
 759      732F4154 
 760              	.LC1:
 761 0088 64774964 		.ascii	"dwId < 35\000"
 761      203C2033 
 761      3500
 762 0092 0000     		.section	.rodata.__func__.4626,"a",%progbits
 763              		.align	2
ARM GAS  /tmp/ccZwcdmm.s 			page 15


 764              		.set	.LANCHOR1,. + 0
 765              		.type	__func__.4626, %object
 766              		.size	__func__.4626, 22
 767              	__func__.4626:
 768 0000 504D435F 		.ascii	"PMC_DisablePeripheral\000"
 768      44697361 
 768      626C6550 
 768      65726970 
 768      68657261 
 769 0016 0000     		.text
 770              	.Letext0:
 771              		.section	.debug_loc,"",%progbits
 772              	.Ldebug_loc0:
 773              	.LLST0:
 774 0000 00000000 		.4byte	.LFB0
 775 0004 04000000 		.4byte	.LCFI0
 776 0008 0200     		.2byte	0x2
 777 000a 7D       		.byte	0x7d
 778 000b 00       		.sleb128 0
 779 000c 04000000 		.4byte	.LCFI0
 780 0010 58000000 		.4byte	.LFE0
 781 0014 0200     		.2byte	0x2
 782 0016 7D       		.byte	0x7d
 783 0017 08       		.sleb128 8
 784 0018 00000000 		.4byte	0x0
 785 001c 00000000 		.4byte	0x0
 786              	.LLST1:
 787 0020 00000000 		.4byte	.LVL0
 788 0024 10000000 		.4byte	.LVL1
 789 0028 0100     		.2byte	0x1
 790 002a 50       		.byte	0x50
 791 002b 20000000 		.4byte	.LVL2
 792 002f 22000000 		.4byte	.LVL3
 793 0033 0300     		.2byte	0x3
 794 0035 70       		.byte	0x70
 795 0036 60       		.sleb128 -32
 796 0037 9F       		.byte	0x9f
 797 0038 22000000 		.4byte	.LVL3
 798 003c 28000000 		.4byte	.LVL4
 799 0040 0100     		.2byte	0x1
 800 0042 50       		.byte	0x50
 801 0043 3C000000 		.4byte	.LVL5
 802 0047 3E000000 		.4byte	.LVL6
 803 004b 0100     		.2byte	0x1
 804 004d 50       		.byte	0x50
 805 004e 00000000 		.4byte	0x0
 806 0052 00000000 		.4byte	0x0
 807              	.LLST2:
 808 0056 00000000 		.4byte	.LFB1
 809 005a 04000000 		.4byte	.LCFI1
 810 005e 0200     		.2byte	0x2
 811 0060 7D       		.byte	0x7d
 812 0061 00       		.sleb128 0
 813 0062 04000000 		.4byte	.LCFI1
 814 0066 58000000 		.4byte	.LFE1
 815 006a 0200     		.2byte	0x2
 816 006c 7D       		.byte	0x7d
ARM GAS  /tmp/ccZwcdmm.s 			page 16


 817 006d 08       		.sleb128 8
 818 006e 00000000 		.4byte	0x0
 819 0072 00000000 		.4byte	0x0
 820              	.LLST3:
 821 0076 00000000 		.4byte	.LVL7
 822 007a 0A000000 		.4byte	.LVL8
 823 007e 0100     		.2byte	0x1
 824 0080 50       		.byte	0x50
 825 0081 0A000000 		.4byte	.LVL8
 826 0085 0C000000 		.4byte	.LVL9
 827 0089 0300     		.2byte	0x3
 828 008b 70       		.byte	0x70
 829 008c 60       		.sleb128 -32
 830 008d 9F       		.byte	0x9f
 831 008e 0C000000 		.4byte	.LVL9
 832 0092 12000000 		.4byte	.LVL10
 833 0096 0100     		.2byte	0x1
 834 0098 50       		.byte	0x50
 835 0099 26000000 		.4byte	.LVL11
 836 009d 2C000000 		.4byte	.LVL12
 837 00a1 0100     		.2byte	0x1
 838 00a3 50       		.byte	0x50
 839 00a4 3C000000 		.4byte	.LVL13
 840 00a8 3E000000 		.4byte	.LVL14
 841 00ac 0100     		.2byte	0x1
 842 00ae 50       		.byte	0x50
 843 00af 00000000 		.4byte	0x0
 844 00b3 00000000 		.4byte	0x0
 845              	.LLST4:
 846 00b7 00000000 		.4byte	.LFB4
 847 00bb 04000000 		.4byte	.LCFI2
 848 00bf 0200     		.2byte	0x2
 849 00c1 7D       		.byte	0x7d
 850 00c2 00       		.sleb128 0
 851 00c3 04000000 		.4byte	.LCFI2
 852 00c7 48000000 		.4byte	.LFE4
 853 00cb 0200     		.2byte	0x2
 854 00cd 7D       		.byte	0x7d
 855 00ce 08       		.sleb128 8
 856 00cf 00000000 		.4byte	0x0
 857 00d3 00000000 		.4byte	0x0
 858              	.LLST5:
 859 00d7 00000000 		.4byte	.LVL15
 860 00db 0C000000 		.4byte	.LVL16
 861 00df 0100     		.2byte	0x1
 862 00e1 50       		.byte	0x50
 863 00e2 0C000000 		.4byte	.LVL16
 864 00e6 12000000 		.4byte	.LVL17
 865 00ea 0300     		.2byte	0x3
 866 00ec 70       		.byte	0x70
 867 00ed 20       		.sleb128 32
 868 00ee 9F       		.byte	0x9f
 869 00ef 1C000000 		.4byte	.LVL18
 870 00f3 22000000 		.4byte	.LVL19
 871 00f7 0100     		.2byte	0x1
 872 00f9 50       		.byte	0x50
 873 00fa 2A000000 		.4byte	.LVL20
ARM GAS  /tmp/ccZwcdmm.s 			page 17


 874 00fe 2C000000 		.4byte	.LVL21
 875 0102 0100     		.2byte	0x1
 876 0104 50       		.byte	0x50
 877 0105 00000000 		.4byte	0x0
 878 0109 00000000 		.4byte	0x0
 879              	.LLST6:
 880 010d 00000000 		.4byte	.LFB5
 881 0111 02000000 		.4byte	.LCFI3
 882 0115 0200     		.2byte	0x2
 883 0117 7D       		.byte	0x7d
 884 0118 00       		.sleb128 0
 885 0119 02000000 		.4byte	.LCFI3
 886 011d E4000000 		.4byte	.LFE5
 887 0121 0200     		.2byte	0x2
 888 0123 7D       		.byte	0x7d
 889 0124 08       		.sleb128 8
 890 0125 00000000 		.4byte	0x0
 891 0129 00000000 		.4byte	0x0
 892              	.LLST7:
 893 012d 00000000 		.4byte	.LVL22
 894 0131 0E000000 		.4byte	.LVL23
 895 0135 0100     		.2byte	0x1
 896 0137 50       		.byte	0x50
 897 0138 2A000000 		.4byte	.LVL27
 898 013c 64000000 		.4byte	.LVL34
 899 0140 0100     		.2byte	0x1
 900 0142 50       		.byte	0x50
 901 0143 94000000 		.4byte	.LVL40
 902 0147 A2000000 		.4byte	.LVL41
 903 014b 0100     		.2byte	0x1
 904 014d 50       		.byte	0x50
 905 014e 00000000 		.4byte	0x0
 906 0152 00000000 		.4byte	0x0
 907              	.LLST8:
 908 0156 00000000 		.4byte	.LVL22
 909 015a 0E000000 		.4byte	.LVL23
 910 015e 0100     		.2byte	0x1
 911 0160 51       		.byte	0x51
 912 0161 2A000000 		.4byte	.LVL27
 913 0165 38000000 		.4byte	.LVL28
 914 0169 0100     		.2byte	0x1
 915 016b 51       		.byte	0x51
 916 016c 94000000 		.4byte	.LVL40
 917 0170 CE000000 		.4byte	.LVL47
 918 0174 0100     		.2byte	0x1
 919 0176 51       		.byte	0x51
 920 0177 00000000 		.4byte	0x0
 921 017b 00000000 		.4byte	0x0
 922              	.LLST9:
 923 017f 00000000 		.4byte	.LVL22
 924 0183 0E000000 		.4byte	.LVL23
 925 0187 0200     		.2byte	0x2
 926 0189 30       		.byte	0x30
 927 018a 9F       		.byte	0x9f
 928 018b 0E000000 		.4byte	.LVL23
 929 018f 14000000 		.4byte	.LVL24
 930 0193 0300     		.2byte	0x3
ARM GAS  /tmp/ccZwcdmm.s 			page 18


 931 0195 73       		.byte	0x73
 932 0196 01       		.sleb128 1
 933 0197 9F       		.byte	0x9f
 934 0198 1E000000 		.4byte	.LVL25
 935 019c 26000000 		.4byte	.LVL26
 936 01a0 0100     		.2byte	0x1
 937 01a2 53       		.byte	0x53
 938 01a3 2A000000 		.4byte	.LVL27
 939 01a7 3C000000 		.4byte	.LVL29
 940 01ab 0200     		.2byte	0x2
 941 01ad 30       		.byte	0x30
 942 01ae 9F       		.byte	0x9f
 943 01af 3C000000 		.4byte	.LVL29
 944 01b3 40000000 		.4byte	.LVL30
 945 01b7 0100     		.2byte	0x1
 946 01b9 53       		.byte	0x53
 947 01ba 40000000 		.4byte	.LVL30
 948 01be 46000000 		.4byte	.LVL31
 949 01c2 0100     		.2byte	0x1
 950 01c4 53       		.byte	0x53
 951 01c5 46000000 		.4byte	.LVL31
 952 01c9 48000000 		.4byte	.LVL32
 953 01cd 0300     		.2byte	0x3
 954 01cf 73       		.byte	0x73
 955 01d0 01       		.sleb128 1
 956 01d1 9F       		.byte	0x9f
 957 01d2 48000000 		.4byte	.LVL32
 958 01d6 4A000000 		.4byte	.LVL33
 959 01da 0100     		.2byte	0x1
 960 01dc 53       		.byte	0x53
 961 01dd 4A000000 		.4byte	.LVL33
 962 01e1 70000000 		.4byte	.LVL35
 963 01e5 0100     		.2byte	0x1
 964 01e7 53       		.byte	0x53
 965 01e8 70000000 		.4byte	.LVL35
 966 01ec 74000000 		.4byte	.LVL36
 967 01f0 0300     		.2byte	0x3
 968 01f2 73       		.byte	0x73
 969 01f3 01       		.sleb128 1
 970 01f4 9F       		.byte	0x9f
 971 01f5 74000000 		.4byte	.LVL36
 972 01f9 7A000000 		.4byte	.LVL37
 973 01fd 0100     		.2byte	0x1
 974 01ff 53       		.byte	0x53
 975 0200 7A000000 		.4byte	.LVL37
 976 0204 80000000 		.4byte	.LVL38
 977 0208 0300     		.2byte	0x3
 978 020a 73       		.byte	0x73
 979 020b 01       		.sleb128 1
 980 020c 9F       		.byte	0x9f
 981 020d 8A000000 		.4byte	.LVL39
 982 0211 94000000 		.4byte	.LVL40
 983 0215 0100     		.2byte	0x1
 984 0217 53       		.byte	0x53
 985 0218 94000000 		.4byte	.LVL40
 986 021c A6000000 		.4byte	.LVL42
 987 0220 0200     		.2byte	0x2
ARM GAS  /tmp/ccZwcdmm.s 			page 19


 988 0222 30       		.byte	0x30
 989 0223 9F       		.byte	0x9f
 990 0224 A6000000 		.4byte	.LVL42
 991 0228 AA000000 		.4byte	.LVL43
 992 022c 0100     		.2byte	0x1
 993 022e 53       		.byte	0x53
 994 022f AA000000 		.4byte	.LVL43
 995 0233 B0000000 		.4byte	.LVL44
 996 0237 0100     		.2byte	0x1
 997 0239 53       		.byte	0x53
 998 023a B0000000 		.4byte	.LVL44
 999 023e B2000000 		.4byte	.LVL45
 1000 0242 0300     		.2byte	0x3
 1001 0244 73       		.byte	0x73
 1002 0245 01       		.sleb128 1
 1003 0246 9F       		.byte	0x9f
 1004 0247 B2000000 		.4byte	.LVL45
 1005 024b B4000000 		.4byte	.LVL46
 1006 024f 0100     		.2byte	0x1
 1007 0251 53       		.byte	0x53
 1008 0252 B4000000 		.4byte	.LVL46
 1009 0256 DA000000 		.4byte	.LVL48
 1010 025a 0100     		.2byte	0x1
 1011 025c 53       		.byte	0x53
 1012 025d DA000000 		.4byte	.LVL48
 1013 0261 DC000000 		.4byte	.LVL49
 1014 0265 0300     		.2byte	0x3
 1015 0267 73       		.byte	0x73
 1016 0268 01       		.sleb128 1
 1017 0269 9F       		.byte	0x9f
 1018 026a DC000000 		.4byte	.LVL49
 1019 026e E4000000 		.4byte	.LFE5
 1020 0272 0100     		.2byte	0x1
 1021 0274 53       		.byte	0x53
 1022 0275 00000000 		.4byte	0x0
 1023 0279 00000000 		.4byte	0x0
 1024              	.LLST10:
 1025 027d 00000000 		.4byte	.LFB6
 1026 0281 0C000000 		.4byte	.LCFI4
 1027 0285 0200     		.2byte	0x2
 1028 0287 7D       		.byte	0x7d
 1029 0288 00       		.sleb128 0
 1030 0289 0C000000 		.4byte	.LCFI4
 1031 028d 2C000000 		.4byte	.LFE6
 1032 0291 0200     		.2byte	0x2
 1033 0293 7D       		.byte	0x7d
 1034 0294 04       		.sleb128 4
 1035 0295 00000000 		.4byte	0x0
 1036 0299 00000000 		.4byte	0x0
 1037              	.LLST11:
 1038 029d 00000000 		.4byte	.LVL50
 1039 02a1 06000000 		.4byte	.LVL52
 1040 02a5 0100     		.2byte	0x1
 1041 02a7 50       		.byte	0x50
 1042 02a8 00000000 		.4byte	0x0
 1043 02ac 00000000 		.4byte	0x0
 1044              	.LLST12:
ARM GAS  /tmp/ccZwcdmm.s 			page 20


 1045 02b0 00000000 		.4byte	.LVL50
 1046 02b4 04000000 		.4byte	.LVL51
 1047 02b8 0100     		.2byte	0x1
 1048 02ba 51       		.byte	0x51
 1049 02bb 00000000 		.4byte	0x0
 1050 02bf 00000000 		.4byte	0x0
 1051              	.LLST13:
 1052 02c3 08000000 		.4byte	.LVL53
 1053 02c7 0A000000 		.4byte	.LVL54
 1054 02cb 0200     		.2byte	0x2
 1055 02cd 30       		.byte	0x30
 1056 02ce 9F       		.byte	0x9f
 1057 02cf 0A000000 		.4byte	.LVL54
 1058 02d3 10000000 		.4byte	.LVL55
 1059 02d7 0300     		.2byte	0x3
 1060 02d9 72       		.byte	0x72
 1061 02da 01       		.sleb128 1
 1062 02db 9F       		.byte	0x9f
 1063 02dc 10000000 		.4byte	.LVL55
 1064 02e0 14000000 		.4byte	.LVL56
 1065 02e4 0100     		.2byte	0x1
 1066 02e6 52       		.byte	0x52
 1067 02e7 14000000 		.4byte	.LVL56
 1068 02eb 1A000000 		.4byte	.LVL57
 1069 02ef 0300     		.2byte	0x3
 1070 02f1 72       		.byte	0x72
 1071 02f2 7D       		.sleb128 -3
 1072 02f3 9F       		.byte	0x9f
 1073 02f4 1A000000 		.4byte	.LVL57
 1074 02f8 22000000 		.4byte	.LVL58
 1075 02fc 0100     		.2byte	0x1
 1076 02fe 52       		.byte	0x52
 1077 02ff 22000000 		.4byte	.LVL58
 1078 0303 2A000000 		.4byte	.LVL59
 1079 0307 0100     		.2byte	0x1
 1080 0309 52       		.byte	0x52
 1081 030a 00000000 		.4byte	0x0
 1082 030e 00000000 		.4byte	0x0
 1083              	.LLST14:
 1084 0312 00000000 		.4byte	.LFB8
 1085 0316 02000000 		.4byte	.LCFI5
 1086 031a 0200     		.2byte	0x2
 1087 031c 7D       		.byte	0x7d
 1088 031d 00       		.sleb128 0
 1089 031e 02000000 		.4byte	.LCFI5
 1090 0322 88000000 		.4byte	.LFE8
 1091 0326 0200     		.2byte	0x2
 1092 0328 7D       		.byte	0x7d
 1093 0329 04       		.sleb128 4
 1094 032a 00000000 		.4byte	0x0
 1095 032e 00000000 		.4byte	0x0
 1096              	.LLST15:
 1097 0332 00000000 		.4byte	.LVL60
 1098 0336 1E000000 		.4byte	.LVL62
 1099 033a 0100     		.2byte	0x1
 1100 033c 50       		.byte	0x50
 1101 033d 44000000 		.4byte	.LVL68
ARM GAS  /tmp/ccZwcdmm.s 			page 21


 1102 0341 4A000000 		.4byte	.LVL69
 1103 0345 0100     		.2byte	0x1
 1104 0347 50       		.byte	0x50
 1105 0348 00000000 		.4byte	0x0
 1106 034c 00000000 		.4byte	0x0
 1107              	.LLST16:
 1108 0350 00000000 		.4byte	.LVL60
 1109 0354 1E000000 		.4byte	.LVL62
 1110 0358 0100     		.2byte	0x1
 1111 035a 51       		.byte	0x51
 1112 035b 44000000 		.4byte	.LVL68
 1113 035f 68000000 		.4byte	.LVL71
 1114 0363 0100     		.2byte	0x1
 1115 0365 51       		.byte	0x51
 1116 0366 00000000 		.4byte	0x0
 1117 036a 00000000 		.4byte	0x0
 1118              	.LLST17:
 1119 036e 00000000 		.4byte	.LVL60
 1120 0372 14000000 		.4byte	.LVL61
 1121 0376 0100     		.2byte	0x1
 1122 0378 52       		.byte	0x52
 1123 0379 44000000 		.4byte	.LVL68
 1124 037d 4E000000 		.4byte	.LVL70
 1125 0381 0100     		.2byte	0x1
 1126 0383 52       		.byte	0x52
 1127 0384 00000000 		.4byte	0x0
 1128 0388 00000000 		.4byte	0x0
 1129              	.LLST18:
 1130 038c 00000000 		.4byte	.LVL60
 1131 0390 1E000000 		.4byte	.LVL62
 1132 0394 0200     		.2byte	0x2
 1133 0396 30       		.byte	0x30
 1134 0397 9F       		.byte	0x9f
 1135 0398 22000000 		.4byte	.LVL63
 1136 039c 28000000 		.4byte	.LVL64
 1137 03a0 0300     		.2byte	0x3
 1138 03a2 70       		.byte	0x70
 1139 03a3 01       		.sleb128 1
 1140 03a4 9F       		.byte	0x9f
 1141 03a5 28000000 		.4byte	.LVL64
 1142 03a9 2C000000 		.4byte	.LVL65
 1143 03ad 0100     		.2byte	0x1
 1144 03af 50       		.byte	0x50
 1145 03b0 2C000000 		.4byte	.LVL65
 1146 03b4 32000000 		.4byte	.LVL66
 1147 03b8 0300     		.2byte	0x3
 1148 03ba 70       		.byte	0x70
 1149 03bb 7D       		.sleb128 -3
 1150 03bc 9F       		.byte	0x9f
 1151 03bd 32000000 		.4byte	.LVL66
 1152 03c1 3A000000 		.4byte	.LVL67
 1153 03c5 0100     		.2byte	0x1
 1154 03c7 50       		.byte	0x50
 1155 03c8 3A000000 		.4byte	.LVL67
 1156 03cc 44000000 		.4byte	.LVL68
 1157 03d0 0100     		.2byte	0x1
 1158 03d2 50       		.byte	0x50
ARM GAS  /tmp/ccZwcdmm.s 			page 22


 1159 03d3 44000000 		.4byte	.LVL68
 1160 03d7 68000000 		.4byte	.LVL71
 1161 03db 0200     		.2byte	0x2
 1162 03dd 30       		.byte	0x30
 1163 03de 9F       		.byte	0x9f
 1164 03df 00000000 		.4byte	0x0
 1165 03e3 00000000 		.4byte	0x0
 1166              		.file 2 "/usr/local/CodeBench_1802_EABI/bin/../lib/gcc/arm-none-eabi/4.5.2/../../../../arm-none-ea
 1167              		.file 3 "/home/jairom/Documentos/Proyectos/Embebidos/Robocop/Source/code/matrix-creator-mcu/third_
 1168              		.section	.debug_info
 1169 0000 28050000 		.4byte	0x528
 1170 0004 0200     		.2byte	0x2
 1171 0006 00000000 		.4byte	.Ldebug_abbrev0
 1172 000a 04       		.byte	0x4
 1173 000b 01       		.uleb128 0x1
 1174 000c 26030000 		.4byte	.LASF61
 1175 0010 01       		.byte	0x1
 1176 0011 94020000 		.4byte	.LASF62
 1177 0015 00000000 		.4byte	0x0
 1178 0019 00000000 		.4byte	0x0
 1179 001d 00000000 		.4byte	.Ldebug_ranges0+0x0
 1180 0021 00000000 		.4byte	.Ldebug_line0
 1181 0025 02       		.uleb128 0x2
 1182 0026 01       		.byte	0x1
 1183 0027 06       		.byte	0x6
 1184 0028 93010000 		.4byte	.LASF0
 1185 002c 03       		.uleb128 0x3
 1186 002d 91000000 		.4byte	.LASF5
 1187 0031 02       		.byte	0x2
 1188 0032 2A       		.byte	0x2a
 1189 0033 37000000 		.4byte	0x37
 1190 0037 02       		.uleb128 0x2
 1191 0038 01       		.byte	0x1
 1192 0039 08       		.byte	0x8
 1193 003a 5E010000 		.4byte	.LASF1
 1194 003e 02       		.uleb128 0x2
 1195 003f 02       		.byte	0x2
 1196 0040 05       		.byte	0x5
 1197 0041 31000000 		.4byte	.LASF2
 1198 0045 02       		.uleb128 0x2
 1199 0046 02       		.byte	0x2
 1200 0047 07       		.byte	0x7
 1201 0048 00020000 		.4byte	.LASF3
 1202 004c 02       		.uleb128 0x2
 1203 004d 04       		.byte	0x4
 1204 004e 05       		.byte	0x5
 1205 004f 35010000 		.4byte	.LASF4
 1206 0053 03       		.uleb128 0x3
 1207 0054 B6010000 		.4byte	.LASF6
 1208 0058 02       		.byte	0x2
 1209 0059 50       		.byte	0x50
 1210 005a 5E000000 		.4byte	0x5e
 1211 005e 02       		.uleb128 0x2
 1212 005f 04       		.byte	0x4
 1213 0060 07       		.byte	0x7
 1214 0061 63020000 		.4byte	.LASF7
 1215 0065 02       		.uleb128 0x2
ARM GAS  /tmp/ccZwcdmm.s 			page 23


 1216 0066 08       		.byte	0x8
 1217 0067 05       		.byte	0x5
 1218 0068 0A010000 		.4byte	.LASF8
 1219 006c 02       		.uleb128 0x2
 1220 006d 08       		.byte	0x8
 1221 006e 07       		.byte	0x7
 1222 006f 9F010000 		.4byte	.LASF9
 1223 0073 04       		.uleb128 0x4
 1224 0074 04       		.byte	0x4
 1225 0075 05       		.byte	0x5
 1226 0076 696E7400 		.ascii	"int\000"
 1227 007a 02       		.uleb128 0x2
 1228 007b 04       		.byte	0x4
 1229 007c 07       		.byte	0x7
 1230 007d BF010000 		.4byte	.LASF10
 1231 0081 05       		.uleb128 0x5
 1232 0082 5E000000 		.4byte	0x5e
 1233 0086 06       		.uleb128 0x6
 1234 0087 81000000 		.4byte	0x81
 1235 008b 07       		.uleb128 0x7
 1236 008c 5E000000 		.4byte	0x5e
 1237 0090 9B000000 		.4byte	0x9b
 1238 0094 08       		.uleb128 0x8
 1239 0095 7A000000 		.4byte	0x7a
 1240 0099 00       		.byte	0x0
 1241 009a 00       		.byte	0x0
 1242 009b 07       		.uleb128 0x7
 1243 009c 5E000000 		.4byte	0x5e
 1244 00a0 AB000000 		.4byte	0xab
 1245 00a4 08       		.uleb128 0x8
 1246 00a5 7A000000 		.4byte	0x7a
 1247 00a9 04       		.byte	0x4
 1248 00aa 00       		.byte	0x0
 1249 00ab 09       		.uleb128 0x9
 1250 00ac 1401     		.2byte	0x114
 1251 00ae 03       		.byte	0x3
 1252 00af 3F0D     		.2byte	0xd3f
 1253 00b1 BC020000 		.4byte	0x2bc
 1254 00b5 0A       		.uleb128 0xa
 1255 00b6 8A010000 		.4byte	.LASF11
 1256 00ba 03       		.byte	0x3
 1257 00bb 400D     		.2byte	0xd40
 1258 00bd 81000000 		.4byte	0x81
 1259 00c1 02       		.byte	0x2
 1260 00c2 23       		.byte	0x23
 1261 00c3 00       		.uleb128 0x0
 1262 00c4 0A       		.uleb128 0xa
 1263 00c5 61030000 		.4byte	.LASF12
 1264 00c9 03       		.byte	0x3
 1265 00ca 410D     		.2byte	0xd41
 1266 00cc 81000000 		.4byte	0x81
 1267 00d0 02       		.byte	0x2
 1268 00d1 23       		.byte	0x23
 1269 00d2 04       		.uleb128 0x4
 1270 00d3 0A       		.uleb128 0xa
 1271 00d4 1A000000 		.4byte	.LASF13
 1272 00d8 03       		.byte	0x3
ARM GAS  /tmp/ccZwcdmm.s 			page 24


 1273 00d9 420D     		.2byte	0xd42
 1274 00db 86000000 		.4byte	0x86
 1275 00df 02       		.byte	0x2
 1276 00e0 23       		.byte	0x23
 1277 00e1 08       		.uleb128 0x8
 1278 00e2 0A       		.uleb128 0xa
 1279 00e3 7D000000 		.4byte	.LASF14
 1280 00e7 03       		.byte	0x3
 1281 00e8 430D     		.2byte	0xd43
 1282 00ea BC020000 		.4byte	0x2bc
 1283 00ee 02       		.byte	0x2
 1284 00ef 23       		.byte	0x23
 1285 00f0 0C       		.uleb128 0xc
 1286 00f1 0A       		.uleb128 0xa
 1287 00f2 60000000 		.4byte	.LASF15
 1288 00f6 03       		.byte	0x3
 1289 00f7 440D     		.2byte	0xd44
 1290 00f9 81000000 		.4byte	0x81
 1291 00fd 02       		.byte	0x2
 1292 00fe 23       		.byte	0x23
 1293 00ff 10       		.uleb128 0x10
 1294 0100 0A       		.uleb128 0xa
 1295 0101 EE000000 		.4byte	.LASF16
 1296 0105 03       		.byte	0x3
 1297 0106 450D     		.2byte	0xd45
 1298 0108 81000000 		.4byte	0x81
 1299 010c 02       		.byte	0x2
 1300 010d 23       		.byte	0x23
 1301 010e 14       		.uleb128 0x14
 1302 010f 0A       		.uleb128 0xa
 1303 0110 CC010000 		.4byte	.LASF17
 1304 0114 03       		.byte	0x3
 1305 0115 460D     		.2byte	0xd46
 1306 0117 86000000 		.4byte	0x86
 1307 011b 02       		.byte	0x2
 1308 011c 23       		.byte	0x23
 1309 011d 18       		.uleb128 0x18
 1310 011e 0A       		.uleb128 0xa
 1311 011f 87000000 		.4byte	.LASF18
 1312 0123 03       		.byte	0x3
 1313 0124 470D     		.2byte	0xd47
 1314 0126 C1020000 		.4byte	0x2c1
 1315 012a 02       		.byte	0x2
 1316 012b 23       		.byte	0x23
 1317 012c 1C       		.uleb128 0x1c
 1318 012d 0A       		.uleb128 0xa
 1319 012e CB000000 		.4byte	.LASF19
 1320 0132 03       		.byte	0x3
 1321 0133 480D     		.2byte	0xd48
 1322 0135 81000000 		.4byte	0x81
 1323 0139 02       		.byte	0x2
 1324 013a 23       		.byte	0x23
 1325 013b 20       		.uleb128 0x20
 1326 013c 0A       		.uleb128 0xa
 1327 013d 1C030000 		.4byte	.LASF20
 1328 0141 03       		.byte	0x3
 1329 0142 490D     		.2byte	0xd49
ARM GAS  /tmp/ccZwcdmm.s 			page 25


 1330 0144 86000000 		.4byte	0x86
 1331 0148 02       		.byte	0x2
 1332 0149 23       		.byte	0x23
 1333 014a 24       		.uleb128 0x24
 1334 014b 0A       		.uleb128 0xa
 1335 014c 38020000 		.4byte	.LASF21
 1336 0150 03       		.byte	0x3
 1337 0151 4A0D     		.2byte	0xd4a
 1338 0153 81000000 		.4byte	0x81
 1339 0157 02       		.byte	0x2
 1340 0158 23       		.byte	0x23
 1341 0159 28       		.uleb128 0x28
 1342 015a 0A       		.uleb128 0xa
 1343 015b 6A030000 		.4byte	.LASF22
 1344 015f 03       		.byte	0x3
 1345 0160 4B0D     		.2byte	0xd4b
 1346 0162 81000000 		.4byte	0x81
 1347 0166 02       		.byte	0x2
 1348 0167 23       		.byte	0x23
 1349 0168 2C       		.uleb128 0x2c
 1350 0169 0A       		.uleb128 0xa
 1351 016a 18010000 		.4byte	.LASF23
 1352 016e 03       		.byte	0x3
 1353 016f 4C0D     		.2byte	0xd4c
 1354 0171 81000000 		.4byte	0x81
 1355 0175 02       		.byte	0x2
 1356 0176 23       		.byte	0x23
 1357 0177 30       		.uleb128 0x30
 1358 0178 0A       		.uleb128 0xa
 1359 0179 75020000 		.4byte	.LASF24
 1360 017d 03       		.byte	0x3
 1361 017e 4D0D     		.2byte	0xd4d
 1362 0180 C6020000 		.4byte	0x2c6
 1363 0184 02       		.byte	0x2
 1364 0185 23       		.byte	0x23
 1365 0186 34       		.uleb128 0x34
 1366 0187 0A       		.uleb128 0xa
 1367 0188 EF010000 		.4byte	.LASF25
 1368 018c 03       		.byte	0x3
 1369 018d 4E0D     		.2byte	0xd4e
 1370 018f 81000000 		.4byte	0x81
 1371 0193 02       		.byte	0x2
 1372 0194 23       		.byte	0x23
 1373 0195 38       		.uleb128 0x38
 1374 0196 0A       		.uleb128 0xa
 1375 0197 99000000 		.4byte	.LASF26
 1376 019b 03       		.byte	0x3
 1377 019c 4F0D     		.2byte	0xd4f
 1378 019e CB020000 		.4byte	0x2cb
 1379 01a2 02       		.byte	0x2
 1380 01a3 23       		.byte	0x23
 1381 01a4 3C       		.uleb128 0x3c
 1382 01a5 0A       		.uleb128 0xa
 1383 01a6 59030000 		.4byte	.LASF27
 1384 01aa 03       		.byte	0x3
 1385 01ab 500D     		.2byte	0xd50
 1386 01ad E0020000 		.4byte	0x2e0
ARM GAS  /tmp/ccZwcdmm.s 			page 26


 1387 01b1 02       		.byte	0x2
 1388 01b2 23       		.byte	0x23
 1389 01b3 40       		.uleb128 0x40
 1390 01b4 0A       		.uleb128 0xa
 1391 01b5 A3000000 		.4byte	.LASF28
 1392 01b9 03       		.byte	0x3
 1393 01ba 510D     		.2byte	0xd51
 1394 01bc E5020000 		.4byte	0x2e5
 1395 01c0 02       		.byte	0x2
 1396 01c1 23       		.byte	0x23
 1397 01c2 4C       		.uleb128 0x4c
 1398 01c3 0A       		.uleb128 0xa
 1399 01c4 02010000 		.4byte	.LASF29
 1400 01c8 03       		.byte	0x3
 1401 01c9 520D     		.2byte	0xd52
 1402 01cb 81000000 		.4byte	0x81
 1403 01cf 02       		.byte	0x2
 1404 01d0 23       		.byte	0x23
 1405 01d1 60       		.uleb128 0x60
 1406 01d2 0A       		.uleb128 0xa
 1407 01d3 12000000 		.4byte	.LASF30
 1408 01d7 03       		.byte	0x3
 1409 01d8 530D     		.2byte	0xd53
 1410 01da 81000000 		.4byte	0x81
 1411 01de 02       		.byte	0x2
 1412 01df 23       		.byte	0x23
 1413 01e0 64       		.uleb128 0x64
 1414 01e1 0A       		.uleb128 0xa
 1415 01e2 13020000 		.4byte	.LASF31
 1416 01e6 03       		.byte	0x3
 1417 01e7 540D     		.2byte	0xd54
 1418 01e9 86000000 		.4byte	0x86
 1419 01ed 02       		.byte	0x2
 1420 01ee 23       		.byte	0x23
 1421 01ef 68       		.uleb128 0x68
 1422 01f0 0A       		.uleb128 0xa
 1423 01f1 56010000 		.4byte	.LASF32
 1424 01f5 03       		.byte	0x3
 1425 01f6 550D     		.2byte	0xd55
 1426 01f8 86000000 		.4byte	0x86
 1427 01fc 02       		.byte	0x2
 1428 01fd 23       		.byte	0x23
 1429 01fe 6C       		.uleb128 0x6c
 1430 01ff 0A       		.uleb128 0xa
 1431 0200 74000000 		.4byte	.LASF33
 1432 0204 03       		.byte	0x3
 1433 0205 560D     		.2byte	0xd56
 1434 0207 81000000 		.4byte	0x81
 1435 020b 02       		.byte	0x2
 1436 020c 23       		.byte	0x23
 1437 020d 70       		.uleb128 0x70
 1438 020e 0A       		.uleb128 0xa
 1439 020f 09000000 		.4byte	.LASF34
 1440 0213 03       		.byte	0x3
 1441 0214 570D     		.2byte	0xd57
 1442 0216 81000000 		.4byte	0x81
 1443 021a 02       		.byte	0x2
ARM GAS  /tmp/ccZwcdmm.s 			page 27


 1444 021b 23       		.byte	0x23
 1445 021c 74       		.uleb128 0x74
 1446 021d 0A       		.uleb128 0xa
 1447 021e 00000000 		.4byte	.LASF35
 1448 0222 03       		.byte	0x3
 1449 0223 580D     		.2byte	0xd58
 1450 0225 81000000 		.4byte	0x81
 1451 0229 02       		.byte	0x2
 1452 022a 23       		.byte	0x23
 1453 022b 78       		.uleb128 0x78
 1454 022c 0A       		.uleb128 0xa
 1455 022d AD000000 		.4byte	.LASF36
 1456 0231 03       		.byte	0x3
 1457 0232 590D     		.2byte	0xd59
 1458 0234 FA020000 		.4byte	0x2fa
 1459 0238 02       		.byte	0x2
 1460 0239 23       		.byte	0x23
 1461 023a 7C       		.uleb128 0x7c
 1462 023b 0A       		.uleb128 0xa
 1463 023c 6C010000 		.4byte	.LASF37
 1464 0240 03       		.byte	0x3
 1465 0241 5A0D     		.2byte	0xd5a
 1466 0243 81000000 		.4byte	0x81
 1467 0247 03       		.byte	0x3
 1468 0248 23       		.byte	0x23
 1469 0249 E401     		.uleb128 0xe4
 1470 024b 0A       		.uleb128 0xa
 1471 024c E6010000 		.4byte	.LASF38
 1472 0250 03       		.byte	0x3
 1473 0251 5B0D     		.2byte	0xd5b
 1474 0253 86000000 		.4byte	0x86
 1475 0257 03       		.byte	0x3
 1476 0258 23       		.byte	0x23
 1477 0259 E801     		.uleb128 0xe8
 1478 025b 0A       		.uleb128 0xa
 1479 025c B7000000 		.4byte	.LASF39
 1480 0260 03       		.byte	0x3
 1481 0261 5C0D     		.2byte	0xd5c
 1482 0263 FF020000 		.4byte	0x2ff
 1483 0267 03       		.byte	0x3
 1484 0268 23       		.byte	0x23
 1485 0269 EC01     		.uleb128 0xec
 1486 026b 0A       		.uleb128 0xa
 1487 026c 6A000000 		.4byte	.LASF40
 1488 0270 03       		.byte	0x3
 1489 0271 5D0D     		.2byte	0xd5d
 1490 0273 81000000 		.4byte	0x81
 1491 0277 03       		.byte	0x3
 1492 0278 23       		.byte	0x23
 1493 0279 8002     		.uleb128 0x100
 1494 027b 0A       		.uleb128 0xa
 1495 027c F8000000 		.4byte	.LASF41
 1496 0280 03       		.byte	0x3
 1497 0281 5E0D     		.2byte	0xd5e
 1498 0283 81000000 		.4byte	0x81
 1499 0287 03       		.byte	0x3
 1500 0288 23       		.byte	0x23
ARM GAS  /tmp/ccZwcdmm.s 			page 28


 1501 0289 8402     		.uleb128 0x104
 1502 028b 0A       		.uleb128 0xa
 1503 028c D6010000 		.4byte	.LASF42
 1504 0290 03       		.byte	0x3
 1505 0291 5F0D     		.2byte	0xd5f
 1506 0293 86000000 		.4byte	0x86
 1507 0297 03       		.byte	0x3
 1508 0298 23       		.byte	0x23
 1509 0299 8802     		.uleb128 0x108
 1510 029b 0A       		.uleb128 0xa
 1511 029c C1000000 		.4byte	.LASF43
 1512 02a0 03       		.byte	0x3
 1513 02a1 600D     		.2byte	0xd60
 1514 02a3 04030000 		.4byte	0x304
 1515 02a7 03       		.byte	0x3
 1516 02a8 23       		.byte	0x23
 1517 02a9 8C02     		.uleb128 0x10c
 1518 02ab 0A       		.uleb128 0xa
 1519 02ac 23000000 		.4byte	.LASF44
 1520 02b0 03       		.byte	0x3
 1521 02b1 610D     		.2byte	0xd61
 1522 02b3 81000000 		.4byte	0x81
 1523 02b7 03       		.byte	0x3
 1524 02b8 23       		.byte	0x23
 1525 02b9 9002     		.uleb128 0x110
 1526 02bb 00       		.byte	0x0
 1527 02bc 05       		.uleb128 0x5
 1528 02bd 8B000000 		.4byte	0x8b
 1529 02c1 05       		.uleb128 0x5
 1530 02c2 8B000000 		.4byte	0x8b
 1531 02c6 05       		.uleb128 0x5
 1532 02c7 8B000000 		.4byte	0x8b
 1533 02cb 05       		.uleb128 0x5
 1534 02cc 8B000000 		.4byte	0x8b
 1535 02d0 07       		.uleb128 0x7
 1536 02d1 5E000000 		.4byte	0x5e
 1537 02d5 E0020000 		.4byte	0x2e0
 1538 02d9 08       		.uleb128 0x8
 1539 02da 7A000000 		.4byte	0x7a
 1540 02de 02       		.byte	0x2
 1541 02df 00       		.byte	0x0
 1542 02e0 05       		.uleb128 0x5
 1543 02e1 D0020000 		.4byte	0x2d0
 1544 02e5 05       		.uleb128 0x5
 1545 02e6 9B000000 		.4byte	0x9b
 1546 02ea 07       		.uleb128 0x7
 1547 02eb 5E000000 		.4byte	0x5e
 1548 02ef FA020000 		.4byte	0x2fa
 1549 02f3 08       		.uleb128 0x8
 1550 02f4 7A000000 		.4byte	0x7a
 1551 02f8 19       		.byte	0x19
 1552 02f9 00       		.byte	0x0
 1553 02fa 05       		.uleb128 0x5
 1554 02fb EA020000 		.4byte	0x2ea
 1555 02ff 05       		.uleb128 0x5
 1556 0300 9B000000 		.4byte	0x9b
 1557 0304 05       		.uleb128 0x5
ARM GAS  /tmp/ccZwcdmm.s 			page 29


 1558 0305 8B000000 		.4byte	0x8b
 1559 0309 0B       		.uleb128 0xb
 1560 030a 506D6300 		.ascii	"Pmc\000"
 1561 030e 03       		.byte	0x3
 1562 030f 620D     		.2byte	0xd62
 1563 0311 AB000000 		.4byte	0xab
 1564 0315 0C       		.uleb128 0xc
 1565 0316 01       		.byte	0x1
 1566 0317 7F020000 		.4byte	.LASF46
 1567 031b 01       		.byte	0x1
 1568 031c 3D       		.byte	0x3d
 1569 031d 01       		.byte	0x1
 1570 031e 00000000 		.4byte	.LFB0
 1571 0322 58000000 		.4byte	.LFE0
 1572 0326 00000000 		.4byte	.LLST0
 1573 032a 4E030000 		.4byte	0x34e
 1574 032e 0D       		.uleb128 0xd
 1575 032f 33020000 		.4byte	.LASF48
 1576 0333 01       		.byte	0x1
 1577 0334 3D       		.byte	0x3d
 1578 0335 53000000 		.4byte	0x53
 1579 0339 20000000 		.4byte	.LLST1
 1580 033d 0E       		.uleb128 0xe
 1581 033e F7010000 		.4byte	.LASF49
 1582 0342 65030000 		.4byte	0x365
 1583 0346 01       		.byte	0x1
 1584 0347 05       		.byte	0x5
 1585 0348 03       		.byte	0x3
 1586 0349 00000000 		.4byte	__func__.4622
 1587 034d 00       		.byte	0x0
 1588 034e 07       		.uleb128 0x7
 1589 034f 5E030000 		.4byte	0x35e
 1590 0353 5E030000 		.4byte	0x35e
 1591 0357 08       		.uleb128 0x8
 1592 0358 7A000000 		.4byte	0x7a
 1593 035c 14       		.byte	0x14
 1594 035d 00       		.byte	0x0
 1595 035e 02       		.uleb128 0x2
 1596 035f 01       		.byte	0x1
 1597 0360 08       		.byte	0x8
 1598 0361 1A020000 		.4byte	.LASF45
 1599 0365 06       		.uleb128 0x6
 1600 0366 4E030000 		.4byte	0x34e
 1601 036a 0C       		.uleb128 0xc
 1602 036b 01       		.byte	0x1
 1603 036c 43020000 		.4byte	.LASF47
 1604 0370 01       		.byte	0x1
 1605 0371 62       		.byte	0x62
 1606 0372 01       		.byte	0x1
 1607 0373 00000000 		.4byte	.LFB1
 1608 0377 58000000 		.4byte	.LFE1
 1609 037b 56000000 		.4byte	.LLST2
 1610 037f A3030000 		.4byte	0x3a3
 1611 0383 0D       		.uleb128 0xd
 1612 0384 33020000 		.4byte	.LASF48
 1613 0388 01       		.byte	0x1
 1614 0389 62       		.byte	0x62
ARM GAS  /tmp/ccZwcdmm.s 			page 30


 1615 038a 53000000 		.4byte	0x53
 1616 038e 76000000 		.4byte	.LLST3
 1617 0392 0E       		.uleb128 0xe
 1618 0393 F7010000 		.4byte	.LASF49
 1619 0397 B3030000 		.4byte	0x3b3
 1620 039b 01       		.byte	0x1
 1621 039c 05       		.byte	0x5
 1622 039d 03       		.byte	0x3
 1623 039e 00000000 		.4byte	__func__.4626
 1624 03a2 00       		.byte	0x0
 1625 03a3 07       		.uleb128 0x7
 1626 03a4 5E030000 		.4byte	0x35e
 1627 03a8 B3030000 		.4byte	0x3b3
 1628 03ac 08       		.uleb128 0x8
 1629 03ad 7A000000 		.4byte	0x7a
 1630 03b1 15       		.byte	0x15
 1631 03b2 00       		.byte	0x0
 1632 03b3 06       		.uleb128 0x6
 1633 03b4 A3030000 		.4byte	0x3a3
 1634 03b8 0F       		.uleb128 0xf
 1635 03b9 01       		.byte	0x1
 1636 03ba 47000000 		.4byte	.LASF50
 1637 03be 01       		.byte	0x1
 1638 03bf 82       		.byte	0x82
 1639 03c0 01       		.byte	0x1
 1640 03c1 00000000 		.4byte	.LFB2
 1641 03c5 30000000 		.4byte	.LFE2
 1642 03c9 02       		.byte	0x2
 1643 03ca 7D       		.byte	0x7d
 1644 03cb 00       		.sleb128 0
 1645 03cc 0F       		.uleb128 0xf
 1646 03cd 01       		.byte	0x1
 1647 03ce D4000000 		.4byte	.LASF51
 1648 03d2 01       		.byte	0x1
 1649 03d3 90       		.byte	0x90
 1650 03d4 01       		.byte	0x1
 1651 03d5 00000000 		.4byte	.LFB3
 1652 03d9 28000000 		.4byte	.LFE3
 1653 03dd 02       		.byte	0x2
 1654 03de 7D       		.byte	0x7d
 1655 03df 00       		.sleb128 0
 1656 03e0 10       		.uleb128 0x10
 1657 03e1 01       		.byte	0x1
 1658 03e2 21010000 		.4byte	.LASF63
 1659 03e6 01       		.byte	0x1
 1660 03e7 A0       		.byte	0xa0
 1661 03e8 01       		.byte	0x1
 1662 03e9 53000000 		.4byte	0x53
 1663 03ed 00000000 		.4byte	.LFB4
 1664 03f1 48000000 		.4byte	.LFE4
 1665 03f5 B7000000 		.4byte	.LLST4
 1666 03f9 1D040000 		.4byte	0x41d
 1667 03fd 0D       		.uleb128 0xd
 1668 03fe 33020000 		.4byte	.LASF48
 1669 0402 01       		.byte	0x1
 1670 0403 A0       		.byte	0xa0
 1671 0404 53000000 		.4byte	0x53
ARM GAS  /tmp/ccZwcdmm.s 			page 31


 1672 0408 D7000000 		.4byte	.LLST5
 1673 040c 0E       		.uleb128 0xe
 1674 040d F7010000 		.4byte	.LASF49
 1675 0411 2D040000 		.4byte	0x42d
 1676 0415 01       		.byte	0x1
 1677 0416 05       		.byte	0x5
 1678 0417 03       		.byte	0x3
 1679 0418 00000000 		.4byte	__func__.4648
 1680 041c 00       		.byte	0x0
 1681 041d 07       		.uleb128 0x7
 1682 041e 5E030000 		.4byte	0x35e
 1683 0422 2D040000 		.4byte	0x42d
 1684 0426 08       		.uleb128 0x8
 1685 0427 7A000000 		.4byte	0x7a
 1686 042b 13       		.byte	0x13
 1687 042c 00       		.byte	0x0
 1688 042d 06       		.uleb128 0x6
 1689 042e 1D040000 		.4byte	0x41d
 1690 0432 0C       		.uleb128 0xc
 1691 0433 01       		.byte	0x1
 1692 0434 3E010000 		.4byte	.LASF52
 1693 0438 01       		.byte	0x1
 1694 0439 AE       		.byte	0xae
 1695 043a 01       		.byte	0x1
 1696 043b 00000000 		.4byte	.LFB5
 1697 043f E4000000 		.4byte	.LFE5
 1698 0443 0D010000 		.4byte	.LLST6
 1699 0447 79040000 		.4byte	0x479
 1700 044b 0D       		.uleb128 0xd
 1701 044c 1F020000 		.4byte	.LASF53
 1702 0450 01       		.byte	0x1
 1703 0451 AE       		.byte	0xae
 1704 0452 53000000 		.4byte	0x53
 1705 0456 2D010000 		.4byte	.LLST7
 1706 045a 0D       		.uleb128 0xd
 1707 045b 3B000000 		.4byte	.LASF54
 1708 045f 01       		.byte	0x1
 1709 0460 AE       		.byte	0xae
 1710 0461 53000000 		.4byte	0x53
 1711 0465 56010000 		.4byte	.LLST8
 1712 0469 11       		.uleb128 0x11
 1713 046a 59020000 		.4byte	.LASF57
 1714 046e 01       		.byte	0x1
 1715 046f B0       		.byte	0xb0
 1716 0470 53000000 		.4byte	0x53
 1717 0474 7F010000 		.4byte	.LLST9
 1718 0478 00       		.byte	0x0
 1719 0479 0C       		.uleb128 0xc
 1720 047a 01       		.byte	0x1
 1721 047b 4C030000 		.4byte	.LASF55
 1722 047f 01       		.byte	0x1
 1723 0480 D4       		.byte	0xd4
 1724 0481 01       		.byte	0x1
 1725 0482 00000000 		.4byte	.LFB6
 1726 0486 2C000000 		.4byte	.LFE6
 1727 048a 7D020000 		.4byte	.LLST10
 1728 048e B1040000 		.4byte	0x4b1
ARM GAS  /tmp/ccZwcdmm.s 			page 32


 1729 0492 0D       		.uleb128 0xd
 1730 0493 1F020000 		.4byte	.LASF53
 1731 0497 01       		.byte	0x1
 1732 0498 D4       		.byte	0xd4
 1733 0499 53000000 		.4byte	0x53
 1734 049d 9D020000 		.4byte	.LLST11
 1735 04a1 0D       		.uleb128 0xd
 1736 04a2 3B000000 		.4byte	.LASF54
 1737 04a6 01       		.byte	0x1
 1738 04a7 D4       		.byte	0xd4
 1739 04a8 53000000 		.4byte	0x53
 1740 04ac B0020000 		.4byte	.LLST12
 1741 04b0 00       		.byte	0x0
 1742 04b1 12       		.uleb128 0x12
 1743 04b2 01       		.byte	0x1
 1744 04b3 32030000 		.4byte	.LASF56
 1745 04b7 01       		.byte	0x1
 1746 04b8 E3       		.byte	0xe3
 1747 04b9 01       		.byte	0x1
 1748 04ba 00000000 		.4byte	.LFB7
 1749 04be 34000000 		.4byte	.LFE7
 1750 04c2 02       		.byte	0x2
 1751 04c3 7D       		.byte	0x7d
 1752 04c4 00       		.sleb128 0
 1753 04c5 D9040000 		.4byte	0x4d9
 1754 04c9 11       		.uleb128 0x11
 1755 04ca 59020000 		.4byte	.LASF57
 1756 04ce 01       		.byte	0x1
 1757 04cf E5       		.byte	0xe5
 1758 04d0 53000000 		.4byte	0x53
 1759 04d4 C3020000 		.4byte	.LLST13
 1760 04d8 00       		.byte	0x0
 1761 04d9 13       		.uleb128 0x13
 1762 04da 01       		.byte	0x1
 1763 04db 75010000 		.4byte	.LASF64
 1764 04df 01       		.byte	0x1
 1765 04e0 EF       		.byte	0xef
 1766 04e1 01       		.byte	0x1
 1767 04e2 00000000 		.4byte	.LFB8
 1768 04e6 88000000 		.4byte	.LFE8
 1769 04ea 12030000 		.4byte	.LLST14
 1770 04ee 0D       		.uleb128 0xd
 1771 04ef 2B000000 		.4byte	.LASF58
 1772 04f3 01       		.byte	0x1
 1773 04f4 EF       		.byte	0xef
 1774 04f5 2C000000 		.4byte	0x2c
 1775 04f9 32030000 		.4byte	.LLST15
 1776 04fd 0D       		.uleb128 0xd
 1777 04fe 2D020000 		.4byte	.LASF59
 1778 0502 01       		.byte	0x1
 1779 0503 EF       		.byte	0xef
 1780 0504 53000000 		.4byte	0x53
 1781 0508 50030000 		.4byte	.LLST16
 1782 050c 0D       		.uleb128 0xd
 1783 050d E0010000 		.4byte	.LASF60
 1784 0511 01       		.byte	0x1
 1785 0512 EF       		.byte	0xef
ARM GAS  /tmp/ccZwcdmm.s 			page 33


 1786 0513 53000000 		.4byte	0x53
 1787 0517 6E030000 		.4byte	.LLST17
 1788 051b 11       		.uleb128 0x11
 1789 051c 59020000 		.4byte	.LASF57
 1790 0520 01       		.byte	0x1
 1791 0521 F1       		.byte	0xf1
 1792 0522 53000000 		.4byte	0x53
 1793 0526 8C030000 		.4byte	.LLST18
 1794 052a 00       		.byte	0x0
 1795 052b 00       		.byte	0x0
 1796              		.section	.debug_abbrev
 1797 0000 01       		.uleb128 0x1
 1798 0001 11       		.uleb128 0x11
 1799 0002 01       		.byte	0x1
 1800 0003 25       		.uleb128 0x25
 1801 0004 0E       		.uleb128 0xe
 1802 0005 13       		.uleb128 0x13
 1803 0006 0B       		.uleb128 0xb
 1804 0007 03       		.uleb128 0x3
 1805 0008 0E       		.uleb128 0xe
 1806 0009 11       		.uleb128 0x11
 1807 000a 01       		.uleb128 0x1
 1808 000b 52       		.uleb128 0x52
 1809 000c 01       		.uleb128 0x1
 1810 000d 55       		.uleb128 0x55
 1811 000e 06       		.uleb128 0x6
 1812 000f 10       		.uleb128 0x10
 1813 0010 06       		.uleb128 0x6
 1814 0011 00       		.byte	0x0
 1815 0012 00       		.byte	0x0
 1816 0013 02       		.uleb128 0x2
 1817 0014 24       		.uleb128 0x24
 1818 0015 00       		.byte	0x0
 1819 0016 0B       		.uleb128 0xb
 1820 0017 0B       		.uleb128 0xb
 1821 0018 3E       		.uleb128 0x3e
 1822 0019 0B       		.uleb128 0xb
 1823 001a 03       		.uleb128 0x3
 1824 001b 0E       		.uleb128 0xe
 1825 001c 00       		.byte	0x0
 1826 001d 00       		.byte	0x0
 1827 001e 03       		.uleb128 0x3
 1828 001f 16       		.uleb128 0x16
 1829 0020 00       		.byte	0x0
 1830 0021 03       		.uleb128 0x3
 1831 0022 0E       		.uleb128 0xe
 1832 0023 3A       		.uleb128 0x3a
 1833 0024 0B       		.uleb128 0xb
 1834 0025 3B       		.uleb128 0x3b
 1835 0026 0B       		.uleb128 0xb
 1836 0027 49       		.uleb128 0x49
 1837 0028 13       		.uleb128 0x13
 1838 0029 00       		.byte	0x0
 1839 002a 00       		.byte	0x0
 1840 002b 04       		.uleb128 0x4
 1841 002c 24       		.uleb128 0x24
 1842 002d 00       		.byte	0x0
ARM GAS  /tmp/ccZwcdmm.s 			page 34


 1843 002e 0B       		.uleb128 0xb
 1844 002f 0B       		.uleb128 0xb
 1845 0030 3E       		.uleb128 0x3e
 1846 0031 0B       		.uleb128 0xb
 1847 0032 03       		.uleb128 0x3
 1848 0033 08       		.uleb128 0x8
 1849 0034 00       		.byte	0x0
 1850 0035 00       		.byte	0x0
 1851 0036 05       		.uleb128 0x5
 1852 0037 35       		.uleb128 0x35
 1853 0038 00       		.byte	0x0
 1854 0039 49       		.uleb128 0x49
 1855 003a 13       		.uleb128 0x13
 1856 003b 00       		.byte	0x0
 1857 003c 00       		.byte	0x0
 1858 003d 06       		.uleb128 0x6
 1859 003e 26       		.uleb128 0x26
 1860 003f 00       		.byte	0x0
 1861 0040 49       		.uleb128 0x49
 1862 0041 13       		.uleb128 0x13
 1863 0042 00       		.byte	0x0
 1864 0043 00       		.byte	0x0
 1865 0044 07       		.uleb128 0x7
 1866 0045 01       		.uleb128 0x1
 1867 0046 01       		.byte	0x1
 1868 0047 49       		.uleb128 0x49
 1869 0048 13       		.uleb128 0x13
 1870 0049 01       		.uleb128 0x1
 1871 004a 13       		.uleb128 0x13
 1872 004b 00       		.byte	0x0
 1873 004c 00       		.byte	0x0
 1874 004d 08       		.uleb128 0x8
 1875 004e 21       		.uleb128 0x21
 1876 004f 00       		.byte	0x0
 1877 0050 49       		.uleb128 0x49
 1878 0051 13       		.uleb128 0x13
 1879 0052 2F       		.uleb128 0x2f
 1880 0053 0B       		.uleb128 0xb
 1881 0054 00       		.byte	0x0
 1882 0055 00       		.byte	0x0
 1883 0056 09       		.uleb128 0x9
 1884 0057 13       		.uleb128 0x13
 1885 0058 01       		.byte	0x1
 1886 0059 0B       		.uleb128 0xb
 1887 005a 05       		.uleb128 0x5
 1888 005b 3A       		.uleb128 0x3a
 1889 005c 0B       		.uleb128 0xb
 1890 005d 3B       		.uleb128 0x3b
 1891 005e 05       		.uleb128 0x5
 1892 005f 01       		.uleb128 0x1
 1893 0060 13       		.uleb128 0x13
 1894 0061 00       		.byte	0x0
 1895 0062 00       		.byte	0x0
 1896 0063 0A       		.uleb128 0xa
 1897 0064 0D       		.uleb128 0xd
 1898 0065 00       		.byte	0x0
 1899 0066 03       		.uleb128 0x3
ARM GAS  /tmp/ccZwcdmm.s 			page 35


 1900 0067 0E       		.uleb128 0xe
 1901 0068 3A       		.uleb128 0x3a
 1902 0069 0B       		.uleb128 0xb
 1903 006a 3B       		.uleb128 0x3b
 1904 006b 05       		.uleb128 0x5
 1905 006c 49       		.uleb128 0x49
 1906 006d 13       		.uleb128 0x13
 1907 006e 38       		.uleb128 0x38
 1908 006f 0A       		.uleb128 0xa
 1909 0070 00       		.byte	0x0
 1910 0071 00       		.byte	0x0
 1911 0072 0B       		.uleb128 0xb
 1912 0073 16       		.uleb128 0x16
 1913 0074 00       		.byte	0x0
 1914 0075 03       		.uleb128 0x3
 1915 0076 08       		.uleb128 0x8
 1916 0077 3A       		.uleb128 0x3a
 1917 0078 0B       		.uleb128 0xb
 1918 0079 3B       		.uleb128 0x3b
 1919 007a 05       		.uleb128 0x5
 1920 007b 49       		.uleb128 0x49
 1921 007c 13       		.uleb128 0x13
 1922 007d 00       		.byte	0x0
 1923 007e 00       		.byte	0x0
 1924 007f 0C       		.uleb128 0xc
 1925 0080 2E       		.uleb128 0x2e
 1926 0081 01       		.byte	0x1
 1927 0082 3F       		.uleb128 0x3f
 1928 0083 0C       		.uleb128 0xc
 1929 0084 03       		.uleb128 0x3
 1930 0085 0E       		.uleb128 0xe
 1931 0086 3A       		.uleb128 0x3a
 1932 0087 0B       		.uleb128 0xb
 1933 0088 3B       		.uleb128 0x3b
 1934 0089 0B       		.uleb128 0xb
 1935 008a 27       		.uleb128 0x27
 1936 008b 0C       		.uleb128 0xc
 1937 008c 11       		.uleb128 0x11
 1938 008d 01       		.uleb128 0x1
 1939 008e 12       		.uleb128 0x12
 1940 008f 01       		.uleb128 0x1
 1941 0090 40       		.uleb128 0x40
 1942 0091 06       		.uleb128 0x6
 1943 0092 01       		.uleb128 0x1
 1944 0093 13       		.uleb128 0x13
 1945 0094 00       		.byte	0x0
 1946 0095 00       		.byte	0x0
 1947 0096 0D       		.uleb128 0xd
 1948 0097 05       		.uleb128 0x5
 1949 0098 00       		.byte	0x0
 1950 0099 03       		.uleb128 0x3
 1951 009a 0E       		.uleb128 0xe
 1952 009b 3A       		.uleb128 0x3a
 1953 009c 0B       		.uleb128 0xb
 1954 009d 3B       		.uleb128 0x3b
 1955 009e 0B       		.uleb128 0xb
 1956 009f 49       		.uleb128 0x49
ARM GAS  /tmp/ccZwcdmm.s 			page 36


 1957 00a0 13       		.uleb128 0x13
 1958 00a1 02       		.uleb128 0x2
 1959 00a2 06       		.uleb128 0x6
 1960 00a3 00       		.byte	0x0
 1961 00a4 00       		.byte	0x0
 1962 00a5 0E       		.uleb128 0xe
 1963 00a6 34       		.uleb128 0x34
 1964 00a7 00       		.byte	0x0
 1965 00a8 03       		.uleb128 0x3
 1966 00a9 0E       		.uleb128 0xe
 1967 00aa 49       		.uleb128 0x49
 1968 00ab 13       		.uleb128 0x13
 1969 00ac 34       		.uleb128 0x34
 1970 00ad 0C       		.uleb128 0xc
 1971 00ae 02       		.uleb128 0x2
 1972 00af 0A       		.uleb128 0xa
 1973 00b0 00       		.byte	0x0
 1974 00b1 00       		.byte	0x0
 1975 00b2 0F       		.uleb128 0xf
 1976 00b3 2E       		.uleb128 0x2e
 1977 00b4 00       		.byte	0x0
 1978 00b5 3F       		.uleb128 0x3f
 1979 00b6 0C       		.uleb128 0xc
 1980 00b7 03       		.uleb128 0x3
 1981 00b8 0E       		.uleb128 0xe
 1982 00b9 3A       		.uleb128 0x3a
 1983 00ba 0B       		.uleb128 0xb
 1984 00bb 3B       		.uleb128 0x3b
 1985 00bc 0B       		.uleb128 0xb
 1986 00bd 27       		.uleb128 0x27
 1987 00be 0C       		.uleb128 0xc
 1988 00bf 11       		.uleb128 0x11
 1989 00c0 01       		.uleb128 0x1
 1990 00c1 12       		.uleb128 0x12
 1991 00c2 01       		.uleb128 0x1
 1992 00c3 40       		.uleb128 0x40
 1993 00c4 0A       		.uleb128 0xa
 1994 00c5 00       		.byte	0x0
 1995 00c6 00       		.byte	0x0
 1996 00c7 10       		.uleb128 0x10
 1997 00c8 2E       		.uleb128 0x2e
 1998 00c9 01       		.byte	0x1
 1999 00ca 3F       		.uleb128 0x3f
 2000 00cb 0C       		.uleb128 0xc
 2001 00cc 03       		.uleb128 0x3
 2002 00cd 0E       		.uleb128 0xe
 2003 00ce 3A       		.uleb128 0x3a
 2004 00cf 0B       		.uleb128 0xb
 2005 00d0 3B       		.uleb128 0x3b
 2006 00d1 0B       		.uleb128 0xb
 2007 00d2 27       		.uleb128 0x27
 2008 00d3 0C       		.uleb128 0xc
 2009 00d4 49       		.uleb128 0x49
 2010 00d5 13       		.uleb128 0x13
 2011 00d6 11       		.uleb128 0x11
 2012 00d7 01       		.uleb128 0x1
 2013 00d8 12       		.uleb128 0x12
ARM GAS  /tmp/ccZwcdmm.s 			page 37


 2014 00d9 01       		.uleb128 0x1
 2015 00da 40       		.uleb128 0x40
 2016 00db 06       		.uleb128 0x6
 2017 00dc 01       		.uleb128 0x1
 2018 00dd 13       		.uleb128 0x13
 2019 00de 00       		.byte	0x0
 2020 00df 00       		.byte	0x0
 2021 00e0 11       		.uleb128 0x11
 2022 00e1 34       		.uleb128 0x34
 2023 00e2 00       		.byte	0x0
 2024 00e3 03       		.uleb128 0x3
 2025 00e4 0E       		.uleb128 0xe
 2026 00e5 3A       		.uleb128 0x3a
 2027 00e6 0B       		.uleb128 0xb
 2028 00e7 3B       		.uleb128 0x3b
 2029 00e8 0B       		.uleb128 0xb
 2030 00e9 49       		.uleb128 0x49
 2031 00ea 13       		.uleb128 0x13
 2032 00eb 02       		.uleb128 0x2
 2033 00ec 06       		.uleb128 0x6
 2034 00ed 00       		.byte	0x0
 2035 00ee 00       		.byte	0x0
 2036 00ef 12       		.uleb128 0x12
 2037 00f0 2E       		.uleb128 0x2e
 2038 00f1 01       		.byte	0x1
 2039 00f2 3F       		.uleb128 0x3f
 2040 00f3 0C       		.uleb128 0xc
 2041 00f4 03       		.uleb128 0x3
 2042 00f5 0E       		.uleb128 0xe
 2043 00f6 3A       		.uleb128 0x3a
 2044 00f7 0B       		.uleb128 0xb
 2045 00f8 3B       		.uleb128 0x3b
 2046 00f9 0B       		.uleb128 0xb
 2047 00fa 27       		.uleb128 0x27
 2048 00fb 0C       		.uleb128 0xc
 2049 00fc 11       		.uleb128 0x11
 2050 00fd 01       		.uleb128 0x1
 2051 00fe 12       		.uleb128 0x12
 2052 00ff 01       		.uleb128 0x1
 2053 0100 40       		.uleb128 0x40
 2054 0101 0A       		.uleb128 0xa
 2055 0102 01       		.uleb128 0x1
 2056 0103 13       		.uleb128 0x13
 2057 0104 00       		.byte	0x0
 2058 0105 00       		.byte	0x0
 2059 0106 13       		.uleb128 0x13
 2060 0107 2E       		.uleb128 0x2e
 2061 0108 01       		.byte	0x1
 2062 0109 3F       		.uleb128 0x3f
 2063 010a 0C       		.uleb128 0xc
 2064 010b 03       		.uleb128 0x3
 2065 010c 0E       		.uleb128 0xe
 2066 010d 3A       		.uleb128 0x3a
 2067 010e 0B       		.uleb128 0xb
 2068 010f 3B       		.uleb128 0x3b
 2069 0110 0B       		.uleb128 0xb
 2070 0111 27       		.uleb128 0x27
ARM GAS  /tmp/ccZwcdmm.s 			page 38


 2071 0112 0C       		.uleb128 0xc
 2072 0113 11       		.uleb128 0x11
 2073 0114 01       		.uleb128 0x1
 2074 0115 12       		.uleb128 0x12
 2075 0116 01       		.uleb128 0x1
 2076 0117 40       		.uleb128 0x40
 2077 0118 06       		.uleb128 0x6
 2078 0119 00       		.byte	0x0
 2079 011a 00       		.byte	0x0
 2080 011b 00       		.byte	0x0
 2081              		.section	.debug_pubnames,"",%progbits
 2082 0000 F8000000 		.4byte	0xf8
 2083 0004 0200     		.2byte	0x2
 2084 0006 00000000 		.4byte	.Ldebug_info0
 2085 000a 2C050000 		.4byte	0x52c
 2086 000e 15030000 		.4byte	0x315
 2087 0012 504D435F 		.ascii	"PMC_EnablePeripheral\000"
 2087      456E6162 
 2087      6C655065 
 2087      72697068 
 2087      6572616C 
 2088 0027 6A030000 		.4byte	0x36a
 2089 002b 504D435F 		.ascii	"PMC_DisablePeripheral\000"
 2089      44697361 
 2089      626C6550 
 2089      65726970 
 2089      68657261 
 2090 0041 B8030000 		.4byte	0x3b8
 2091 0045 504D435F 		.ascii	"PMC_EnableAllPeripherals\000"
 2091      456E6162 
 2091      6C65416C 
 2091      6C506572 
 2091      69706865 
 2092 005e CC030000 		.4byte	0x3cc
 2093 0062 504D435F 		.ascii	"PMC_DisableAllPeripherals\000"
 2093      44697361 
 2093      626C6541 
 2093      6C6C5065 
 2093      72697068 
 2094 007c E0030000 		.4byte	0x3e0
 2095 0080 504D435F 		.ascii	"PMC_IsPeriphEnabled\000"
 2095      49735065 
 2095      72697068 
 2095      456E6162 
 2095      6C656400 
 2096 0094 32040000 		.4byte	0x432
 2097 0098 506D634D 		.ascii	"PmcMasterClockSelection\000"
 2097      61737465 
 2097      72436C6F 
 2097      636B5365 
 2097      6C656374 
 2098 00b0 79040000 		.4byte	0x479
 2099 00b4 436F6E66 		.ascii	"ConfigurePck\000"
 2099      69677572 
 2099      6550636B 
 2099      00
 2100 00c1 B1040000 		.4byte	0x4b1
ARM GAS  /tmp/ccZwcdmm.s 			page 39


 2101 00c5 506D634D 		.ascii	"PmcMainClockSwitchMainOsc\000"
 2101      61696E43 
 2101      6C6F636B 
 2101      53776974 
 2101      63684D61 
 2102 00df D9040000 		.4byte	0x4d9
 2103 00e3 506D6343 		.ascii	"PmcConfigurePllClock\000"
 2103      6F6E6669 
 2103      67757265 
 2103      506C6C43 
 2103      6C6F636B 
 2104 00f8 00000000 		.4byte	0x0
 2105              		.section	.debug_pubtypes,"",%progbits
 2106 0000 2F000000 		.4byte	0x2f
 2107 0004 0200     		.2byte	0x2
 2108 0006 00000000 		.4byte	.Ldebug_info0
 2109 000a 2C050000 		.4byte	0x52c
 2110 000e 2C000000 		.4byte	0x2c
 2111 0012 75696E74 		.ascii	"uint8_t\000"
 2111      385F7400 
 2112 001a 53000000 		.4byte	0x53
 2113 001e 75696E74 		.ascii	"uint32_t\000"
 2113      33325F74 
 2113      00
 2114 0027 09030000 		.4byte	0x309
 2115 002b 506D6300 		.ascii	"Pmc\000"
 2116 002f 00000000 		.4byte	0x0
 2117              		.section	.debug_aranges,"",%progbits
 2118 0000 5C000000 		.4byte	0x5c
 2119 0004 0200     		.2byte	0x2
 2120 0006 00000000 		.4byte	.Ldebug_info0
 2121 000a 04       		.byte	0x4
 2122 000b 00       		.byte	0x0
 2123 000c 0000     		.2byte	0x0
 2124 000e 0000     		.2byte	0x0
 2125 0010 00000000 		.4byte	.LFB0
 2126 0014 58000000 		.4byte	.LFE0-.LFB0
 2127 0018 00000000 		.4byte	.LFB1
 2128 001c 58000000 		.4byte	.LFE1-.LFB1
 2129 0020 00000000 		.4byte	.LFB2
 2130 0024 30000000 		.4byte	.LFE2-.LFB2
 2131 0028 00000000 		.4byte	.LFB3
 2132 002c 28000000 		.4byte	.LFE3-.LFB3
 2133 0030 00000000 		.4byte	.LFB4
 2134 0034 48000000 		.4byte	.LFE4-.LFB4
 2135 0038 00000000 		.4byte	.LFB5
 2136 003c E4000000 		.4byte	.LFE5-.LFB5
 2137 0040 00000000 		.4byte	.LFB6
 2138 0044 2C000000 		.4byte	.LFE6-.LFB6
 2139 0048 00000000 		.4byte	.LFB7
 2140 004c 34000000 		.4byte	.LFE7-.LFB7
 2141 0050 00000000 		.4byte	.LFB8
 2142 0054 88000000 		.4byte	.LFE8-.LFB8
 2143 0058 00000000 		.4byte	0x0
 2144 005c 00000000 		.4byte	0x0
 2145              		.section	.debug_ranges,"",%progbits
 2146              	.Ldebug_ranges0:
ARM GAS  /tmp/ccZwcdmm.s 			page 40


 2147 0000 00000000 		.4byte	.LFB0
 2148 0004 58000000 		.4byte	.LFE0
 2149 0008 00000000 		.4byte	.LFB1
 2150 000c 58000000 		.4byte	.LFE1
 2151 0010 00000000 		.4byte	.LFB2
 2152 0014 30000000 		.4byte	.LFE2
 2153 0018 00000000 		.4byte	.LFB3
 2154 001c 28000000 		.4byte	.LFE3
 2155 0020 00000000 		.4byte	.LFB4
 2156 0024 48000000 		.4byte	.LFE4
 2157 0028 00000000 		.4byte	.LFB5
 2158 002c E4000000 		.4byte	.LFE5
 2159 0030 00000000 		.4byte	.LFB6
 2160 0034 2C000000 		.4byte	.LFE6
 2161 0038 00000000 		.4byte	.LFB7
 2162 003c 34000000 		.4byte	.LFE7
 2163 0040 00000000 		.4byte	.LFB8
 2164 0044 88000000 		.4byte	.LFE8
 2165 0048 00000000 		.4byte	0x0
 2166 004c 00000000 		.4byte	0x0
 2167              		.section	.debug_str,"MS",%progbits,1
 2168              	.LASF35:
 2169 0000 504D435F 		.ascii	"PMC_FOCR\000"
 2169      464F4352 
 2169      00
 2170              	.LASF34:
 2171 0009 504D435F 		.ascii	"PMC_FSPR\000"
 2171      46535052 
 2171      00
 2172              	.LASF30:
 2173 0012 504D435F 		.ascii	"PMC_IDR\000"
 2173      49445200 
 2174              	.LASF13:
 2175 001a 504D435F 		.ascii	"PMC_SCSR\000"
 2175      53435352 
 2175      00
 2176              	.LASF44:
 2177 0023 504D435F 		.ascii	"PMC_OCR\000"
 2177      4F435200 
 2178              	.LASF58:
 2179 002b 706C6C61 		.ascii	"pllab\000"
 2179      6200
 2180              	.LASF2:
 2181 0031 73686F72 		.ascii	"short int\000"
 2181      7420696E 
 2181      7400
 2182              	.LASF54:
 2183 003b 64775072 		.ascii	"dwPrescaler\000"
 2183      65736361 
 2183      6C657200 
 2184              	.LASF50:
 2185 0047 504D435F 		.ascii	"PMC_EnableAllPeripherals\000"
 2185      456E6162 
 2185      6C65416C 
 2185      6C506572 
 2185      69706865 
 2186              	.LASF15:
ARM GAS  /tmp/ccZwcdmm.s 			page 41


 2187 0060 504D435F 		.ascii	"PMC_PCER0\000"
 2187      50434552 
 2187      3000
 2188              	.LASF40:
 2189 006a 504D435F 		.ascii	"PMC_PCER1\000"
 2189      50434552 
 2189      3100
 2190              	.LASF33:
 2191 0074 504D435F 		.ascii	"PMC_FSMR\000"
 2191      46534D52 
 2191      00
 2192              	.LASF14:
 2193 007d 52657365 		.ascii	"Reserved1\000"
 2193      72766564 
 2193      3100
 2194              	.LASF18:
 2195 0087 52657365 		.ascii	"Reserved2\000"
 2195      72766564 
 2195      3200
 2196              	.LASF5:
 2197 0091 75696E74 		.ascii	"uint8_t\000"
 2197      385F7400 
 2198              	.LASF26:
 2199 0099 52657365 		.ascii	"Reserved4\000"
 2199      72766564 
 2199      3400
 2200              	.LASF28:
 2201 00a3 52657365 		.ascii	"Reserved5\000"
 2201      72766564 
 2201      3500
 2202              	.LASF36:
 2203 00ad 52657365 		.ascii	"Reserved6\000"
 2203      72766564 
 2203      3600
 2204              	.LASF39:
 2205 00b7 52657365 		.ascii	"Reserved7\000"
 2205      72766564 
 2205      3700
 2206              	.LASF43:
 2207 00c1 52657365 		.ascii	"Reserved8\000"
 2207      72766564 
 2207      3800
 2208              	.LASF19:
 2209 00cb 434B4752 		.ascii	"CKGR_MOR\000"
 2209      5F4D4F52 
 2209      00
 2210              	.LASF51:
 2211 00d4 504D435F 		.ascii	"PMC_DisableAllPeripherals\000"
 2211      44697361 
 2211      626C6541 
 2211      6C6C5065 
 2211      72697068 
 2212              	.LASF16:
 2213 00ee 504D435F 		.ascii	"PMC_PCDR0\000"
 2213      50434452 
 2213      3000
 2214              	.LASF41:
ARM GAS  /tmp/ccZwcdmm.s 			page 42


 2215 00f8 504D435F 		.ascii	"PMC_PCDR1\000"
 2215      50434452 
 2215      3100
 2216              	.LASF29:
 2217 0102 504D435F 		.ascii	"PMC_IER\000"
 2217      49455200 
 2218              	.LASF8:
 2219 010a 6C6F6E67 		.ascii	"long long int\000"
 2219      206C6F6E 
 2219      6720696E 
 2219      7400
 2220              	.LASF23:
 2221 0118 504D435F 		.ascii	"PMC_MCKR\000"
 2221      4D434B52 
 2221      00
 2222              	.LASF63:
 2223 0121 504D435F 		.ascii	"PMC_IsPeriphEnabled\000"
 2223      49735065 
 2223      72697068 
 2223      456E6162 
 2223      6C656400 
 2224              	.LASF4:
 2225 0135 6C6F6E67 		.ascii	"long int\000"
 2225      20696E74 
 2225      00
 2226              	.LASF52:
 2227 013e 506D634D 		.ascii	"PmcMasterClockSelection\000"
 2227      61737465 
 2227      72436C6F 
 2227      636B5365 
 2227      6C656374 
 2228              	.LASF32:
 2229 0156 504D435F 		.ascii	"PMC_IMR\000"
 2229      494D5200 
 2230              	.LASF1:
 2231 015e 756E7369 		.ascii	"unsigned char\000"
 2231      676E6564 
 2231      20636861 
 2231      7200
 2232              	.LASF37:
 2233 016c 504D435F 		.ascii	"PMC_WPMR\000"
 2233      57504D52 
 2233      00
 2234              	.LASF64:
 2235 0175 506D6343 		.ascii	"PmcConfigurePllClock\000"
 2235      6F6E6669 
 2235      67757265 
 2235      506C6C43 
 2235      6C6F636B 
 2236              	.LASF11:
 2237 018a 504D435F 		.ascii	"PMC_SCER\000"
 2237      53434552 
 2237      00
 2238              	.LASF0:
 2239 0193 7369676E 		.ascii	"signed char\000"
 2239      65642063 
 2239      68617200 
ARM GAS  /tmp/ccZwcdmm.s 			page 43


 2240              	.LASF9:
 2241 019f 6C6F6E67 		.ascii	"long long unsigned int\000"
 2241      206C6F6E 
 2241      6720756E 
 2241      7369676E 
 2241      65642069 
 2242              	.LASF6:
 2243 01b6 75696E74 		.ascii	"uint32_t\000"
 2243      33325F74 
 2243      00
 2244              	.LASF10:
 2245 01bf 756E7369 		.ascii	"unsigned int\000"
 2245      676E6564 
 2245      20696E74 
 2245      00
 2246              	.LASF17:
 2247 01cc 504D435F 		.ascii	"PMC_PCSR0\000"
 2247      50435352 
 2247      3000
 2248              	.LASF42:
 2249 01d6 504D435F 		.ascii	"PMC_PCSR1\000"
 2249      50435352 
 2249      3100
 2250              	.LASF60:
 2251 01e0 64774469 		.ascii	"dwDiv\000"
 2251      7600
 2252              	.LASF38:
 2253 01e6 504D435F 		.ascii	"PMC_WPSR\000"
 2253      57505352 
 2253      00
 2254              	.LASF25:
 2255 01ef 504D435F 		.ascii	"PMC_USB\000"
 2255      55534200 
 2256              	.LASF49:
 2257 01f7 5F5F6675 		.ascii	"__func__\000"
 2257      6E635F5F 
 2257      00
 2258              	.LASF3:
 2259 0200 73686F72 		.ascii	"short unsigned int\000"
 2259      7420756E 
 2259      7369676E 
 2259      65642069 
 2259      6E7400
 2260              	.LASF31:
 2261 0213 504D435F 		.ascii	"PMC_SR\000"
 2261      535200
 2262              	.LASF45:
 2263 021a 63686172 		.ascii	"char\000"
 2263      00
 2264              	.LASF53:
 2265 021f 6477436C 		.ascii	"dwClockSource\000"
 2265      6F636B53 
 2265      6F757263 
 2265      6500
 2266              	.LASF59:
 2267 022d 64774D75 		.ascii	"dwMul\000"
 2267      6C00
ARM GAS  /tmp/ccZwcdmm.s 			page 44


 2268              	.LASF48:
 2269 0233 64774964 		.ascii	"dwId\000"
 2269      00
 2270              	.LASF21:
 2271 0238 434B4752 		.ascii	"CKGR_PLLAR\000"
 2271      5F504C4C 
 2271      415200
 2272              	.LASF47:
 2273 0243 504D435F 		.ascii	"PMC_DisablePeripheral\000"
 2273      44697361 
 2273      626C6550 
 2273      65726970 
 2273      68657261 
 2274              	.LASF57:
 2275 0259 64775469 		.ascii	"dwTimeout\000"
 2275      6D656F75 
 2275      7400
 2276              	.LASF7:
 2277 0263 6C6F6E67 		.ascii	"long unsigned int\000"
 2277      20756E73 
 2277      69676E65 
 2277      6420696E 
 2277      7400
 2278              	.LASF24:
 2279 0275 52657365 		.ascii	"Reserved3\000"
 2279      72766564 
 2279      3300
 2280              	.LASF46:
 2281 027f 504D435F 		.ascii	"PMC_EnablePeripheral\000"
 2281      456E6162 
 2281      6C655065 
 2281      72697068 
 2281      6572616C 
 2282              	.LASF62:
 2283 0294 2F686F6D 		.ascii	"/home/jairom/Documentos/Proyectos/Embebidos/Robocop"
 2283      652F6A61 
 2283      69726F6D 
 2283      2F446F63 
 2283      756D656E 
 2284 02c7 2F536F75 		.ascii	"/Source/code/matrix-creator-mcu/third_party/ChibiOS"
 2284      7263652F 
 2284      636F6465 
 2284      2F6D6174 
 2284      7269782D 
 2285 02fa 2F6F732F 		.ascii	"/os/hal/platforms/AT91SAM3S/pmc.c\000"
 2285      68616C2F 
 2285      706C6174 
 2285      666F726D 
 2285      732F4154 
 2286              	.LASF20:
 2287 031c 434B4752 		.ascii	"CKGR_MCFR\000"
 2287      5F4D4346 
 2287      5200
 2288              	.LASF61:
 2289 0326 474E5520 		.ascii	"GNU C 4.5.2\000"
 2289      4320342E 
 2289      352E3200 
ARM GAS  /tmp/ccZwcdmm.s 			page 45


 2290              	.LASF56:
 2291 0332 506D634D 		.ascii	"PmcMainClockSwitchMainOsc\000"
 2291      61696E43 
 2291      6C6F636B 
 2291      53776974 
 2291      63684D61 
 2292              	.LASF55:
 2293 034c 436F6E66 		.ascii	"ConfigurePck\000"
 2293      69677572 
 2293      6550636B 
 2293      00
 2294              	.LASF27:
 2295 0359 504D435F 		.ascii	"PMC_PCK\000"
 2295      50434B00 
 2296              	.LASF12:
 2297 0361 504D435F 		.ascii	"PMC_SCDR\000"
 2297      53434452 
 2297      00
 2298              	.LASF22:
 2299 036a 434B4752 		.ascii	"CKGR_PLLBR\000"
 2299      5F504C4C 
 2299      425200
 2300              		.ident	"GCC: (Sourcery G++ Lite 2011.03-42) 4.5.2"
ARM GAS  /tmp/ccZwcdmm.s 			page 46


DEFINED SYMBOLS
                            *ABS*:00000000 pmc.c
     /tmp/ccZwcdmm.s:24     .text.PMC_EnablePeripheral:00000000 $t
     /tmp/ccZwcdmm.s:30     .text.PMC_EnablePeripheral:00000000 PMC_EnablePeripheral
     /tmp/ccZwcdmm.s:93     .text.PMC_EnablePeripheral:00000048 $d
     /tmp/ccZwcdmm.s:101    .text.PMC_DisablePeripheral:00000000 $t
     /tmp/ccZwcdmm.s:107    .text.PMC_DisablePeripheral:00000000 PMC_DisablePeripheral
     /tmp/ccZwcdmm.s:170    .text.PMC_DisablePeripheral:00000048 $d
     /tmp/ccZwcdmm.s:178    .text.PMC_EnableAllPeripherals:00000000 $t
     /tmp/ccZwcdmm.s:184    .text.PMC_EnableAllPeripherals:00000000 PMC_EnableAllPeripherals
     /tmp/ccZwcdmm.s:215    .text.PMC_EnableAllPeripherals:0000002c $d
     /tmp/ccZwcdmm.s:220    .text.PMC_DisableAllPeripherals:00000000 $t
     /tmp/ccZwcdmm.s:226    .text.PMC_DisableAllPeripherals:00000000 PMC_DisableAllPeripherals
     /tmp/ccZwcdmm.s:256    .text.PMC_DisableAllPeripherals:00000024 $d
     /tmp/ccZwcdmm.s:261    .text.PMC_IsPeriphEnabled:00000000 $t
     /tmp/ccZwcdmm.s:267    .text.PMC_IsPeriphEnabled:00000000 PMC_IsPeriphEnabled
     /tmp/ccZwcdmm.s:320    .text.PMC_IsPeriphEnabled:00000038 $d
     /tmp/ccZwcdmm.s:328    .text.PmcMasterClockSelection:00000000 $t
     /tmp/ccZwcdmm.s:334    .text.PmcMasterClockSelection:00000000 PmcMasterClockSelection
     /tmp/ccZwcdmm.s:352    .text.PmcMasterClockSelection:0000000a $d
     /tmp/ccZwcdmm.s:356    .text.PmcMasterClockSelection:0000000e $t
     /tmp/ccZwcdmm.s:516    .text.PmcMasterClockSelection:000000e0 $d
     /tmp/ccZwcdmm.s:521    .text.ConfigurePck:00000000 $t
     /tmp/ccZwcdmm.s:527    .text.ConfigurePck:00000000 ConfigurePck
     /tmp/ccZwcdmm.s:571    .text.ConfigurePck:00000024 $d
     /tmp/ccZwcdmm.s:577    .text.PmcMainClockSwitchMainOsc:00000000 $t
     /tmp/ccZwcdmm.s:583    .text.PmcMainClockSwitchMainOsc:00000000 PmcMainClockSwitchMainOsc
     /tmp/ccZwcdmm.s:628    .text.PmcMainClockSwitchMainOsc:0000002c $d
     /tmp/ccZwcdmm.s:634    .text.PmcConfigurePllClock:00000000 $t
     /tmp/ccZwcdmm.s:640    .text.PmcConfigurePllClock:00000000 PmcConfigurePllClock
     /tmp/ccZwcdmm.s:735    .text.PmcConfigurePllClock:00000080 $d
     /tmp/ccZwcdmm.s:741    .rodata.__func__.4648:00000000 $d
     /tmp/ccZwcdmm.s:745    .rodata.__func__.4648:00000000 __func__.4648
     /tmp/ccZwcdmm.s:748    .rodata.__func__.4622:00000000 $d
     /tmp/ccZwcdmm.s:752    .rodata.__func__.4622:00000000 __func__.4622
     /tmp/ccZwcdmm.s:755    .rodata.str1.4:00000000 $d
     /tmp/ccZwcdmm.s:763    .rodata.__func__.4626:00000000 $d
     /tmp/ccZwcdmm.s:767    .rodata.__func__.4626:00000000 __func__.4626
                     .debug_frame:00000010 $d
     /tmp/ccZwcdmm.s:100    .text.PMC_EnablePeripheral:00000058 $t
     /tmp/ccZwcdmm.s:177    .text.PMC_DisablePeripheral:00000058 $t
     /tmp/ccZwcdmm.s:260    .text.PMC_DisableAllPeripherals:00000028 $t
     /tmp/ccZwcdmm.s:327    .text.PMC_IsPeriphEnabled:00000048 $t
     /tmp/ccZwcdmm.s:520    .text.PmcMasterClockSelection:000000e4 $t
     /tmp/ccZwcdmm.s:576    .text.ConfigurePck:0000002c $t
     /tmp/ccZwcdmm.s:633    .text.PmcMainClockSwitchMainOsc:00000034 $t
     /tmp/ccZwcdmm.s:740    .text.PmcConfigurePllClock:00000088 $t

UNDEFINED SYMBOLS
__assert_func
