ARM GAS  /tmp/ccQ8mYDS.s 			page 1


   1              		.syntax unified
   2              		.cpu cortex-m3
   3              		.fpu softvfp
   4              		.eabi_attribute 20, 1
   5              		.eabi_attribute 21, 1
   6              		.eabi_attribute 23, 3
   7              		.eabi_attribute 24, 1
   8              		.eabi_attribute 25, 1
   9              		.eabi_attribute 26, 1
  10              		.eabi_attribute 30, 2
  11              		.eabi_attribute 18, 4
  12              		.thumb
  13              		.file	"system_SAM3.c"
  14              		.section	.debug_abbrev,"",%progbits
  15              	.Ldebug_abbrev0:
  16              		.section	.debug_info,"",%progbits
  17              	.Ldebug_info0:
  18              		.section	.debug_line,"",%progbits
  19              	.Ldebug_line0:
  20 0000 5C020000 		.text
  20      0200CA01 
  20      00000201 
  20      FB0E0D00 
  20      01010101 
  21              	.Ltext0:
  22              		.cfi_sections	.debug_frame
  23              		.section	.text.SystemCoreClockUpdate,"ax",%progbits
  24              		.align	2
  25              		.p2align 4,,15
  26              		.global	SystemCoreClockUpdate
  27              		.thumb
  28              		.thumb_func
  29              		.type	SystemCoreClockUpdate, %function
  30              	SystemCoreClockUpdate:
  31              	.LFB29:
  32              		.file 1 "/home/jairom/Documentos/Proyectos/Embebidos/Robocop/Source/code/matrix-creator-mcu/third_
  33              		.loc 1 360 0
  34              		.cfi_startproc
  35              		@ args = 0, pretend = 0, frame = 0
  36              		@ frame_needed = 0, uses_anonymous_args = 0
  37              		@ link register save eliminated.
  38              		.loc 1 362 0
  39 0000 3A49     		ldr	r1, .L26
  40              		.loc 1 360 0
  41 0002 10B4     		push	{r4}
  42              	.LCFI0:
  43              		.cfi_def_cfa_offset 4
  44              		.loc 1 362 0
  45 0004 0B6B     		ldr	r3, [r1, #48]
  46 0006 03F00303 		and	r3, r3, #3
  47 000a 022B     		cmp	r3, #2
  48 000c 3FD0     		beq	.L4
  49              		.cfi_offset 4, -4
  50 000e 032B     		cmp	r3, #3
  51 0010 2DD0     		beq	.L5
  52 0012 012B     		cmp	r3, #1
  53 0014 19D0     		beq	.L3
ARM GAS  /tmp/ccQ8mYDS.s 			page 2


  54              		.loc 1 364 0
  55 0016 364A     		ldr	r2, .L26+4
  56 0018 5169     		ldr	r1, [r2, #20]
  57              		.loc 1 365 0
  58 001a 364A     		ldr	r2, .L26+8
  59              		.loc 1 364 0
  60 001c 11F0800F 		tst	r1, #128
  61              		.loc 1 365 0
  62 0020 14BF     		ite	ne
  63 0022 4FF40040 		movne	r0, #32768
  64              		.loc 1 367 0
  65 0026 4FF4FA40 		moveq	r0, #32000
  66 002a 1060     		str	r0, [r2, #0]
  67              	.L7:
  68              		.loc 1 415 0
  69 002c 2F4B     		ldr	r3, .L26
  70 002e 196B     		ldr	r1, [r3, #48]
  71 0030 C1F3021C 		ubfx	ip, r1, #4, #3
  72 0034 BCF1070F 		cmp	ip, #7
  73 0038 23D0     		beq	.L23
  74              	.L15:
  75              		.loc 1 418 0
  76 003a 1B6B     		ldr	r3, [r3, #48]
  77 003c C3F30211 		ubfx	r1, r3, #4, #3
  78 0040 30FA01F3 		lsrs	r3, r0, r1
  79 0044 1360     		str	r3, [r2, #0]
  80              	.L1:
  81              		.loc 1 420 0
  82 0046 10BC     		pop	{r4}
  83 0048 7047     		bx	lr
  84              	.L3:
  85              		.loc 1 370 0
  86 004a 086A     		ldr	r0, [r1, #32]
  87 004c 10F08070 		ands	r0, r0, #16777216
  88 0050 3ED1     		bne	.L24
  89              		.loc 1 373 0
  90 0052 284A     		ldr	r2, .L26+8
  91 0054 284C     		ldr	r4, .L26+12
  92 0056 1460     		str	r4, [r2, #0]
  93              		.loc 1 374 0
  94 0058 096A     		ldr	r1, [r1, #32]
  95 005a C1F30113 		ubfx	r3, r1, #4, #2
  96 005e 022B     		cmp	r3, #2
  97 0060 40D0     		beq	.L10
  98 0062 032B     		cmp	r3, #3
  99 0064 2FD0     		beq	.L21
 100 0066 012B     		cmp	r3, #1
 101 0068 37D0     		beq	.L25
 102 006a 2046     		mov	r0, r4
 103 006c DEE7     		b	.L7
 104              	.L5:
 105              		.loc 1 411 0
 106 006e 214A     		ldr	r2, .L26+8
 107 0070 0020     		movs	r0, #0
 108              		.loc 1 415 0
 109 0072 1E4B     		ldr	r3, .L26
 110              		.loc 1 411 0
ARM GAS  /tmp/ccQ8mYDS.s 			page 3


 111 0074 1060     		str	r0, [r2, #0]
 112              		.loc 1 415 0
 113 0076 196B     		ldr	r1, [r3, #48]
 114 0078 C1F3021C 		ubfx	ip, r1, #4, #3
 115 007c BCF1070F 		cmp	ip, #7
 116 0080 DBD1     		bne	.L15
 117              	.L23:
 118              		.loc 1 416 0
 119 0082 1E49     		ldr	r1, .L26+16
 120 0084 A1FB0010 		umull	r1, r0, r1, r0
 121 0088 4308     		lsrs	r3, r0, #1
 122 008a 1360     		str	r3, [r2, #0]
 123 008c DBE7     		b	.L1
 124              	.L4:
 125              		.loc 1 390 0
 126 008e 0A6A     		ldr	r2, [r1, #32]
 127 0090 12F0807F 		tst	r2, #16777216
 128 0094 19D1     		bne	.L18
 129              		.loc 1 393 0
 130 0096 174A     		ldr	r2, .L26+8
 131 0098 174C     		ldr	r4, .L26+12
 132 009a 1460     		str	r4, [r2, #0]
 133              		.loc 1 394 0
 134 009c 086A     		ldr	r0, [r1, #32]
 135 009e C0F30113 		ubfx	r3, r0, #4, #2
 136 00a2 012B     		cmp	r3, #1
 137 00a4 1CD0     		beq	.L13
 138 00a6 1649     		ldr	r1, .L26+20
 139 00a8 022B     		cmp	r3, #2
 140 00aa 0CBF     		ite	eq
 141 00ac 0B46     		moveq	r3, r1
 142 00ae 2346     		movne	r3, r4
 143              	.L12:
 144              		.loc 1 407 0
 145 00b0 0E49     		ldr	r1, .L26
 146 00b2 886A     		ldr	r0, [r1, #40]
 147              		.loc 1 408 0
 148 00b4 896A     		ldr	r1, [r1, #40]
 149              		.loc 1 407 0
 150 00b6 C0F30A40 		ubfx	r0, r0, #16, #11
 151 00ba 00FB0333 		mla	r3, r0, r3, r3
 152              		.loc 1 408 0
 153 00be 01F0FF0C 		and	ip, r1, #255
 154 00c2 B3FBFCF0 		udiv	r0, r3, ip
 155              	.L21:
 156 00c6 1060     		str	r0, [r2, #0]
 157              		.loc 1 409 0
 158 00c8 B0E7     		b	.L7
 159              	.L18:
 160              		.loc 1 390 0
 161 00ca 0D4B     		ldr	r3, .L26+20
 162 00cc 094A     		ldr	r2, .L26+8
 163 00ce EFE7     		b	.L12
 164              	.L24:
 165              		.loc 1 371 0
 166 00d0 0B4B     		ldr	r3, .L26+20
 167 00d2 084A     		ldr	r2, .L26+8
ARM GAS  /tmp/ccQ8mYDS.s 			page 4


 168 00d4 1846     		mov	r0, r3
 169 00d6 1360     		str	r3, [r2, #0]
 170 00d8 A8E7     		b	.L7
 171              	.L25:
 172              		.loc 1 378 0
 173 00da 0A48     		ldr	r0, .L26+24
 174 00dc 1060     		str	r0, [r2, #0]
 175              		.loc 1 379 0
 176 00de A5E7     		b	.L7
 177              	.L13:
 178              		.loc 1 399 0
 179 00e0 084B     		ldr	r3, .L26+24
 180 00e2 E5E7     		b	.L12
 181              	.L10:
 182              		.loc 1 381 0
 183 00e4 0648     		ldr	r0, .L26+20
 184 00e6 1060     		str	r0, [r2, #0]
 185              		.loc 1 382 0
 186 00e8 A0E7     		b	.L7
 187              	.L27:
 188 00ea 00BF     		.align	2
 189              	.L26:
 190 00ec 00040E40 		.word	1074660352
 191 00f0 10140E40 		.word	1074664464
 192 00f4 00000000 		.word	.LANCHOR0
 193 00f8 00093D00 		.word	4000000
 194 00fc ABAAAAAA 		.word	-1431655765
 195 0100 001BB700 		.word	12000000
 196 0104 00127A00 		.word	8000000
 197              		.cfi_endproc
 198              	.LFE29:
 199              		.size	SystemCoreClockUpdate, .-SystemCoreClockUpdate
 200 0108 AFF30080 		.section	.text.SystemInit,"ax",%progbits
 200      AFF30080 
 201              		.align	2
 202              		.p2align 4,,15
 203              		.global	SystemInit
 204              		.thumb
 205              		.thumb_func
 206              		.type	SystemInit, %function
 207              	SystemInit:
 208              	.LFB30:
 209              		.loc 1 432 0
 210              		.cfi_startproc
 211              		@ args = 0, pretend = 0, frame = 0
 212              		@ frame_needed = 0, uses_anonymous_args = 0
 213              		@ link register save eliminated.
 214              		.loc 1 434 0
 215 0000 1E4A     		ldr	r2, .L40
 216 0002 4FF40071 		mov	r1, #512
 217 0006 1160     		str	r1, [r2, #0]
 218              		.loc 1 438 0
 219 0008 1D4B     		ldr	r3, .L40+4
 220 000a 1E48     		ldr	r0, .L40+8
 221              		.loc 1 444 0
 222 000c 1E49     		ldr	r1, .L40+12
 223              		.loc 1 438 0
ARM GAS  /tmp/ccQ8mYDS.s 			page 5


 224 000e C3F8E400 		str	r0, [r3, #228]
 225              		.loc 1 446 0
 226 0012 1A46     		mov	r2, r3
 227              		.loc 1 444 0
 228 0014 1962     		str	r1, [r3, #32]
 229              	.L29:
 230              		.loc 1 446 0 discriminator 1
 231 0016 936E     		ldr	r3, [r2, #104]
 232 0018 13F4003F 		tst	r3, #131072
 233 001c FBD0     		beq	.L29
 234              		.loc 1 449 0 discriminator 1
 235 001e 1849     		ldr	r1, .L40+4
 236              	.L34:
 237 0020 886E     		ldr	r0, [r1, #104]
 238 0022 174A     		ldr	r2, .L40+4
 239 0024 10F0010F 		tst	r0, #1
 240 0028 FAD0     		beq	.L34
 241              		.loc 1 454 0
 242 002a 184B     		ldr	r3, .L40+16
 243              		.loc 1 455 0
 244 002c 1146     		mov	r1, r2
 245              		.loc 1 454 0
 246 002e 9362     		str	r3, [r2, #40]
 247              	.L31:
 248              		.loc 1 455 0 discriminator 1
 249 0030 886E     		ldr	r0, [r1, #104]
 250 0032 134A     		ldr	r2, .L40+4
 251 0034 10F0020F 		tst	r0, #2
 252 0038 FAD0     		beq	.L31
 253              		.loc 1 460 0
 254 003a 106B     		ldr	r0, [r2, #48]
 255              		.loc 1 465 0
 256 003c 1146     		mov	r1, r2
 257              		.loc 1 460 0
 258 003e 20F0700C 		bic	ip, r0, #112
 259 0042 4CF01003 		orr	r3, ip, #16
 260 0046 1363     		str	r3, [r2, #48]
 261              	.L32:
 262              		.loc 1 465 0 discriminator 1
 263 0048 8B6E     		ldr	r3, [r1, #104]
 264 004a 0D4A     		ldr	r2, .L40+4
 265 004c 13F0080F 		tst	r3, #8
 266 0050 FAD0     		beq	.L32
 267              		.loc 1 466 0
 268 0052 1221     		movs	r1, #18
 269 0054 1163     		str	r1, [r2, #48]
 270              		.loc 1 467 0
 271 0056 1146     		mov	r1, r2
 272              	.L33:
 273              		.loc 1 467 0 is_stmt 0 discriminator 1
 274 0058 886E     		ldr	r0, [r1, #104]
 275 005a 094A     		ldr	r2, .L40+4
 276 005c 10F0080F 		tst	r0, #8
 277 0060 FAD0     		beq	.L33
 278              		.loc 1 482 0 is_stmt 1
 279 0062 0023     		movs	r3, #0
 280              		.loc 1 487 0
ARM GAS  /tmp/ccQ8mYDS.s 			page 6


 281 0064 0A49     		ldr	r1, .L40+20
 282              		.loc 1 482 0
 283 0066 1360     		str	r3, [r2, #0]
 284              		.loc 1 483 0
 285 0068 4FF4E050 		mov	r0, #7168
 286              		.loc 1 491 0
 287 006c 094B     		ldr	r3, .L40+24
 288              		.loc 1 483 0
 289 006e 1061     		str	r0, [r2, #16]
 290              		.loc 1 487 0
 291 0070 C2F8E410 		str	r1, [r2, #228]
 292              		.loc 1 491 0
 293 0074 4FF40042 		mov	r2, #32768
 294 0078 5A60     		str	r2, [r3, #4]
 295              		.loc 1 499 0
 296 007a 7047     		bx	lr
 297              	.L41:
 298              		.align	2
 299              	.L40:
 300 007c 000A0E40 		.word	1074661888
 301 0080 00040E40 		.word	1074660352
 302 0084 00434D50 		.word	1347240704
 303 0088 09083701 		.word	20383753
 304 008c 03002020 		.word	538968067
 305 0090 01434D50 		.word	1347240705
 306 0094 50140E40 		.word	1074664528
 307              		.cfi_endproc
 308              	.LFE30:
 309              		.size	SystemInit, .-SystemInit
 310              		.global	SystemCoreClock
 311 0098 AFF30080 		.section	.data.SystemCoreClock,"aw",%progbits
 311      AFF30080 
 312              		.align	2
 313              		.set	.LANCHOR0,. + 0
 314              		.type	SystemCoreClock, %object
 315              		.size	SystemCoreClock, 4
 316              	SystemCoreClock:
 317 0000 8014EF03 		.word	66000000
 318              		.text
 319              	.Letext0:
 320              		.section	.debug_loc,"",%progbits
 321              	.Ldebug_loc0:
 322              	.LLST0:
 323 0000 00000000 		.4byte	.LFB29
 324 0004 04000000 		.4byte	.LCFI0
 325 0008 0200     		.2byte	0x2
 326 000a 7D       		.byte	0x7d
 327 000b 00       		.sleb128 0
 328 000c 04000000 		.4byte	.LCFI0
 329 0010 08010000 		.4byte	.LFE29
 330 0014 0200     		.2byte	0x2
 331 0016 7D       		.byte	0x7d
 332 0017 04       		.sleb128 4
 333 0018 00000000 		.4byte	0x0
 334 001c 00000000 		.4byte	0x0
 335              		.file 2 "/home/jairom/Documentos/Proyectos/Embebidos/Robocop/Source/code/matrix-creator-mcu/third_
 336              		.file 3 "/usr/local/CodeBench_1802_EABI/bin/../lib/gcc/arm-none-eabi/4.5.2/../../../../arm-none-ea
ARM GAS  /tmp/ccQ8mYDS.s 			page 7


 337              		.file 4 "/home/jairom/Documentos/Proyectos/Embebidos/Robocop/Source/code/matrix-creator-mcu/third_
 338              		.file 5 "/home/jairom/Documentos/Proyectos/Embebidos/Robocop/Source/code/matrix-creator-mcu/third_
 339              		.section	.debug_info
 340 0000 78040000 		.4byte	0x478
 341 0004 0200     		.2byte	0x2
 342 0006 00000000 		.4byte	.Ldebug_abbrev0
 343 000a 04       		.byte	0x4
 344 000b 01       		.uleb128 0x1
 345 000c 3D020000 		.4byte	.LASF62
 346 0010 01       		.byte	0x1
 347 0011 5A020000 		.4byte	.LASF63
 348 0015 00000000 		.4byte	0x0
 349 0019 00000000 		.4byte	0x0
 350 001d 00000000 		.4byte	.Ldebug_ranges0+0x0
 351 0021 00000000 		.4byte	.Ldebug_line0
 352 0025 02       		.uleb128 0x2
 353 0026 01       		.byte	0x1
 354 0027 06       		.byte	0x6
 355 0028 55010000 		.4byte	.LASF0
 356 002c 02       		.uleb128 0x2
 357 002d 01       		.byte	0x1
 358 002e 08       		.byte	0x8
 359 002f 35010000 		.4byte	.LASF1
 360 0033 02       		.uleb128 0x2
 361 0034 02       		.byte	0x2
 362 0035 05       		.byte	0x5
 363 0036 45000000 		.4byte	.LASF2
 364 003a 02       		.uleb128 0x2
 365 003b 02       		.byte	0x2
 366 003c 07       		.byte	0x7
 367 003d EC010000 		.4byte	.LASF3
 368 0041 02       		.uleb128 0x2
 369 0042 04       		.byte	0x4
 370 0043 05       		.byte	0x5
 371 0044 1B010000 		.4byte	.LASF4
 372 0048 03       		.uleb128 0x3
 373 0049 78010000 		.4byte	.LASF13
 374 004d 03       		.byte	0x3
 375 004e 50       		.byte	0x50
 376 004f 53000000 		.4byte	0x53
 377 0053 02       		.uleb128 0x2
 378 0054 04       		.byte	0x4
 379 0055 07       		.byte	0x7
 380 0056 21020000 		.4byte	.LASF5
 381 005a 02       		.uleb128 0x2
 382 005b 08       		.byte	0x8
 383 005c 05       		.byte	0x5
 384 005d 59000000 		.4byte	.LASF6
 385 0061 02       		.uleb128 0x2
 386 0062 08       		.byte	0x8
 387 0063 07       		.byte	0x7
 388 0064 61010000 		.4byte	.LASF7
 389 0068 04       		.uleb128 0x4
 390 0069 04       		.byte	0x4
 391 006a 05       		.byte	0x5
 392 006b 696E7400 		.ascii	"int\000"
 393 006f 02       		.uleb128 0x2
ARM GAS  /tmp/ccQ8mYDS.s 			page 8


 394 0070 04       		.byte	0x4
 395 0071 07       		.byte	0x7
 396 0072 81010000 		.4byte	.LASF8
 397 0076 05       		.uleb128 0x5
 398 0077 53000000 		.4byte	0x53
 399 007b 06       		.uleb128 0x6
 400 007c 76000000 		.4byte	0x76
 401 0080 07       		.uleb128 0x7
 402 0081 53000000 		.4byte	0x53
 403 0085 90000000 		.4byte	0x90
 404 0089 08       		.uleb128 0x8
 405 008a 6F000000 		.4byte	0x6f
 406 008e 00       		.byte	0x0
 407 008f 00       		.byte	0x0
 408 0090 07       		.uleb128 0x7
 409 0091 53000000 		.4byte	0x53
 410 0095 A0000000 		.4byte	0xa0
 411 0099 08       		.uleb128 0x8
 412 009a 6F000000 		.4byte	0x6f
 413 009e 04       		.byte	0x4
 414 009f 00       		.byte	0x0
 415 00a0 09       		.uleb128 0x9
 416 00a1 10       		.byte	0x10
 417 00a2 02       		.byte	0x2
 418 00a3 3B04     		.2byte	0x43b
 419 00a5 E6000000 		.4byte	0xe6
 420 00a9 0A       		.uleb128 0xa
 421 00aa 00000000 		.4byte	.LASF9
 422 00ae 02       		.byte	0x2
 423 00af 3C04     		.2byte	0x43c
 424 00b1 76000000 		.4byte	0x76
 425 00b5 02       		.byte	0x2
 426 00b6 23       		.byte	0x23
 427 00b7 00       		.uleb128 0x0
 428 00b8 0A       		.uleb128 0xa
 429 00b9 A2010000 		.4byte	.LASF10
 430 00bd 02       		.byte	0x2
 431 00be 3D04     		.2byte	0x43d
 432 00c0 76000000 		.4byte	0x76
 433 00c4 02       		.byte	0x2
 434 00c5 23       		.byte	0x23
 435 00c6 04       		.uleb128 0x4
 436 00c7 0A       		.uleb128 0xa
 437 00c8 49020000 		.4byte	.LASF11
 438 00cc 02       		.byte	0x2
 439 00cd 3E04     		.2byte	0x43e
 440 00cf 7B000000 		.4byte	0x7b
 441 00d3 02       		.byte	0x2
 442 00d4 23       		.byte	0x23
 443 00d5 08       		.uleb128 0x8
 444 00d6 0A       		.uleb128 0xa
 445 00d7 AB010000 		.4byte	.LASF12
 446 00db 02       		.byte	0x2
 447 00dc 3F04     		.2byte	0x43f
 448 00de 7B000000 		.4byte	0x7b
 449 00e2 02       		.byte	0x2
 450 00e3 23       		.byte	0x23
ARM GAS  /tmp/ccQ8mYDS.s 			page 9


 451 00e4 0C       		.uleb128 0xc
 452 00e5 00       		.byte	0x0
 453 00e6 0B       		.uleb128 0xb
 454 00e7 45666300 		.ascii	"Efc\000"
 455 00eb 02       		.byte	0x2
 456 00ec 4004     		.2byte	0x440
 457 00ee A0000000 		.4byte	0xa0
 458 00f2 0C       		.uleb128 0xc
 459 00f3 1401     		.2byte	0x114
 460 00f5 02       		.byte	0x2
 461 00f6 3F0D     		.2byte	0xd3f
 462 00f8 03030000 		.4byte	0x303
 463 00fc 0A       		.uleb128 0xa
 464 00fd 4C010000 		.4byte	.LASF14
 465 0101 02       		.byte	0x2
 466 0102 400D     		.2byte	0xd40
 467 0104 76000000 		.4byte	0x76
 468 0108 02       		.byte	0x2
 469 0109 23       		.byte	0x23
 470 010a 00       		.uleb128 0x0
 471 010b 0A       		.uleb128 0xa
 472 010c 04030000 		.4byte	.LASF15
 473 0110 02       		.byte	0x2
 474 0111 410D     		.2byte	0xd41
 475 0113 76000000 		.4byte	0x76
 476 0117 02       		.byte	0x2
 477 0118 23       		.byte	0x23
 478 0119 04       		.uleb128 0x4
 479 011a 0A       		.uleb128 0xa
 480 011b 23000000 		.4byte	.LASF16
 481 011f 02       		.byte	0x2
 482 0120 420D     		.2byte	0xd42
 483 0122 7B000000 		.4byte	0x7b
 484 0126 02       		.byte	0x2
 485 0127 23       		.byte	0x23
 486 0128 08       		.uleb128 0x8
 487 0129 0A       		.uleb128 0xa
 488 012a 96000000 		.4byte	.LASF17
 489 012e 02       		.byte	0x2
 490 012f 430D     		.2byte	0xd43
 491 0131 03030000 		.4byte	0x303
 492 0135 02       		.byte	0x2
 493 0136 23       		.byte	0x23
 494 0137 0C       		.uleb128 0xc
 495 0138 0A       		.uleb128 0xa
 496 0139 71000000 		.4byte	.LASF18
 497 013d 02       		.byte	0x2
 498 013e 440D     		.2byte	0xd44
 499 0140 76000000 		.4byte	0x76
 500 0144 02       		.byte	0x2
 501 0145 23       		.byte	0x23
 502 0146 10       		.uleb128 0x10
 503 0147 0A       		.uleb128 0xa
 504 0148 EF000000 		.4byte	.LASF19
 505 014c 02       		.byte	0x2
 506 014d 450D     		.2byte	0xd45
 507 014f 76000000 		.4byte	0x76
ARM GAS  /tmp/ccQ8mYDS.s 			page 10


 508 0153 02       		.byte	0x2
 509 0154 23       		.byte	0x23
 510 0155 14       		.uleb128 0x14
 511 0156 0A       		.uleb128 0xa
 512 0157 8E010000 		.4byte	.LASF20
 513 015b 02       		.byte	0x2
 514 015c 460D     		.2byte	0xd46
 515 015e 7B000000 		.4byte	0x7b
 516 0162 02       		.byte	0x2
 517 0163 23       		.byte	0x23
 518 0164 18       		.uleb128 0x18
 519 0165 0A       		.uleb128 0xa
 520 0166 A0000000 		.4byte	.LASF21
 521 016a 02       		.byte	0x2
 522 016b 470D     		.2byte	0xd47
 523 016d 08030000 		.4byte	0x308
 524 0171 02       		.byte	0x2
 525 0172 23       		.byte	0x23
 526 0173 1C       		.uleb128 0x1c
 527 0174 0A       		.uleb128 0xa
 528 0175 E6000000 		.4byte	.LASF22
 529 0179 02       		.byte	0x2
 530 017a 480D     		.2byte	0xd48
 531 017c 76000000 		.4byte	0x76
 532 0180 02       		.byte	0x2
 533 0181 23       		.byte	0x23
 534 0182 20       		.uleb128 0x20
 535 0183 0A       		.uleb128 0xa
 536 0184 33020000 		.4byte	.LASF23
 537 0188 02       		.byte	0x2
 538 0189 490D     		.2byte	0xd49
 539 018b 7B000000 		.4byte	0x7b
 540 018f 02       		.byte	0x2
 541 0190 23       		.byte	0x23
 542 0191 24       		.uleb128 0x24
 543 0192 0A       		.uleb128 0xa
 544 0193 0F020000 		.4byte	.LASF24
 545 0197 02       		.byte	0x2
 546 0198 4A0D     		.2byte	0xd4a
 547 019a 76000000 		.4byte	0x76
 548 019e 02       		.byte	0x2
 549 019f 23       		.byte	0x23
 550 01a0 28       		.uleb128 0x28
 551 01a1 0A       		.uleb128 0xa
 552 01a2 0D030000 		.4byte	.LASF25
 553 01a6 02       		.byte	0x2
 554 01a7 4B0D     		.2byte	0xd4b
 555 01a9 76000000 		.4byte	0x76
 556 01ad 02       		.byte	0x2
 557 01ae 23       		.byte	0x23
 558 01af 2C       		.uleb128 0x2c
 559 01b0 0A       		.uleb128 0xa
 560 01b1 12010000 		.4byte	.LASF26
 561 01b5 02       		.byte	0x2
 562 01b6 4C0D     		.2byte	0xd4c
 563 01b8 76000000 		.4byte	0x76
 564 01bc 02       		.byte	0x2
ARM GAS  /tmp/ccQ8mYDS.s 			page 11


 565 01bd 23       		.byte	0x23
 566 01be 30       		.uleb128 0x30
 567 01bf 0A       		.uleb128 0xa
 568 01c0 AA000000 		.4byte	.LASF27
 569 01c4 02       		.byte	0x2
 570 01c5 4D0D     		.2byte	0xd4d
 571 01c7 0D030000 		.4byte	0x30d
 572 01cb 02       		.byte	0x2
 573 01cc 23       		.byte	0x23
 574 01cd 34       		.uleb128 0x34
 575 01ce 0A       		.uleb128 0xa
 576 01cf B4010000 		.4byte	.LASF28
 577 01d3 02       		.byte	0x2
 578 01d4 4E0D     		.2byte	0xd4e
 579 01d6 76000000 		.4byte	0x76
 580 01da 02       		.byte	0x2
 581 01db 23       		.byte	0x23
 582 01dc 38       		.uleb128 0x38
 583 01dd 0A       		.uleb128 0xa
 584 01de B4000000 		.4byte	.LASF29
 585 01e2 02       		.byte	0x2
 586 01e3 4F0D     		.2byte	0xd4f
 587 01e5 12030000 		.4byte	0x312
 588 01e9 02       		.byte	0x2
 589 01ea 23       		.byte	0x23
 590 01eb 3C       		.uleb128 0x3c
 591 01ec 0A       		.uleb128 0xa
 592 01ed F7020000 		.4byte	.LASF30
 593 01f1 02       		.byte	0x2
 594 01f2 500D     		.2byte	0xd50
 595 01f4 27030000 		.4byte	0x327
 596 01f8 02       		.byte	0x2
 597 01f9 23       		.byte	0x23
 598 01fa 40       		.uleb128 0x40
 599 01fb 0A       		.uleb128 0xa
 600 01fc BE000000 		.4byte	.LASF31
 601 0200 02       		.byte	0x2
 602 0201 510D     		.2byte	0xd51
 603 0203 2C030000 		.4byte	0x32c
 604 0207 02       		.byte	0x2
 605 0208 23       		.byte	0x23
 606 0209 4C       		.uleb128 0x4c
 607 020a 0A       		.uleb128 0xa
 608 020b 03010000 		.4byte	.LASF32
 609 020f 02       		.byte	0x2
 610 0210 520D     		.2byte	0xd52
 611 0212 76000000 		.4byte	0x76
 612 0216 02       		.byte	0x2
 613 0217 23       		.byte	0x23
 614 0218 60       		.uleb128 0x60
 615 0219 0A       		.uleb128 0xa
 616 021a 1B000000 		.4byte	.LASF33
 617 021e 02       		.byte	0x2
 618 021f 530D     		.2byte	0xd53
 619 0221 76000000 		.4byte	0x76
 620 0225 02       		.byte	0x2
 621 0226 23       		.byte	0x23
ARM GAS  /tmp/ccQ8mYDS.s 			page 12


 622 0227 64       		.uleb128 0x64
 623 0228 0A       		.uleb128 0xa
 624 0229 CF010000 		.4byte	.LASF34
 625 022d 02       		.byte	0x2
 626 022e 540D     		.2byte	0xd54
 627 0230 7B000000 		.4byte	0x7b
 628 0234 02       		.byte	0x2
 629 0235 23       		.byte	0x23
 630 0236 68       		.uleb128 0x68
 631 0237 0A       		.uleb128 0xa
 632 0238 24010000 		.4byte	.LASF35
 633 023c 02       		.byte	0x2
 634 023d 550D     		.2byte	0xd55
 635 023f 7B000000 		.4byte	0x7b
 636 0243 02       		.byte	0x2
 637 0244 23       		.byte	0x23
 638 0245 6C       		.uleb128 0x6c
 639 0246 0A       		.uleb128 0xa
 640 0247 8D000000 		.4byte	.LASF36
 641 024b 02       		.byte	0x2
 642 024c 560D     		.2byte	0xd56
 643 024e 76000000 		.4byte	0x76
 644 0252 02       		.byte	0x2
 645 0253 23       		.byte	0x23
 646 0254 70       		.uleb128 0x70
 647 0255 0A       		.uleb128 0xa
 648 0256 12000000 		.4byte	.LASF37
 649 025a 02       		.byte	0x2
 650 025b 570D     		.2byte	0xd57
 651 025d 76000000 		.4byte	0x76
 652 0261 02       		.byte	0x2
 653 0262 23       		.byte	0x23
 654 0263 74       		.uleb128 0x74
 655 0264 0A       		.uleb128 0xa
 656 0265 09000000 		.4byte	.LASF38
 657 0269 02       		.byte	0x2
 658 026a 580D     		.2byte	0xd58
 659 026c 76000000 		.4byte	0x76
 660 0270 02       		.byte	0x2
 661 0271 23       		.byte	0x23
 662 0272 78       		.uleb128 0x78
 663 0273 0A       		.uleb128 0xa
 664 0274 C8000000 		.4byte	.LASF39
 665 0278 02       		.byte	0x2
 666 0279 590D     		.2byte	0xd59
 667 027b 41030000 		.4byte	0x341
 668 027f 02       		.byte	0x2
 669 0280 23       		.byte	0x23
 670 0281 7C       		.uleb128 0x7c
 671 0282 0A       		.uleb128 0xa
 672 0283 43010000 		.4byte	.LASF40
 673 0287 02       		.byte	0x2
 674 0288 5A0D     		.2byte	0xd5a
 675 028a 76000000 		.4byte	0x76
 676 028e 03       		.byte	0x3
 677 028f 23       		.byte	0x23
 678 0290 E401     		.uleb128 0xe4
ARM GAS  /tmp/ccQ8mYDS.s 			page 13


 679 0292 0A       		.uleb128 0xa
 680 0293 2C010000 		.4byte	.LASF41
 681 0297 02       		.byte	0x2
 682 0298 5B0D     		.2byte	0xd5b
 683 029a 7B000000 		.4byte	0x7b
 684 029e 03       		.byte	0x3
 685 029f 23       		.byte	0x23
 686 02a0 E801     		.uleb128 0xe8
 687 02a2 0A       		.uleb128 0xa
 688 02a3 D2000000 		.4byte	.LASF42
 689 02a7 02       		.byte	0x2
 690 02a8 5C0D     		.2byte	0xd5c
 691 02aa 46030000 		.4byte	0x346
 692 02ae 03       		.byte	0x3
 693 02af 23       		.byte	0x23
 694 02b0 EC01     		.uleb128 0xec
 695 02b2 0A       		.uleb128 0xa
 696 02b3 7B000000 		.4byte	.LASF43
 697 02b7 02       		.byte	0x2
 698 02b8 5D0D     		.2byte	0xd5d
 699 02ba 76000000 		.4byte	0x76
 700 02be 03       		.byte	0x3
 701 02bf 23       		.byte	0x23
 702 02c0 8002     		.uleb128 0x100
 703 02c2 0A       		.uleb128 0xa
 704 02c3 F9000000 		.4byte	.LASF44
 705 02c7 02       		.byte	0x2
 706 02c8 5E0D     		.2byte	0xd5e
 707 02ca 76000000 		.4byte	0x76
 708 02ce 03       		.byte	0x3
 709 02cf 23       		.byte	0x23
 710 02d0 8402     		.uleb128 0x104
 711 02d2 0A       		.uleb128 0xa
 712 02d3 98010000 		.4byte	.LASF45
 713 02d7 02       		.byte	0x2
 714 02d8 5F0D     		.2byte	0xd5f
 715 02da 7B000000 		.4byte	0x7b
 716 02de 03       		.byte	0x3
 717 02df 23       		.byte	0x23
 718 02e0 8802     		.uleb128 0x108
 719 02e2 0A       		.uleb128 0xa
 720 02e3 DC000000 		.4byte	.LASF46
 721 02e7 02       		.byte	0x2
 722 02e8 600D     		.2byte	0xd60
 723 02ea 4B030000 		.4byte	0x34b
 724 02ee 03       		.byte	0x3
 725 02ef 23       		.byte	0x23
 726 02f0 8C02     		.uleb128 0x10c
 727 02f2 0A       		.uleb128 0xa
 728 02f3 3D000000 		.4byte	.LASF47
 729 02f7 02       		.byte	0x2
 730 02f8 610D     		.2byte	0xd61
 731 02fa 76000000 		.4byte	0x76
 732 02fe 03       		.byte	0x3
 733 02ff 23       		.byte	0x23
 734 0300 9002     		.uleb128 0x110
 735 0302 00       		.byte	0x0
ARM GAS  /tmp/ccQ8mYDS.s 			page 14


 736 0303 05       		.uleb128 0x5
 737 0304 80000000 		.4byte	0x80
 738 0308 05       		.uleb128 0x5
 739 0309 80000000 		.4byte	0x80
 740 030d 05       		.uleb128 0x5
 741 030e 80000000 		.4byte	0x80
 742 0312 05       		.uleb128 0x5
 743 0313 80000000 		.4byte	0x80
 744 0317 07       		.uleb128 0x7
 745 0318 53000000 		.4byte	0x53
 746 031c 27030000 		.4byte	0x327
 747 0320 08       		.uleb128 0x8
 748 0321 6F000000 		.4byte	0x6f
 749 0325 02       		.byte	0x2
 750 0326 00       		.byte	0x0
 751 0327 05       		.uleb128 0x5
 752 0328 17030000 		.4byte	0x317
 753 032c 05       		.uleb128 0x5
 754 032d 90000000 		.4byte	0x90
 755 0331 07       		.uleb128 0x7
 756 0332 53000000 		.4byte	0x53
 757 0336 41030000 		.4byte	0x341
 758 033a 08       		.uleb128 0x8
 759 033b 6F000000 		.4byte	0x6f
 760 033f 19       		.byte	0x19
 761 0340 00       		.byte	0x0
 762 0341 05       		.uleb128 0x5
 763 0342 31030000 		.4byte	0x331
 764 0346 05       		.uleb128 0x5
 765 0347 90000000 		.4byte	0x90
 766 034b 05       		.uleb128 0x5
 767 034c 80000000 		.4byte	0x80
 768 0350 0B       		.uleb128 0xb
 769 0351 506D6300 		.ascii	"Pmc\000"
 770 0355 02       		.byte	0x2
 771 0356 620D     		.2byte	0xd62
 772 0358 F2000000 		.4byte	0xf2
 773 035c 09       		.uleb128 0x9
 774 035d 18       		.byte	0x18
 775 035e 02       		.byte	0x2
 776 035f 3E14     		.2byte	0x143e
 777 0361 C0030000 		.4byte	0x3c0
 778 0365 0A       		.uleb128 0xa
 779 0366 C7010000 		.4byte	.LASF48
 780 036a 02       		.byte	0x2
 781 036b 3F14     		.2byte	0x143f
 782 036d 76000000 		.4byte	0x76
 783 0371 02       		.byte	0x2
 784 0372 23       		.byte	0x23
 785 0373 00       		.uleb128 0x0
 786 0374 0A       		.uleb128 0xa
 787 0375 2C000000 		.4byte	.LASF49
 788 0379 02       		.byte	0x2
 789 037a 4014     		.2byte	0x1440
 790 037c 76000000 		.4byte	0x76
 791 0380 02       		.byte	0x2
 792 0381 23       		.byte	0x23
ARM GAS  /tmp/ccQ8mYDS.s 			page 15


 793 0382 04       		.uleb128 0x4
 794 0383 0A       		.uleb128 0xa
 795 0384 85000000 		.4byte	.LASF50
 796 0388 02       		.byte	0x2
 797 0389 4114     		.2byte	0x1441
 798 038b 76000000 		.4byte	0x76
 799 038f 02       		.byte	0x2
 800 0390 23       		.byte	0x23
 801 0391 08       		.uleb128 0x8
 802 0392 0A       		.uleb128 0xa
 803 0393 67000000 		.4byte	.LASF51
 804 0397 02       		.byte	0x2
 805 0398 4214     		.2byte	0x1442
 806 039a 76000000 		.4byte	0x76
 807 039e 02       		.byte	0x2
 808 039f 23       		.byte	0x23
 809 03a0 0C       		.uleb128 0xc
 810 03a1 0A       		.uleb128 0xa
 811 03a2 4F000000 		.4byte	.LASF52
 812 03a6 02       		.byte	0x2
 813 03a7 4314     		.2byte	0x1443
 814 03a9 76000000 		.4byte	0x76
 815 03ad 02       		.byte	0x2
 816 03ae 23       		.byte	0x23
 817 03af 10       		.uleb128 0x10
 818 03b0 0A       		.uleb128 0xa
 819 03b1 52020000 		.4byte	.LASF53
 820 03b5 02       		.byte	0x2
 821 03b6 4414     		.2byte	0x1444
 822 03b8 7B000000 		.4byte	0x7b
 823 03bc 02       		.byte	0x2
 824 03bd 23       		.byte	0x23
 825 03be 14       		.uleb128 0x14
 826 03bf 00       		.byte	0x0
 827 03c0 0D       		.uleb128 0xd
 828 03c1 FF020000 		.4byte	.LASF54
 829 03c5 02       		.byte	0x2
 830 03c6 4514     		.2byte	0x1445
 831 03c8 5C030000 		.4byte	0x35c
 832 03cc 09       		.uleb128 0x9
 833 03cd 0C       		.byte	0xc
 834 03ce 02       		.byte	0x2
 835 03cf 7619     		.2byte	0x1976
 836 03d1 03040000 		.4byte	0x403
 837 03d5 0A       		.uleb128 0xa
 838 03d6 36000000 		.4byte	.LASF55
 839 03da 02       		.byte	0x2
 840 03db 7719     		.2byte	0x1977
 841 03dd 76000000 		.4byte	0x76
 842 03e1 02       		.byte	0x2
 843 03e2 23       		.byte	0x23
 844 03e3 00       		.uleb128 0x0
 845 03e4 0A       		.uleb128 0xa
 846 03e5 1A020000 		.4byte	.LASF56
 847 03e9 02       		.byte	0x2
 848 03ea 7819     		.2byte	0x1978
 849 03ec 76000000 		.4byte	0x76
ARM GAS  /tmp/ccQ8mYDS.s 			page 16


 850 03f0 02       		.byte	0x2
 851 03f1 23       		.byte	0x23
 852 03f2 04       		.uleb128 0x4
 853 03f3 0A       		.uleb128 0xa
 854 03f4 0B010000 		.4byte	.LASF57
 855 03f8 02       		.byte	0x2
 856 03f9 7919     		.2byte	0x1979
 857 03fb 7B000000 		.4byte	0x7b
 858 03ff 02       		.byte	0x2
 859 0400 23       		.byte	0x23
 860 0401 08       		.uleb128 0x8
 861 0402 00       		.byte	0x0
 862 0403 0B       		.uleb128 0xb
 863 0404 57647400 		.ascii	"Wdt\000"
 864 0408 02       		.byte	0x2
 865 0409 7A19     		.2byte	0x197a
 866 040b CC030000 		.4byte	0x3cc
 867 040f 0E       		.uleb128 0xe
 868 0410 01       		.byte	0x1
 869 0411 D6010000 		.4byte	.LASF58
 870 0415 01       		.byte	0x1
 871 0416 6701     		.2byte	0x167
 872 0418 01       		.byte	0x1
 873 0419 00000000 		.4byte	.LFB29
 874 041d 08010000 		.4byte	.LFE29
 875 0421 00000000 		.4byte	.LLST0
 876 0425 0F       		.uleb128 0xf
 877 0426 01       		.byte	0x1
 878 0427 BC010000 		.4byte	.LASF59
 879 042b 01       		.byte	0x1
 880 042c AF01     		.2byte	0x1af
 881 042e 01       		.byte	0x1
 882 042f 00000000 		.4byte	.LFB30
 883 0433 98000000 		.4byte	.LFE30
 884 0437 02       		.byte	0x2
 885 0438 7D       		.byte	0x7d
 886 0439 00       		.sleb128 0
 887 043a 10       		.uleb128 0x10
 888 043b EA020000 		.4byte	.LASF60
 889 043f 04       		.byte	0x4
 890 0440 CE06     		.2byte	0x6ce
 891 0442 48040000 		.4byte	0x448
 892 0446 01       		.byte	0x1
 893 0447 01       		.byte	0x1
 894 0448 05       		.uleb128 0x5
 895 0449 68000000 		.4byte	0x68
 896 044d 11       		.uleb128 0x11
 897 044e FF010000 		.4byte	.LASF61
 898 0452 05       		.byte	0x5
 899 0453 21       		.byte	0x21
 900 0454 48000000 		.4byte	0x48
 901 0458 01       		.byte	0x1
 902 0459 01       		.byte	0x1
 903 045a 10       		.uleb128 0x10
 904 045b EA020000 		.4byte	.LASF60
 905 045f 04       		.byte	0x4
 906 0460 CE06     		.2byte	0x6ce
ARM GAS  /tmp/ccQ8mYDS.s 			page 17


 907 0462 48040000 		.4byte	0x448
 908 0466 01       		.byte	0x1
 909 0467 01       		.byte	0x1
 910 0468 12       		.uleb128 0x12
 911 0469 FF010000 		.4byte	.LASF61
 912 046d 01       		.byte	0x1
 913 046e 6101     		.2byte	0x161
 914 0470 48000000 		.4byte	0x48
 915 0474 01       		.byte	0x1
 916 0475 05       		.byte	0x5
 917 0476 03       		.byte	0x3
 918 0477 00000000 		.4byte	SystemCoreClock
 919 047b 00       		.byte	0x0
 920              		.section	.debug_abbrev
 921 0000 01       		.uleb128 0x1
 922 0001 11       		.uleb128 0x11
 923 0002 01       		.byte	0x1
 924 0003 25       		.uleb128 0x25
 925 0004 0E       		.uleb128 0xe
 926 0005 13       		.uleb128 0x13
 927 0006 0B       		.uleb128 0xb
 928 0007 03       		.uleb128 0x3
 929 0008 0E       		.uleb128 0xe
 930 0009 11       		.uleb128 0x11
 931 000a 01       		.uleb128 0x1
 932 000b 52       		.uleb128 0x52
 933 000c 01       		.uleb128 0x1
 934 000d 55       		.uleb128 0x55
 935 000e 06       		.uleb128 0x6
 936 000f 10       		.uleb128 0x10
 937 0010 06       		.uleb128 0x6
 938 0011 00       		.byte	0x0
 939 0012 00       		.byte	0x0
 940 0013 02       		.uleb128 0x2
 941 0014 24       		.uleb128 0x24
 942 0015 00       		.byte	0x0
 943 0016 0B       		.uleb128 0xb
 944 0017 0B       		.uleb128 0xb
 945 0018 3E       		.uleb128 0x3e
 946 0019 0B       		.uleb128 0xb
 947 001a 03       		.uleb128 0x3
 948 001b 0E       		.uleb128 0xe
 949 001c 00       		.byte	0x0
 950 001d 00       		.byte	0x0
 951 001e 03       		.uleb128 0x3
 952 001f 16       		.uleb128 0x16
 953 0020 00       		.byte	0x0
 954 0021 03       		.uleb128 0x3
 955 0022 0E       		.uleb128 0xe
 956 0023 3A       		.uleb128 0x3a
 957 0024 0B       		.uleb128 0xb
 958 0025 3B       		.uleb128 0x3b
 959 0026 0B       		.uleb128 0xb
 960 0027 49       		.uleb128 0x49
 961 0028 13       		.uleb128 0x13
 962 0029 00       		.byte	0x0
 963 002a 00       		.byte	0x0
ARM GAS  /tmp/ccQ8mYDS.s 			page 18


 964 002b 04       		.uleb128 0x4
 965 002c 24       		.uleb128 0x24
 966 002d 00       		.byte	0x0
 967 002e 0B       		.uleb128 0xb
 968 002f 0B       		.uleb128 0xb
 969 0030 3E       		.uleb128 0x3e
 970 0031 0B       		.uleb128 0xb
 971 0032 03       		.uleb128 0x3
 972 0033 08       		.uleb128 0x8
 973 0034 00       		.byte	0x0
 974 0035 00       		.byte	0x0
 975 0036 05       		.uleb128 0x5
 976 0037 35       		.uleb128 0x35
 977 0038 00       		.byte	0x0
 978 0039 49       		.uleb128 0x49
 979 003a 13       		.uleb128 0x13
 980 003b 00       		.byte	0x0
 981 003c 00       		.byte	0x0
 982 003d 06       		.uleb128 0x6
 983 003e 26       		.uleb128 0x26
 984 003f 00       		.byte	0x0
 985 0040 49       		.uleb128 0x49
 986 0041 13       		.uleb128 0x13
 987 0042 00       		.byte	0x0
 988 0043 00       		.byte	0x0
 989 0044 07       		.uleb128 0x7
 990 0045 01       		.uleb128 0x1
 991 0046 01       		.byte	0x1
 992 0047 49       		.uleb128 0x49
 993 0048 13       		.uleb128 0x13
 994 0049 01       		.uleb128 0x1
 995 004a 13       		.uleb128 0x13
 996 004b 00       		.byte	0x0
 997 004c 00       		.byte	0x0
 998 004d 08       		.uleb128 0x8
 999 004e 21       		.uleb128 0x21
 1000 004f 00       		.byte	0x0
 1001 0050 49       		.uleb128 0x49
 1002 0051 13       		.uleb128 0x13
 1003 0052 2F       		.uleb128 0x2f
 1004 0053 0B       		.uleb128 0xb
 1005 0054 00       		.byte	0x0
 1006 0055 00       		.byte	0x0
 1007 0056 09       		.uleb128 0x9
 1008 0057 13       		.uleb128 0x13
 1009 0058 01       		.byte	0x1
 1010 0059 0B       		.uleb128 0xb
 1011 005a 0B       		.uleb128 0xb
 1012 005b 3A       		.uleb128 0x3a
 1013 005c 0B       		.uleb128 0xb
 1014 005d 3B       		.uleb128 0x3b
 1015 005e 05       		.uleb128 0x5
 1016 005f 01       		.uleb128 0x1
 1017 0060 13       		.uleb128 0x13
 1018 0061 00       		.byte	0x0
 1019 0062 00       		.byte	0x0
 1020 0063 0A       		.uleb128 0xa
ARM GAS  /tmp/ccQ8mYDS.s 			page 19


 1021 0064 0D       		.uleb128 0xd
 1022 0065 00       		.byte	0x0
 1023 0066 03       		.uleb128 0x3
 1024 0067 0E       		.uleb128 0xe
 1025 0068 3A       		.uleb128 0x3a
 1026 0069 0B       		.uleb128 0xb
 1027 006a 3B       		.uleb128 0x3b
 1028 006b 05       		.uleb128 0x5
 1029 006c 49       		.uleb128 0x49
 1030 006d 13       		.uleb128 0x13
 1031 006e 38       		.uleb128 0x38
 1032 006f 0A       		.uleb128 0xa
 1033 0070 00       		.byte	0x0
 1034 0071 00       		.byte	0x0
 1035 0072 0B       		.uleb128 0xb
 1036 0073 16       		.uleb128 0x16
 1037 0074 00       		.byte	0x0
 1038 0075 03       		.uleb128 0x3
 1039 0076 08       		.uleb128 0x8
 1040 0077 3A       		.uleb128 0x3a
 1041 0078 0B       		.uleb128 0xb
 1042 0079 3B       		.uleb128 0x3b
 1043 007a 05       		.uleb128 0x5
 1044 007b 49       		.uleb128 0x49
 1045 007c 13       		.uleb128 0x13
 1046 007d 00       		.byte	0x0
 1047 007e 00       		.byte	0x0
 1048 007f 0C       		.uleb128 0xc
 1049 0080 13       		.uleb128 0x13
 1050 0081 01       		.byte	0x1
 1051 0082 0B       		.uleb128 0xb
 1052 0083 05       		.uleb128 0x5
 1053 0084 3A       		.uleb128 0x3a
 1054 0085 0B       		.uleb128 0xb
 1055 0086 3B       		.uleb128 0x3b
 1056 0087 05       		.uleb128 0x5
 1057 0088 01       		.uleb128 0x1
 1058 0089 13       		.uleb128 0x13
 1059 008a 00       		.byte	0x0
 1060 008b 00       		.byte	0x0
 1061 008c 0D       		.uleb128 0xd
 1062 008d 16       		.uleb128 0x16
 1063 008e 00       		.byte	0x0
 1064 008f 03       		.uleb128 0x3
 1065 0090 0E       		.uleb128 0xe
 1066 0091 3A       		.uleb128 0x3a
 1067 0092 0B       		.uleb128 0xb
 1068 0093 3B       		.uleb128 0x3b
 1069 0094 05       		.uleb128 0x5
 1070 0095 49       		.uleb128 0x49
 1071 0096 13       		.uleb128 0x13
 1072 0097 00       		.byte	0x0
 1073 0098 00       		.byte	0x0
 1074 0099 0E       		.uleb128 0xe
 1075 009a 2E       		.uleb128 0x2e
 1076 009b 00       		.byte	0x0
 1077 009c 3F       		.uleb128 0x3f
ARM GAS  /tmp/ccQ8mYDS.s 			page 20


 1078 009d 0C       		.uleb128 0xc
 1079 009e 03       		.uleb128 0x3
 1080 009f 0E       		.uleb128 0xe
 1081 00a0 3A       		.uleb128 0x3a
 1082 00a1 0B       		.uleb128 0xb
 1083 00a2 3B       		.uleb128 0x3b
 1084 00a3 05       		.uleb128 0x5
 1085 00a4 27       		.uleb128 0x27
 1086 00a5 0C       		.uleb128 0xc
 1087 00a6 11       		.uleb128 0x11
 1088 00a7 01       		.uleb128 0x1
 1089 00a8 12       		.uleb128 0x12
 1090 00a9 01       		.uleb128 0x1
 1091 00aa 40       		.uleb128 0x40
 1092 00ab 06       		.uleb128 0x6
 1093 00ac 00       		.byte	0x0
 1094 00ad 00       		.byte	0x0
 1095 00ae 0F       		.uleb128 0xf
 1096 00af 2E       		.uleb128 0x2e
 1097 00b0 00       		.byte	0x0
 1098 00b1 3F       		.uleb128 0x3f
 1099 00b2 0C       		.uleb128 0xc
 1100 00b3 03       		.uleb128 0x3
 1101 00b4 0E       		.uleb128 0xe
 1102 00b5 3A       		.uleb128 0x3a
 1103 00b6 0B       		.uleb128 0xb
 1104 00b7 3B       		.uleb128 0x3b
 1105 00b8 05       		.uleb128 0x5
 1106 00b9 27       		.uleb128 0x27
 1107 00ba 0C       		.uleb128 0xc
 1108 00bb 11       		.uleb128 0x11
 1109 00bc 01       		.uleb128 0x1
 1110 00bd 12       		.uleb128 0x12
 1111 00be 01       		.uleb128 0x1
 1112 00bf 40       		.uleb128 0x40
 1113 00c0 0A       		.uleb128 0xa
 1114 00c1 00       		.byte	0x0
 1115 00c2 00       		.byte	0x0
 1116 00c3 10       		.uleb128 0x10
 1117 00c4 34       		.uleb128 0x34
 1118 00c5 00       		.byte	0x0
 1119 00c6 03       		.uleb128 0x3
 1120 00c7 0E       		.uleb128 0xe
 1121 00c8 3A       		.uleb128 0x3a
 1122 00c9 0B       		.uleb128 0xb
 1123 00ca 3B       		.uleb128 0x3b
 1124 00cb 05       		.uleb128 0x5
 1125 00cc 49       		.uleb128 0x49
 1126 00cd 13       		.uleb128 0x13
 1127 00ce 3F       		.uleb128 0x3f
 1128 00cf 0C       		.uleb128 0xc
 1129 00d0 3C       		.uleb128 0x3c
 1130 00d1 0C       		.uleb128 0xc
 1131 00d2 00       		.byte	0x0
 1132 00d3 00       		.byte	0x0
 1133 00d4 11       		.uleb128 0x11
 1134 00d5 34       		.uleb128 0x34
ARM GAS  /tmp/ccQ8mYDS.s 			page 21


 1135 00d6 00       		.byte	0x0
 1136 00d7 03       		.uleb128 0x3
 1137 00d8 0E       		.uleb128 0xe
 1138 00d9 3A       		.uleb128 0x3a
 1139 00da 0B       		.uleb128 0xb
 1140 00db 3B       		.uleb128 0x3b
 1141 00dc 0B       		.uleb128 0xb
 1142 00dd 49       		.uleb128 0x49
 1143 00de 13       		.uleb128 0x13
 1144 00df 3F       		.uleb128 0x3f
 1145 00e0 0C       		.uleb128 0xc
 1146 00e1 3C       		.uleb128 0x3c
 1147 00e2 0C       		.uleb128 0xc
 1148 00e3 00       		.byte	0x0
 1149 00e4 00       		.byte	0x0
 1150 00e5 12       		.uleb128 0x12
 1151 00e6 34       		.uleb128 0x34
 1152 00e7 00       		.byte	0x0
 1153 00e8 03       		.uleb128 0x3
 1154 00e9 0E       		.uleb128 0xe
 1155 00ea 3A       		.uleb128 0x3a
 1156 00eb 0B       		.uleb128 0xb
 1157 00ec 3B       		.uleb128 0x3b
 1158 00ed 05       		.uleb128 0x5
 1159 00ee 49       		.uleb128 0x49
 1160 00ef 13       		.uleb128 0x13
 1161 00f0 3F       		.uleb128 0x3f
 1162 00f1 0C       		.uleb128 0xc
 1163 00f2 02       		.uleb128 0x2
 1164 00f3 0A       		.uleb128 0xa
 1165 00f4 00       		.byte	0x0
 1166 00f5 00       		.byte	0x0
 1167 00f6 00       		.byte	0x0
 1168              		.section	.debug_pubnames,"",%progbits
 1169 0000 4B000000 		.4byte	0x4b
 1170 0004 0200     		.2byte	0x2
 1171 0006 00000000 		.4byte	.Ldebug_info0
 1172 000a 7C040000 		.4byte	0x47c
 1173 000e 0F040000 		.4byte	0x40f
 1174 0012 53797374 		.ascii	"SystemCoreClockUpdate\000"
 1174      656D436F 
 1174      7265436C 
 1174      6F636B55 
 1174      70646174 
 1175 0028 25040000 		.4byte	0x425
 1176 002c 53797374 		.ascii	"SystemInit\000"
 1176      656D496E 
 1176      697400
 1177 0037 68040000 		.4byte	0x468
 1178 003b 53797374 		.ascii	"SystemCoreClock\000"
 1178      656D436F 
 1178      7265436C 
 1178      6F636B00 
 1179 004b 00000000 		.4byte	0x0
 1180              		.section	.debug_pubtypes,"",%progbits
 1181 0000 3C000000 		.4byte	0x3c
 1182 0004 0200     		.2byte	0x2
ARM GAS  /tmp/ccQ8mYDS.s 			page 22


 1183 0006 00000000 		.4byte	.Ldebug_info0
 1184 000a 7C040000 		.4byte	0x47c
 1185 000e 48000000 		.4byte	0x48
 1186 0012 75696E74 		.ascii	"uint32_t\000"
 1186      33325F74 
 1186      00
 1187 001b E6000000 		.4byte	0xe6
 1188 001f 45666300 		.ascii	"Efc\000"
 1189 0023 50030000 		.4byte	0x350
 1190 0027 506D6300 		.ascii	"Pmc\000"
 1191 002b C0030000 		.4byte	0x3c0
 1192 002f 53757063 		.ascii	"Supc\000"
 1192      00
 1193 0034 03040000 		.4byte	0x403
 1194 0038 57647400 		.ascii	"Wdt\000"
 1195 003c 00000000 		.4byte	0x0
 1196              		.section	.debug_aranges,"",%progbits
 1197 0000 24000000 		.4byte	0x24
 1198 0004 0200     		.2byte	0x2
 1199 0006 00000000 		.4byte	.Ldebug_info0
 1200 000a 04       		.byte	0x4
 1201 000b 00       		.byte	0x0
 1202 000c 0000     		.2byte	0x0
 1203 000e 0000     		.2byte	0x0
 1204 0010 00000000 		.4byte	.LFB29
 1205 0014 08010000 		.4byte	.LFE29-.LFB29
 1206 0018 00000000 		.4byte	.LFB30
 1207 001c 98000000 		.4byte	.LFE30-.LFB30
 1208 0020 00000000 		.4byte	0x0
 1209 0024 00000000 		.4byte	0x0
 1210              		.section	.debug_ranges,"",%progbits
 1211              	.Ldebug_ranges0:
 1212 0000 00000000 		.4byte	.LFB29
 1213 0004 08010000 		.4byte	.LFE29
 1214 0008 00000000 		.4byte	.LFB30
 1215 000c 98000000 		.4byte	.LFE30
 1216 0010 00000000 		.4byte	0x0
 1217 0014 00000000 		.4byte	0x0
 1218              		.section	.debug_str,"MS",%progbits,1
 1219              	.LASF9:
 1220 0000 45454643 		.ascii	"EEFC_FMR\000"
 1220      5F464D52 
 1220      00
 1221              	.LASF38:
 1222 0009 504D435F 		.ascii	"PMC_FOCR\000"
 1222      464F4352 
 1222      00
 1223              	.LASF37:
 1224 0012 504D435F 		.ascii	"PMC_FSPR\000"
 1224      46535052 
 1224      00
 1225              	.LASF33:
 1226 001b 504D435F 		.ascii	"PMC_IDR\000"
 1226      49445200 
 1227              	.LASF16:
 1228 0023 504D435F 		.ascii	"PMC_SCSR\000"
 1228      53435352 
ARM GAS  /tmp/ccQ8mYDS.s 			page 23


 1228      00
 1229              	.LASF49:
 1230 002c 53555043 		.ascii	"SUPC_SMMR\000"
 1230      5F534D4D 
 1230      5200
 1231              	.LASF55:
 1232 0036 5744545F 		.ascii	"WDT_CR\000"
 1232      435200
 1233              	.LASF47:
 1234 003d 504D435F 		.ascii	"PMC_OCR\000"
 1234      4F435200 
 1235              	.LASF2:
 1236 0045 73686F72 		.ascii	"short int\000"
 1236      7420696E 
 1236      7400
 1237              	.LASF52:
 1238 004f 53555043 		.ascii	"SUPC_WUIR\000"
 1238      5F575549 
 1238      5200
 1239              	.LASF6:
 1240 0059 6C6F6E67 		.ascii	"long long int\000"
 1240      206C6F6E 
 1240      6720696E 
 1240      7400
 1241              	.LASF51:
 1242 0067 53555043 		.ascii	"SUPC_WUMR\000"
 1242      5F57554D 
 1242      5200
 1243              	.LASF18:
 1244 0071 504D435F 		.ascii	"PMC_PCER0\000"
 1244      50434552 
 1244      3000
 1245              	.LASF43:
 1246 007b 504D435F 		.ascii	"PMC_PCER1\000"
 1246      50434552 
 1246      3100
 1247              	.LASF50:
 1248 0085 53555043 		.ascii	"SUPC_MR\000"
 1248      5F4D5200 
 1249              	.LASF36:
 1250 008d 504D435F 		.ascii	"PMC_FSMR\000"
 1250      46534D52 
 1250      00
 1251              	.LASF17:
 1252 0096 52657365 		.ascii	"Reserved1\000"
 1252      72766564 
 1252      3100
 1253              	.LASF21:
 1254 00a0 52657365 		.ascii	"Reserved2\000"
 1254      72766564 
 1254      3200
 1255              	.LASF27:
 1256 00aa 52657365 		.ascii	"Reserved3\000"
 1256      72766564 
 1256      3300
 1257              	.LASF29:
 1258 00b4 52657365 		.ascii	"Reserved4\000"
ARM GAS  /tmp/ccQ8mYDS.s 			page 24


 1258      72766564 
 1258      3400
 1259              	.LASF31:
 1260 00be 52657365 		.ascii	"Reserved5\000"
 1260      72766564 
 1260      3500
 1261              	.LASF39:
 1262 00c8 52657365 		.ascii	"Reserved6\000"
 1262      72766564 
 1262      3600
 1263              	.LASF42:
 1264 00d2 52657365 		.ascii	"Reserved7\000"
 1264      72766564 
 1264      3700
 1265              	.LASF46:
 1266 00dc 52657365 		.ascii	"Reserved8\000"
 1266      72766564 
 1266      3800
 1267              	.LASF22:
 1268 00e6 434B4752 		.ascii	"CKGR_MOR\000"
 1268      5F4D4F52 
 1268      00
 1269              	.LASF19:
 1270 00ef 504D435F 		.ascii	"PMC_PCDR0\000"
 1270      50434452 
 1270      3000
 1271              	.LASF44:
 1272 00f9 504D435F 		.ascii	"PMC_PCDR1\000"
 1272      50434452 
 1272      3100
 1273              	.LASF32:
 1274 0103 504D435F 		.ascii	"PMC_IER\000"
 1274      49455200 
 1275              	.LASF57:
 1276 010b 5744545F 		.ascii	"WDT_SR\000"
 1276      535200
 1277              	.LASF26:
 1278 0112 504D435F 		.ascii	"PMC_MCKR\000"
 1278      4D434B52 
 1278      00
 1279              	.LASF4:
 1280 011b 6C6F6E67 		.ascii	"long int\000"
 1280      20696E74 
 1280      00
 1281              	.LASF35:
 1282 0124 504D435F 		.ascii	"PMC_IMR\000"
 1282      494D5200 
 1283              	.LASF41:
 1284 012c 504D435F 		.ascii	"PMC_WPSR\000"
 1284      57505352 
 1284      00
 1285              	.LASF1:
 1286 0135 756E7369 		.ascii	"unsigned char\000"
 1286      676E6564 
 1286      20636861 
 1286      7200
 1287              	.LASF40:
ARM GAS  /tmp/ccQ8mYDS.s 			page 25


 1288 0143 504D435F 		.ascii	"PMC_WPMR\000"
 1288      57504D52 
 1288      00
 1289              	.LASF14:
 1290 014c 504D435F 		.ascii	"PMC_SCER\000"
 1290      53434552 
 1290      00
 1291              	.LASF0:
 1292 0155 7369676E 		.ascii	"signed char\000"
 1292      65642063 
 1292      68617200 
 1293              	.LASF7:
 1294 0161 6C6F6E67 		.ascii	"long long unsigned int\000"
 1294      206C6F6E 
 1294      6720756E 
 1294      7369676E 
 1294      65642069 
 1295              	.LASF13:
 1296 0178 75696E74 		.ascii	"uint32_t\000"
 1296      33325F74 
 1296      00
 1297              	.LASF8:
 1298 0181 756E7369 		.ascii	"unsigned int\000"
 1298      676E6564 
 1298      20696E74 
 1298      00
 1299              	.LASF20:
 1300 018e 504D435F 		.ascii	"PMC_PCSR0\000"
 1300      50435352 
 1300      3000
 1301              	.LASF45:
 1302 0198 504D435F 		.ascii	"PMC_PCSR1\000"
 1302      50435352 
 1302      3100
 1303              	.LASF10:
 1304 01a2 45454643 		.ascii	"EEFC_FCR\000"
 1304      5F464352 
 1304      00
 1305              	.LASF12:
 1306 01ab 45454643 		.ascii	"EEFC_FRR\000"
 1306      5F465252 
 1306      00
 1307              	.LASF28:
 1308 01b4 504D435F 		.ascii	"PMC_USB\000"
 1308      55534200 
 1309              	.LASF59:
 1310 01bc 53797374 		.ascii	"SystemInit\000"
 1310      656D496E 
 1310      697400
 1311              	.LASF48:
 1312 01c7 53555043 		.ascii	"SUPC_CR\000"
 1312      5F435200 
 1313              	.LASF34:
 1314 01cf 504D435F 		.ascii	"PMC_SR\000"
 1314      535200
 1315              	.LASF58:
 1316 01d6 53797374 		.ascii	"SystemCoreClockUpdate\000"
ARM GAS  /tmp/ccQ8mYDS.s 			page 26


 1316      656D436F 
 1316      7265436C 
 1316      6F636B55 
 1316      70646174 
 1317              	.LASF3:
 1318 01ec 73686F72 		.ascii	"short unsigned int\000"
 1318      7420756E 
 1318      7369676E 
 1318      65642069 
 1318      6E7400
 1319              	.LASF61:
 1320 01ff 53797374 		.ascii	"SystemCoreClock\000"
 1320      656D436F 
 1320      7265436C 
 1320      6F636B00 
 1321              	.LASF24:
 1322 020f 434B4752 		.ascii	"CKGR_PLLAR\000"
 1322      5F504C4C 
 1322      415200
 1323              	.LASF56:
 1324 021a 5744545F 		.ascii	"WDT_MR\000"
 1324      4D5200
 1325              	.LASF5:
 1326 0221 6C6F6E67 		.ascii	"long unsigned int\000"
 1326      20756E73 
 1326      69676E65 
 1326      6420696E 
 1326      7400
 1327              	.LASF23:
 1328 0233 434B4752 		.ascii	"CKGR_MCFR\000"
 1328      5F4D4346 
 1328      5200
 1329              	.LASF62:
 1330 023d 474E5520 		.ascii	"GNU C 4.5.2\000"
 1330      4320342E 
 1330      352E3200 
 1331              	.LASF11:
 1332 0249 45454643 		.ascii	"EEFC_FSR\000"
 1332      5F465352 
 1332      00
 1333              	.LASF53:
 1334 0252 53555043 		.ascii	"SUPC_SR\000"
 1334      5F535200 
 1335              	.LASF63:
 1336 025a 2F686F6D 		.ascii	"/home/jairom/Documentos/Proyectos/Embebidos/Robocop"
 1336      652F6A61 
 1336      69726F6D 
 1336      2F446F63 
 1336      756D656E 
 1337 028d 2F536F75 		.ascii	"/Source/code/matrix-creator-mcu/third_party/ChibiOS"
 1337      7263652F 
 1337      636F6465 
 1337      2F6D6174 
 1337      7269782D 
 1338 02c0 2F6F732F 		.ascii	"/os/hal/platforms/AT91SAM3S/system_SAM3.c\000"
 1338      68616C2F 
 1338      706C6174 
ARM GAS  /tmp/ccQ8mYDS.s 			page 27


 1338      666F726D 
 1338      732F4154 
 1339              	.LASF60:
 1340 02ea 49544D5F 		.ascii	"ITM_RxBuffer\000"
 1340      52784275 
 1340      66666572 
 1340      00
 1341              	.LASF30:
 1342 02f7 504D435F 		.ascii	"PMC_PCK\000"
 1342      50434B00 
 1343              	.LASF54:
 1344 02ff 53757063 		.ascii	"Supc\000"
 1344      00
 1345              	.LASF15:
 1346 0304 504D435F 		.ascii	"PMC_SCDR\000"
 1346      53434452 
 1346      00
 1347              	.LASF25:
 1348 030d 434B4752 		.ascii	"CKGR_PLLBR\000"
 1348      5F504C4C 
 1348      425200
 1349              		.ident	"GCC: (Sourcery G++ Lite 2011.03-42) 4.5.2"
ARM GAS  /tmp/ccQ8mYDS.s 			page 28


DEFINED SYMBOLS
                            *ABS*:00000000 system_SAM3.c
     /tmp/ccQ8mYDS.s:24     .text.SystemCoreClockUpdate:00000000 $t
     /tmp/ccQ8mYDS.s:30     .text.SystemCoreClockUpdate:00000000 SystemCoreClockUpdate
     /tmp/ccQ8mYDS.s:190    .text.SystemCoreClockUpdate:000000ec $d
     /tmp/ccQ8mYDS.s:201    .text.SystemInit:00000000 $t
     /tmp/ccQ8mYDS.s:207    .text.SystemInit:00000000 SystemInit
     /tmp/ccQ8mYDS.s:300    .text.SystemInit:0000007c $d
     /tmp/ccQ8mYDS.s:316    .data.SystemCoreClock:00000000 SystemCoreClock
     /tmp/ccQ8mYDS.s:312    .data.SystemCoreClock:00000000 $d
                     .debug_frame:00000010 $d
     /tmp/ccQ8mYDS.s:200    .text.SystemCoreClockUpdate:00000108 $t
     /tmp/ccQ8mYDS.s:311    .text.SystemInit:00000098 $t

NO UNDEFINED SYMBOLS
