ARM GAS  /tmp/ccXUUKGz.s 			page 1


   1              		.syntax unified
   2              		.cpu cortex-m3
   3              		.fpu softvfp
   4              		.eabi_attribute 20, 1
   5              		.eabi_attribute 21, 1
   6              		.eabi_attribute 23, 3
   7              		.eabi_attribute 24, 1
   8              		.eabi_attribute 25, 1
   9              		.eabi_attribute 26, 1
  10              		.eabi_attribute 30, 2
  11              		.eabi_attribute 18, 4
  12              		.thumb
  13              		.file	"testmsg.c"
  14              		.section	.debug_abbrev,"",%progbits
  15              	.Ldebug_abbrev0:
  16              		.section	.debug_info,"",%progbits
  17              	.Ldebug_info0:
  18              		.section	.debug_line,"",%progbits
  19              	.Ldebug_line0:
  20 0000 8E020000 		.text
  20      02004A02 
  20      00000201 
  20      FB0E0D00 
  20      01010101 
  21              	.Ltext0:
  22              		.cfi_sections	.debug_frame
  23              		.section	.text.msg1_execute,"ax",%progbits
  24              		.align	2
  25              		.p2align 4,,15
  26              		.thumb
  27              		.thumb_func
  28              		.type	msg1_execute, %function
  29              	msg1_execute:
  30              	.LFB8:
  31              		.file 1 "/home/jairom/Documentos/Proyectos/Embebidos/Robocop/Source/code/matrix-creator-mcu/third_
  32              		.loc 1 78 0
  33              		.cfi_startproc
  34              		@ args = 0, pretend = 0, frame = 0
  35              		@ frame_needed = 0, uses_anonymous_args = 0
  36              		.loc 1 85 0
  37 0000 1849     		ldr	r1, .L2
  38              		.loc 1 78 0
  39 0002 10B5     		push	{r4, lr}
  40              	.LCFI0:
  41              		.cfi_def_cfa_offset 8
  42              		.loc 1 85 0
  43 0004 CC69     		ldr	r4, [r1, #28]
  44              		.cfi_offset 14, -4
  45              		.cfi_offset 4, -8
  46 0006 1848     		ldr	r0, .L2+4
  47 0008 A268     		ldr	r2, [r4, #8]
  48              		.loc 1 78 0
  49 000a 82B0     		sub	sp, sp, #8
  50              	.LCFI1:
  51              		.cfi_def_cfa_offset 16
  52              		.loc 1 85 0
  53 000c 0132     		adds	r2, r2, #1
ARM GAS  /tmp/ccXUUKGz.s 			page 2


  54 000e 4FF49871 		mov	r1, #304
  55 0012 164B     		ldr	r3, .L2+8
  56 0014 0068     		ldr	r0, [r0, #0]
  57 0016 0094     		str	r4, [sp, #0]
  58 0018 FFF7FEFF 		bl	chThdCreateStatic
  59 001c 144B     		ldr	r3, .L2+12
  60 001e 1860     		str	r0, [r3, #0]
  61              		.loc 1 87 0
  62 0020 FFF7FEFF 		bl	chMsgWait
  63              	.LVL0:
  64              		.loc 1 88 0
  65 0024 446B     		ldr	r4, [r0, #52]
  66              	.LVL1:
  67              		.loc 1 89 0
  68 0026 2146     		mov	r1, r4
  69 0028 FFF7FEFF 		bl	chMsgRelease
  70              	.LVL2:
  71              		.loc 1 90 0
  72 002c E0B2     		uxtb	r0, r4
  73 002e FFF7FEFF 		bl	test_emit_token
  74              		.loc 1 91 0
  75 0032 FFF7FEFF 		bl	chMsgWait
  76              	.LVL3:
  77              		.loc 1 92 0
  78 0036 446B     		ldr	r4, [r0, #52]
  79              	.LVL4:
  80              		.loc 1 93 0
  81 0038 2146     		mov	r1, r4
  82 003a FFF7FEFF 		bl	chMsgRelease
  83              	.LVL5:
  84              		.loc 1 94 0
  85 003e E0B2     		uxtb	r0, r4
  86 0040 FFF7FEFF 		bl	test_emit_token
  87              		.loc 1 95 0
  88 0044 FFF7FEFF 		bl	chMsgWait
  89              	.LVL6:
  90              		.loc 1 96 0
  91 0048 446B     		ldr	r4, [r0, #52]
  92              	.LVL7:
  93              		.loc 1 97 0
  94 004a 2146     		mov	r1, r4
  95 004c FFF7FEFF 		bl	chMsgRelease
  96              	.LVL8:
  97              		.loc 1 98 0
  98 0050 E0B2     		uxtb	r0, r4
  99 0052 FFF7FEFF 		bl	test_emit_token
 100              		.loc 1 99 0
 101 0056 0749     		ldr	r1, .L2+16
 102 0058 0120     		movs	r0, #1
 103              		.loc 1 100 0
 104 005a 02B0     		add	sp, sp, #8
 105 005c BDE81040 		pop	{r4, lr}
 106              		.loc 1 99 0
 107 0060 FFF7FEBF 		b	_test_assert_sequence
 108              	.L3:
 109              		.align	2
 110              	.L2:
ARM GAS  /tmp/ccXUUKGz.s 			page 3


 111 0064 00000000 		.word	rlist
 112 0068 00000000 		.word	wa
 113 006c 00000000 		.word	thread
 114 0070 00000000 		.word	threads
 115 0074 00000000 		.word	.LC0
 116              		.cfi_endproc
 117              	.LFE8:
 118              		.size	msg1_execute, .-msg1_execute
 119 0078 AFF30080 		.section	.text.thread,"ax",%progbits
 119      AFF30080 
 120              		.align	2
 121              		.p2align 4,,15
 122              		.thumb
 123              		.thumb_func
 124              		.type	thread, %function
 125              	thread:
 126              	.LFB7:
 127              		.loc 1 70 0
 128              		.cfi_startproc
 129              		@ args = 0, pretend = 0, frame = 0
 130              		@ frame_needed = 0, uses_anonymous_args = 0
 131              	.LVL9:
 132 0000 10B5     		push	{r4, lr}
 133              	.LCFI2:
 134              		.cfi_def_cfa_offset 8
 135              		.loc 1 72 0
 136 0002 4121     		movs	r1, #65
 137              		.loc 1 70 0
 138 0004 0446     		mov	r4, r0
 139              		.cfi_offset 14, -4
 140              		.cfi_offset 4, -8
 141              		.loc 1 72 0
 142 0006 FFF7FEFF 		bl	chMsgSend
 143              	.LVL10:
 144              		.loc 1 73 0
 145 000a 4221     		movs	r1, #66
 146 000c 2046     		mov	r0, r4
 147 000e FFF7FEFF 		bl	chMsgSend
 148              		.loc 1 74 0
 149 0012 2046     		mov	r0, r4
 150 0014 4321     		movs	r1, #67
 151 0016 FFF7FEFF 		bl	chMsgSend
 152              		.loc 1 76 0
 153 001a 0020     		movs	r0, #0
 154 001c 10BD     		pop	{r4, pc}
 155              		.cfi_endproc
 156              	.LFE7:
 157              		.size	thread, .-thread
 158              		.global	testmsg1
 159              		.global	patternmsg
 160 001e 00BF     		.section	.rodata.testmsg1,"a",%progbits
 161              		.align	2
 162              		.type	testmsg1, %object
 163              		.size	testmsg1, 16
 164              	testmsg1:
 165 0000 04000000 		.word	.LC1
 166 0004 00000000 		.word	0
ARM GAS  /tmp/ccXUUKGz.s 			page 4


 167 0008 00000000 		.word	0
 168 000c 00000000 		.word	msg1_execute
 169              		.section	.rodata.str1.4,"aMS",%progbits,1
 170              		.align	2
 171              	.LC0:
 172 0000 41424300 		.ascii	"ABC\000"
 173              	.LC1:
 174 0004 4D657373 		.ascii	"Messages, loop\000"
 174      61676573 
 174      2C206C6F 
 174      6F7000
 175 0013 00       		.section	.rodata.patternmsg,"a",%progbits
 176              		.align	2
 177              		.type	patternmsg, %object
 178              		.size	patternmsg, 8
 179              	patternmsg:
 180 0000 00000000 		.word	testmsg1
 181 0004 00000000 		.word	0
 182              		.text
 183              	.Letext0:
 184              		.section	.debug_loc,"",%progbits
 185              	.Ldebug_loc0:
 186              	.LLST0:
 187 0000 00000000 		.4byte	.LFB8
 188 0004 04000000 		.4byte	.LCFI0
 189 0008 0200     		.2byte	0x2
 190 000a 7D       		.byte	0x7d
 191 000b 00       		.sleb128 0
 192 000c 04000000 		.4byte	.LCFI0
 193 0010 0C000000 		.4byte	.LCFI1
 194 0014 0200     		.2byte	0x2
 195 0016 7D       		.byte	0x7d
 196 0017 08       		.sleb128 8
 197 0018 0C000000 		.4byte	.LCFI1
 198 001c 78000000 		.4byte	.LFE8
 199 0020 0200     		.2byte	0x2
 200 0022 7D       		.byte	0x7d
 201 0023 10       		.sleb128 16
 202 0024 00000000 		.4byte	0x0
 203 0028 00000000 		.4byte	0x0
 204              	.LLST1:
 205 002c 24000000 		.4byte	.LVL0
 206 0030 2B000000 		.4byte	.LVL2-1
 207 0034 0100     		.2byte	0x1
 208 0036 50       		.byte	0x50
 209 0037 36000000 		.4byte	.LVL3
 210 003b 3D000000 		.4byte	.LVL5-1
 211 003f 0100     		.2byte	0x1
 212 0041 50       		.byte	0x50
 213 0042 48000000 		.4byte	.LVL6
 214 0046 4F000000 		.4byte	.LVL8-1
 215 004a 0100     		.2byte	0x1
 216 004c 50       		.byte	0x50
 217 004d 00000000 		.4byte	0x0
 218 0051 00000000 		.4byte	0x0
 219              	.LLST2:
 220 0055 26000000 		.4byte	.LVL1
ARM GAS  /tmp/ccXUUKGz.s 			page 5


 221 0059 2B000000 		.4byte	.LVL2-1
 222 005d 0200     		.2byte	0x2
 223 005f 70       		.byte	0x70
 224 0060 34       		.sleb128 52
 225 0061 2B000000 		.4byte	.LVL2-1
 226 0065 38000000 		.4byte	.LVL4
 227 0069 0100     		.2byte	0x1
 228 006b 54       		.byte	0x54
 229 006c 38000000 		.4byte	.LVL4
 230 0070 3D000000 		.4byte	.LVL5-1
 231 0074 0200     		.2byte	0x2
 232 0076 70       		.byte	0x70
 233 0077 34       		.sleb128 52
 234 0078 3D000000 		.4byte	.LVL5-1
 235 007c 4A000000 		.4byte	.LVL7
 236 0080 0100     		.2byte	0x1
 237 0082 54       		.byte	0x54
 238 0083 4A000000 		.4byte	.LVL7
 239 0087 4F000000 		.4byte	.LVL8-1
 240 008b 0200     		.2byte	0x2
 241 008d 70       		.byte	0x70
 242 008e 34       		.sleb128 52
 243 008f 4F000000 		.4byte	.LVL8-1
 244 0093 78000000 		.4byte	.LFE8
 245 0097 0100     		.2byte	0x1
 246 0099 54       		.byte	0x54
 247 009a 00000000 		.4byte	0x0
 248 009e 00000000 		.4byte	0x0
 249              	.LLST3:
 250 00a2 00000000 		.4byte	.LFB7
 251 00a6 02000000 		.4byte	.LCFI2
 252 00aa 0200     		.2byte	0x2
 253 00ac 7D       		.byte	0x7d
 254 00ad 00       		.sleb128 0
 255 00ae 02000000 		.4byte	.LCFI2
 256 00b2 1E000000 		.4byte	.LFE7
 257 00b6 0200     		.2byte	0x2
 258 00b8 7D       		.byte	0x7d
 259 00b9 08       		.sleb128 8
 260 00ba 00000000 		.4byte	0x0
 261 00be 00000000 		.4byte	0x0
 262              	.LLST4:
 263 00c2 00000000 		.4byte	.LVL9
 264 00c6 09000000 		.4byte	.LVL10-1
 265 00ca 0100     		.2byte	0x1
 266 00cc 50       		.byte	0x50
 267 00cd 09000000 		.4byte	.LVL10-1
 268 00d1 1E000000 		.4byte	.LFE7
 269 00d5 0100     		.2byte	0x1
 270 00d7 54       		.byte	0x54
 271 00d8 00000000 		.4byte	0x0
 272 00dc 00000000 		.4byte	0x0
 273              		.file 2 "/usr/local/CodeBench_1802_EABI/bin/../lib/gcc/arm-none-eabi/4.5.2/../../../../arm-none-ea
 274              		.file 3 "/home/jairom/Documentos/Proyectos/Embebidos/Robocop/Source/code/matrix-creator-mcu/third_
 275              		.file 4 "/home/jairom/Documentos/Proyectos/Embebidos/Robocop/Source/code/matrix-creator-mcu/third_
 276              		.file 5 "/home/jairom/Documentos/Proyectos/Embebidos/Robocop/Source/code/matrix-creator-mcu/third_
 277              		.file 6 "/home/jairom/Documentos/Proyectos/Embebidos/Robocop/Source/code/matrix-creator-mcu/third_
ARM GAS  /tmp/ccXUUKGz.s 			page 6


 278              		.file 7 "/home/jairom/Documentos/Proyectos/Embebidos/Robocop/Source/code/matrix-creator-mcu/third_
 279              		.file 8 "/home/jairom/Documentos/Proyectos/Embebidos/Robocop/Source/code/matrix-creator-mcu/third_
 280              		.file 9 "/home/jairom/Documentos/Proyectos/Embebidos/Robocop/Source/code/matrix-creator-mcu/third_
 281              		.section	.debug_info
 282 0000 97050000 		.4byte	0x597
 283 0004 0200     		.2byte	0x2
 284 0006 00000000 		.4byte	.Ldebug_abbrev0
 285 000a 04       		.byte	0x4
 286 000b 01       		.uleb128 0x1
 287 000c D6020000 		.4byte	.LASF70
 288 0010 01       		.byte	0x1
 289 0011 D7000000 		.4byte	.LASF71
 290 0015 00000000 		.4byte	0x0
 291 0019 00000000 		.4byte	0x0
 292 001d 00000000 		.4byte	.Ldebug_ranges0+0x0
 293 0021 00000000 		.4byte	.Ldebug_line0
 294 0025 02       		.uleb128 0x2
 295 0026 04       		.byte	0x4
 296 0027 05       		.byte	0x5
 297 0028 696E7400 		.ascii	"int\000"
 298 002c 03       		.uleb128 0x3
 299 002d 04       		.byte	0x4
 300 002e 07       		.byte	0x7
 301 002f 8F000000 		.4byte	.LASF0
 302 0033 03       		.uleb128 0x3
 303 0034 01       		.byte	0x1
 304 0035 06       		.byte	0x6
 305 0036 42000000 		.4byte	.LASF1
 306 003a 04       		.uleb128 0x4
 307 003b BA020000 		.4byte	.LASF5
 308 003f 02       		.byte	0x2
 309 0040 2A       		.byte	0x2a
 310 0041 45000000 		.4byte	0x45
 311 0045 03       		.uleb128 0x3
 312 0046 01       		.byte	0x1
 313 0047 08       		.byte	0x8
 314 0048 E5010000 		.4byte	.LASF2
 315 004c 03       		.uleb128 0x3
 316 004d 02       		.byte	0x2
 317 004e 05       		.byte	0x5
 318 004f FD010000 		.4byte	.LASF3
 319 0053 03       		.uleb128 0x3
 320 0054 02       		.byte	0x2
 321 0055 07       		.byte	0x7
 322 0056 C4000000 		.4byte	.LASF4
 323 005a 04       		.uleb128 0x4
 324 005b DD010000 		.4byte	.LASF6
 325 005f 02       		.byte	0x2
 326 0060 4F       		.byte	0x4f
 327 0061 65000000 		.4byte	0x65
 328 0065 03       		.uleb128 0x3
 329 0066 04       		.byte	0x4
 330 0067 05       		.byte	0x5
 331 0068 5E000000 		.4byte	.LASF7
 332 006c 04       		.uleb128 0x4
 333 006d 58020000 		.4byte	.LASF8
 334 0071 02       		.byte	0x2
ARM GAS  /tmp/ccXUUKGz.s 			page 7


 335 0072 50       		.byte	0x50
 336 0073 77000000 		.4byte	0x77
 337 0077 03       		.uleb128 0x3
 338 0078 04       		.byte	0x4
 339 0079 07       		.byte	0x7
 340 007a 9C000000 		.4byte	.LASF9
 341 007e 03       		.uleb128 0x3
 342 007f 08       		.byte	0x8
 343 0080 05       		.byte	0x5
 344 0081 34000000 		.4byte	.LASF10
 345 0085 03       		.uleb128 0x3
 346 0086 08       		.byte	0x8
 347 0087 07       		.byte	0x7
 348 0088 0D000000 		.4byte	.LASF11
 349 008c 04       		.uleb128 0x4
 350 008d 53010000 		.4byte	.LASF12
 351 0091 03       		.byte	0x3
 352 0092 2F       		.byte	0x2f
 353 0093 3A000000 		.4byte	0x3a
 354 0097 04       		.uleb128 0x4
 355 0098 67000000 		.4byte	.LASF13
 356 009c 03       		.byte	0x3
 357 009d 30       		.byte	0x30
 358 009e 3A000000 		.4byte	0x3a
 359 00a2 04       		.uleb128 0x4
 360 00a3 B7010000 		.4byte	.LASF14
 361 00a7 03       		.byte	0x3
 362 00a8 31       		.byte	0x31
 363 00a9 3A000000 		.4byte	0x3a
 364 00ad 04       		.uleb128 0x4
 365 00ae CE010000 		.4byte	.LASF15
 366 00b2 03       		.byte	0x3
 367 00b3 32       		.byte	0x32
 368 00b4 6C000000 		.4byte	0x6c
 369 00b8 04       		.uleb128 0x4
 370 00b9 4D010000 		.4byte	.LASF16
 371 00bd 03       		.byte	0x3
 372 00be 33       		.byte	0x33
 373 00bf 5A000000 		.4byte	0x5a
 374 00c3 04       		.uleb128 0x4
 375 00c4 67010000 		.4byte	.LASF17
 376 00c8 03       		.byte	0x3
 377 00c9 35       		.byte	0x35
 378 00ca 6C000000 		.4byte	0x6c
 379 00ce 04       		.uleb128 0x4
 380 00cf 75020000 		.4byte	.LASF18
 381 00d3 03       		.byte	0x3
 382 00d4 36       		.byte	0x36
 383 00d5 6C000000 		.4byte	0x6c
 384 00d9 04       		.uleb128 0x4
 385 00da 89000000 		.4byte	.LASF19
 386 00de 03       		.byte	0x3
 387 00df 37       		.byte	0x37
 388 00e0 5A000000 		.4byte	0x5a
 389 00e4 04       		.uleb128 0x4
 390 00e5 3D020000 		.4byte	.LASF20
 391 00e9 04       		.byte	0x4
ARM GAS  /tmp/ccXUUKGz.s 			page 8


 392 00ea 2A       		.byte	0x2a
 393 00eb EF000000 		.4byte	0xef
 394 00ef 05       		.uleb128 0x5
 395 00f0 3D020000 		.4byte	.LASF20
 396 00f4 48       		.byte	0x48
 397 00f5 05       		.byte	0x5
 398 00f6 5E       		.byte	0x5e
 399 00f7 06020000 		.4byte	0x206
 400 00fb 06       		.uleb128 0x6
 401 00fc 2E020000 		.4byte	.LASF21
 402 0100 05       		.byte	0x5
 403 0101 5F       		.byte	0x5f
 404 0102 2B020000 		.4byte	0x22b
 405 0106 02       		.byte	0x2
 406 0107 23       		.byte	0x23
 407 0108 00       		.uleb128 0x0
 408 0109 06       		.uleb128 0x6
 409 010a BF010000 		.4byte	.LASF22
 410 010e 05       		.byte	0x5
 411 010f 61       		.byte	0x61
 412 0110 2B020000 		.4byte	0x22b
 413 0114 02       		.byte	0x2
 414 0115 23       		.byte	0x23
 415 0116 04       		.uleb128 0x4
 416 0117 06       		.uleb128 0x6
 417 0118 2D000000 		.4byte	.LASF23
 418 011c 05       		.byte	0x5
 419 011d 63       		.byte	0x63
 420 011e AD000000 		.4byte	0xad
 421 0122 02       		.byte	0x2
 422 0123 23       		.byte	0x23
 423 0124 08       		.uleb128 0x8
 424 0125 06       		.uleb128 0x6
 425 0126 FB020000 		.4byte	.LASF24
 426 012a 05       		.byte	0x5
 427 012b 64       		.byte	0x64
 428 012c F8020000 		.4byte	0x2f8
 429 0130 02       		.byte	0x2
 430 0131 23       		.byte	0x23
 431 0132 0C       		.uleb128 0xc
 432 0133 06       		.uleb128 0x6
 433 0134 70000000 		.4byte	.LASF25
 434 0138 05       		.byte	0x5
 435 0139 66       		.byte	0x66
 436 013a 2B020000 		.4byte	0x22b
 437 013e 02       		.byte	0x2
 438 013f 23       		.byte	0x23
 439 0140 10       		.uleb128 0x10
 440 0141 06       		.uleb128 0x6
 441 0142 84010000 		.4byte	.LASF26
 442 0146 05       		.byte	0x5
 443 0147 67       		.byte	0x67
 444 0148 2B020000 		.4byte	0x22b
 445 014c 02       		.byte	0x2
 446 014d 23       		.byte	0x23
 447 014e 14       		.uleb128 0x14
 448 014f 06       		.uleb128 0x6
ARM GAS  /tmp/ccXUUKGz.s 			page 9


 449 0150 E2020000 		.4byte	.LASF27
 450 0154 05       		.byte	0x5
 451 0155 6E       		.byte	0x6e
 452 0156 13040000 		.4byte	0x413
 453 015a 02       		.byte	0x2
 454 015b 23       		.byte	0x23
 455 015c 18       		.uleb128 0x18
 456 015d 06       		.uleb128 0x6
 457 015e 07020000 		.4byte	.LASF28
 458 0162 05       		.byte	0x5
 459 0163 79       		.byte	0x79
 460 0164 97000000 		.4byte	0x97
 461 0168 02       		.byte	0x2
 462 0169 23       		.byte	0x23
 463 016a 1C       		.uleb128 0x1c
 464 016b 06       		.uleb128 0x6
 465 016c 35020000 		.4byte	.LASF29
 466 0170 05       		.byte	0x5
 467 0171 7D       		.byte	0x7d
 468 0172 8C000000 		.4byte	0x8c
 469 0176 02       		.byte	0x2
 470 0177 23       		.byte	0x23
 471 0178 1D       		.uleb128 0x1d
 472 0179 06       		.uleb128 0x6
 473 017a A3020000 		.4byte	.LASF30
 474 017e 05       		.byte	0x5
 475 017f 82       		.byte	0x82
 476 0180 A2000000 		.4byte	0xa2
 477 0184 02       		.byte	0x2
 478 0185 23       		.byte	0x23
 479 0186 1E       		.uleb128 0x1e
 480 0187 06       		.uleb128 0x6
 481 0188 8A020000 		.4byte	.LASF31
 482 018c 05       		.byte	0x5
 483 018d 89       		.byte	0x89
 484 018e 1B030000 		.4byte	0x31b
 485 0192 02       		.byte	0x2
 486 0193 23       		.byte	0x23
 487 0194 20       		.uleb128 0x20
 488 0195 07       		.uleb128 0x7
 489 0196 705F7500 		.ascii	"p_u\000"
 490 019a 05       		.byte	0x5
 491 019b AE       		.byte	0xae
 492 019c DE030000 		.4byte	0x3de
 493 01a0 02       		.byte	0x2
 494 01a1 23       		.byte	0x23
 495 01a2 24       		.uleb128 0x24
 496 01a3 06       		.uleb128 0x6
 497 01a4 01030000 		.4byte	.LASF32
 498 01a8 05       		.byte	0x5
 499 01a9 B3       		.byte	0xb3
 500 01aa 53020000 		.4byte	0x253
 501 01ae 02       		.byte	0x2
 502 01af 23       		.byte	0x23
 503 01b0 28       		.uleb128 0x28
 504 01b1 06       		.uleb128 0x6
 505 01b2 98020000 		.4byte	.LASF33
ARM GAS  /tmp/ccXUUKGz.s 			page 10


 506 01b6 05       		.byte	0x5
 507 01b7 B9       		.byte	0xb9
 508 01b8 31020000 		.4byte	0x231
 509 01bc 02       		.byte	0x2
 510 01bd 23       		.byte	0x23
 511 01be 2C       		.uleb128 0x2c
 512 01bf 06       		.uleb128 0x6
 513 01c0 00000000 		.4byte	.LASF34
 514 01c4 05       		.byte	0x5
 515 01c5 BD       		.byte	0xbd
 516 01c6 B8000000 		.4byte	0xb8
 517 01ca 02       		.byte	0x2
 518 01cb 23       		.byte	0x23
 519 01cc 34       		.uleb128 0x34
 520 01cd 06       		.uleb128 0x6
 521 01ce 4D020000 		.4byte	.LASF35
 522 01d2 05       		.byte	0x5
 523 01d3 C3       		.byte	0xc3
 524 01d4 C3000000 		.4byte	0xc3
 525 01d8 02       		.byte	0x2
 526 01d9 23       		.byte	0x23
 527 01da 38       		.uleb128 0x38
 528 01db 06       		.uleb128 0x6
 529 01dc F3010000 		.4byte	.LASF36
 530 01e0 05       		.byte	0x5
 531 01e1 CA       		.byte	0xca
 532 01e2 25040000 		.4byte	0x425
 533 01e6 02       		.byte	0x2
 534 01e7 23       		.byte	0x23
 535 01e8 3C       		.uleb128 0x3c
 536 01e9 06       		.uleb128 0x6
 537 01ea 7F020000 		.4byte	.LASF37
 538 01ee 05       		.byte	0x5
 539 01ef CE       		.byte	0xce
 540 01f0 AD000000 		.4byte	0xad
 541 01f4 02       		.byte	0x2
 542 01f5 23       		.byte	0x23
 543 01f6 40       		.uleb128 0x40
 544 01f7 06       		.uleb128 0x6
 545 01f8 4E000000 		.4byte	.LASF38
 546 01fc 05       		.byte	0x5
 547 01fd D4       		.byte	0xd4
 548 01fe 69020000 		.4byte	0x269
 549 0202 02       		.byte	0x2
 550 0203 23       		.byte	0x23
 551 0204 44       		.uleb128 0x44
 552 0205 00       		.byte	0x0
 553 0206 08       		.uleb128 0x8
 554 0207 08       		.byte	0x8
 555 0208 04       		.byte	0x4
 556 0209 61       		.byte	0x61
 557 020a 2B020000 		.4byte	0x22b
 558 020e 06       		.uleb128 0x6
 559 020f 2E020000 		.4byte	.LASF21
 560 0213 04       		.byte	0x4
 561 0214 62       		.byte	0x62
 562 0215 2B020000 		.4byte	0x22b
ARM GAS  /tmp/ccXUUKGz.s 			page 11


 563 0219 02       		.byte	0x2
 564 021a 23       		.byte	0x23
 565 021b 00       		.uleb128 0x0
 566 021c 06       		.uleb128 0x6
 567 021d BF010000 		.4byte	.LASF22
 568 0221 04       		.byte	0x4
 569 0222 64       		.byte	0x64
 570 0223 2B020000 		.4byte	0x22b
 571 0227 02       		.byte	0x2
 572 0228 23       		.byte	0x23
 573 0229 04       		.uleb128 0x4
 574 022a 00       		.byte	0x0
 575 022b 09       		.uleb128 0x9
 576 022c 04       		.byte	0x4
 577 022d E4000000 		.4byte	0xe4
 578 0231 04       		.uleb128 0x4
 579 0232 92010000 		.4byte	.LASF39
 580 0236 04       		.byte	0x4
 581 0237 66       		.byte	0x66
 582 0238 06020000 		.4byte	0x206
 583 023c 08       		.uleb128 0x8
 584 023d 04       		.byte	0x4
 585 023e 04       		.byte	0x4
 586 023f 6B       		.byte	0x6b
 587 0240 53020000 		.4byte	0x253
 588 0244 06       		.uleb128 0x6
 589 0245 2E020000 		.4byte	.LASF21
 590 0249 04       		.byte	0x4
 591 024a 6D       		.byte	0x6d
 592 024b 2B020000 		.4byte	0x22b
 593 024f 02       		.byte	0x2
 594 0250 23       		.byte	0x23
 595 0251 00       		.uleb128 0x0
 596 0252 00       		.byte	0x0
 597 0253 04       		.uleb128 0x4
 598 0254 5B010000 		.4byte	.LASF40
 599 0258 04       		.byte	0x4
 600 0259 70       		.byte	0x70
 601 025a 3C020000 		.4byte	0x23c
 602 025e 04       		.uleb128 0x4
 603 025f 80000000 		.4byte	.LASF41
 604 0263 06       		.byte	0x6
 605 0264 D7       		.byte	0xd7
 606 0265 69020000 		.4byte	0x269
 607 0269 0A       		.uleb128 0xa
 608 026a 04       		.byte	0x4
 609 026b 05       		.uleb128 0x5
 610 026c 91020000 		.4byte	.LASF42
 611 0270 24       		.byte	0x24
 612 0271 06       		.byte	0x6
 613 0272 FE       		.byte	0xfe
 614 0273 F8020000 		.4byte	0x2f8
 615 0277 0B       		.uleb128 0xb
 616 0278 723400   		.ascii	"r4\000"
 617 027b 06       		.byte	0x6
 618 027c 1101     		.2byte	0x111
 619 027e 5E020000 		.4byte	0x25e
ARM GAS  /tmp/ccXUUKGz.s 			page 12


 620 0282 02       		.byte	0x2
 621 0283 23       		.byte	0x23
 622 0284 00       		.uleb128 0x0
 623 0285 0B       		.uleb128 0xb
 624 0286 723500   		.ascii	"r5\000"
 625 0289 06       		.byte	0x6
 626 028a 1201     		.2byte	0x112
 627 028c 5E020000 		.4byte	0x25e
 628 0290 02       		.byte	0x2
 629 0291 23       		.byte	0x23
 630 0292 04       		.uleb128 0x4
 631 0293 0B       		.uleb128 0xb
 632 0294 723600   		.ascii	"r6\000"
 633 0297 06       		.byte	0x6
 634 0298 1301     		.2byte	0x113
 635 029a 5E020000 		.4byte	0x25e
 636 029e 02       		.byte	0x2
 637 029f 23       		.byte	0x23
 638 02a0 08       		.uleb128 0x8
 639 02a1 0B       		.uleb128 0xb
 640 02a2 723700   		.ascii	"r7\000"
 641 02a5 06       		.byte	0x6
 642 02a6 1401     		.2byte	0x114
 643 02a8 5E020000 		.4byte	0x25e
 644 02ac 02       		.byte	0x2
 645 02ad 23       		.byte	0x23
 646 02ae 0C       		.uleb128 0xc
 647 02af 0B       		.uleb128 0xb
 648 02b0 723800   		.ascii	"r8\000"
 649 02b3 06       		.byte	0x6
 650 02b4 1501     		.2byte	0x115
 651 02b6 5E020000 		.4byte	0x25e
 652 02ba 02       		.byte	0x2
 653 02bb 23       		.byte	0x23
 654 02bc 10       		.uleb128 0x10
 655 02bd 0B       		.uleb128 0xb
 656 02be 723900   		.ascii	"r9\000"
 657 02c1 06       		.byte	0x6
 658 02c2 1601     		.2byte	0x116
 659 02c4 5E020000 		.4byte	0x25e
 660 02c8 02       		.byte	0x2
 661 02c9 23       		.byte	0x23
 662 02ca 14       		.uleb128 0x14
 663 02cb 0B       		.uleb128 0xb
 664 02cc 72313000 		.ascii	"r10\000"
 665 02d0 06       		.byte	0x6
 666 02d1 1701     		.2byte	0x117
 667 02d3 5E020000 		.4byte	0x25e
 668 02d7 02       		.byte	0x2
 669 02d8 23       		.byte	0x23
 670 02d9 18       		.uleb128 0x18
 671 02da 0B       		.uleb128 0xb
 672 02db 72313100 		.ascii	"r11\000"
 673 02df 06       		.byte	0x6
 674 02e0 1801     		.2byte	0x118
 675 02e2 5E020000 		.4byte	0x25e
 676 02e6 02       		.byte	0x2
ARM GAS  /tmp/ccXUUKGz.s 			page 13


 677 02e7 23       		.byte	0x23
 678 02e8 1C       		.uleb128 0x1c
 679 02e9 0B       		.uleb128 0xb
 680 02ea 6C7200   		.ascii	"lr\000"
 681 02ed 06       		.byte	0x6
 682 02ee 1901     		.2byte	0x119
 683 02f0 5E020000 		.4byte	0x25e
 684 02f4 02       		.byte	0x2
 685 02f5 23       		.byte	0x23
 686 02f6 20       		.uleb128 0x20
 687 02f7 00       		.byte	0x0
 688 02f8 0C       		.uleb128 0xc
 689 02f9 BC000000 		.4byte	.LASF43
 690 02fd 04       		.byte	0x4
 691 02fe 06       		.byte	0x6
 692 02ff 2301     		.2byte	0x123
 693 0301 15030000 		.4byte	0x315
 694 0305 0B       		.uleb128 0xb
 695 0306 72313300 		.ascii	"r13\000"
 696 030a 06       		.byte	0x6
 697 030b 2401     		.2byte	0x124
 698 030d 15030000 		.4byte	0x315
 699 0311 02       		.byte	0x2
 700 0312 23       		.byte	0x23
 701 0313 00       		.uleb128 0x0
 702 0314 00       		.byte	0x0
 703 0315 09       		.uleb128 0x9
 704 0316 04       		.byte	0x4
 705 0317 6B020000 		.4byte	0x26b
 706 031b 0D       		.uleb128 0xd
 707 031c CE000000 		.4byte	0xce
 708 0320 08       		.uleb128 0x8
 709 0321 20       		.byte	0x20
 710 0322 07       		.byte	0x7
 711 0323 5E       		.byte	0x5e
 712 0324 8B030000 		.4byte	0x38b
 713 0328 06       		.uleb128 0x6
 714 0329 61020000 		.4byte	.LASF44
 715 032d 07       		.byte	0x7
 716 032e 5F       		.byte	0x5f
 717 032f 31020000 		.4byte	0x231
 718 0333 02       		.byte	0x2
 719 0334 23       		.byte	0x23
 720 0335 00       		.uleb128 0x0
 721 0336 06       		.uleb128 0x6
 722 0337 17020000 		.4byte	.LASF45
 723 033b 07       		.byte	0x7
 724 033c 60       		.byte	0x60
 725 033d AD000000 		.4byte	0xad
 726 0341 02       		.byte	0x2
 727 0342 23       		.byte	0x23
 728 0343 08       		.uleb128 0x8
 729 0344 06       		.uleb128 0x6
 730 0345 8C010000 		.4byte	.LASF46
 731 0349 07       		.byte	0x7
 732 034a 62       		.byte	0x62
 733 034b F8020000 		.4byte	0x2f8
ARM GAS  /tmp/ccXUUKGz.s 			page 14


 734 034f 02       		.byte	0x2
 735 0350 23       		.byte	0x23
 736 0351 0C       		.uleb128 0xc
 737 0352 06       		.uleb128 0x6
 738 0353 78000000 		.4byte	.LASF47
 739 0357 07       		.byte	0x7
 740 0358 65       		.byte	0x65
 741 0359 2B020000 		.4byte	0x22b
 742 035d 02       		.byte	0x2
 743 035e 23       		.byte	0x23
 744 035f 10       		.uleb128 0x10
 745 0360 06       		.uleb128 0x6
 746 0361 AF010000 		.4byte	.LASF48
 747 0365 07       		.byte	0x7
 748 0366 66       		.byte	0x66
 749 0367 2B020000 		.4byte	0x22b
 750 036b 02       		.byte	0x2
 751 036c 23       		.byte	0x23
 752 036d 14       		.uleb128 0x14
 753 036e 06       		.uleb128 0x6
 754 036f E9020000 		.4byte	.LASF49
 755 0373 07       		.byte	0x7
 756 0374 6A       		.byte	0x6a
 757 0375 D9000000 		.4byte	0xd9
 758 0379 02       		.byte	0x2
 759 037a 23       		.byte	0x23
 760 037b 18       		.uleb128 0x18
 761 037c 06       		.uleb128 0x6
 762 037d A5010000 		.4byte	.LASF50
 763 0381 07       		.byte	0x7
 764 0382 6C       		.byte	0x6c
 765 0383 2B020000 		.4byte	0x22b
 766 0387 02       		.byte	0x2
 767 0388 23       		.byte	0x23
 768 0389 1C       		.uleb128 0x1c
 769 038a 00       		.byte	0x0
 770 038b 04       		.uleb128 0x4
 771 038c AA020000 		.4byte	.LASF51
 772 0390 07       		.byte	0x7
 773 0391 6E       		.byte	0x6e
 774 0392 20030000 		.4byte	0x320
 775 0396 05       		.uleb128 0x5
 776 0397 73010000 		.4byte	.LASF52
 777 039b 10       		.byte	0x10
 778 039c 08       		.byte	0x8
 779 039d 2C       		.byte	0x2c
 780 039e CD030000 		.4byte	0x3cd
 781 03a2 06       		.uleb128 0x6
 782 03a3 56000000 		.4byte	.LASF53
 783 03a7 08       		.byte	0x8
 784 03a8 2D       		.byte	0x2d
 785 03a9 31020000 		.4byte	0x231
 786 03ad 02       		.byte	0x2
 787 03ae 23       		.byte	0x23
 788 03af 00       		.uleb128 0x0
 789 03b0 06       		.uleb128 0x6
 790 03b1 F3020000 		.4byte	.LASF54
ARM GAS  /tmp/ccXUUKGz.s 			page 15


 791 03b5 08       		.byte	0x8
 792 03b6 2F       		.byte	0x2f
 793 03b7 2B020000 		.4byte	0x22b
 794 03bb 02       		.byte	0x2
 795 03bc 23       		.byte	0x23
 796 03bd 08       		.uleb128 0x8
 797 03be 06       		.uleb128 0x6
 798 03bf 6E020000 		.4byte	.LASF55
 799 03c3 08       		.byte	0x8
 800 03c4 31       		.byte	0x31
 801 03c5 CD030000 		.4byte	0x3cd
 802 03c9 02       		.byte	0x2
 803 03ca 23       		.byte	0x23
 804 03cb 0C       		.uleb128 0xc
 805 03cc 00       		.byte	0x0
 806 03cd 09       		.uleb128 0x9
 807 03ce 04       		.byte	0x4
 808 03cf 96030000 		.4byte	0x396
 809 03d3 04       		.uleb128 0x4
 810 03d4 73010000 		.4byte	.LASF52
 811 03d8 08       		.byte	0x8
 812 03d9 33       		.byte	0x33
 813 03da 96030000 		.4byte	0x396
 814 03de 0E       		.uleb128 0xe
 815 03df 04       		.byte	0x4
 816 03e0 05       		.byte	0x5
 817 03e1 90       		.byte	0x90
 818 03e2 13040000 		.4byte	0x413
 819 03e6 0F       		.uleb128 0xf
 820 03e7 06000000 		.4byte	.LASF56
 821 03eb 05       		.byte	0x5
 822 03ec 97       		.byte	0x97
 823 03ed B8000000 		.4byte	0xb8
 824 03f1 0F       		.uleb128 0xf
 825 03f2 24000000 		.4byte	.LASF57
 826 03f6 05       		.byte	0x5
 827 03f7 9E       		.byte	0x9e
 828 03f8 B8000000 		.4byte	0xb8
 829 03fc 0F       		.uleb128 0xf
 830 03fd CF020000 		.4byte	.LASF58
 831 0401 05       		.byte	0x5
 832 0402 A5       		.byte	0xa5
 833 0403 69020000 		.4byte	0x269
 834 0407 0F       		.uleb128 0xf
 835 0408 27020000 		.4byte	.LASF59
 836 040c 05       		.byte	0x5
 837 040d AC       		.byte	0xac
 838 040e C3000000 		.4byte	0xc3
 839 0412 00       		.byte	0x0
 840 0413 09       		.uleb128 0x9
 841 0414 04       		.byte	0x4
 842 0415 19040000 		.4byte	0x419
 843 0419 10       		.uleb128 0x10
 844 041a 1E040000 		.4byte	0x41e
 845 041e 03       		.uleb128 0x3
 846 041f 01       		.byte	0x1
 847 0420 08       		.byte	0x8
ARM GAS  /tmp/ccXUUKGz.s 			page 16


 848 0421 69020000 		.4byte	.LASF60
 849 0425 09       		.uleb128 0x9
 850 0426 04       		.byte	0x4
 851 0427 D3030000 		.4byte	0x3d3
 852 042b 05       		.uleb128 0x5
 853 042c 44020000 		.4byte	.LASF61
 854 0430 10       		.byte	0x10
 855 0431 09       		.byte	0x9
 856 0432 46       		.byte	0x46
 857 0433 70040000 		.4byte	0x470
 858 0437 06       		.uleb128 0x6
 859 0438 B7000000 		.4byte	.LASF62
 860 043c 09       		.byte	0x9
 861 043d 47       		.byte	0x47
 862 043e 13040000 		.4byte	0x413
 863 0442 02       		.byte	0x2
 864 0443 23       		.byte	0x23
 865 0444 00       		.uleb128 0x0
 866 0445 06       		.uleb128 0x6
 867 0446 9F010000 		.4byte	.LASF63
 868 044a 09       		.byte	0x9
 869 044b 48       		.byte	0x48
 870 044c 72040000 		.4byte	0x472
 871 0450 02       		.byte	0x2
 872 0451 23       		.byte	0x23
 873 0452 04       		.uleb128 0x4
 874 0453 06       		.uleb128 0x6
 875 0454 AE000000 		.4byte	.LASF64
 876 0458 09       		.byte	0x9
 877 0459 49       		.byte	0x49
 878 045a 72040000 		.4byte	0x472
 879 045e 02       		.byte	0x2
 880 045f 23       		.byte	0x23
 881 0460 08       		.uleb128 0x8
 882 0461 06       		.uleb128 0x6
 883 0462 C6010000 		.4byte	.LASF65
 884 0466 09       		.byte	0x9
 885 0467 4A       		.byte	0x4a
 886 0468 72040000 		.4byte	0x472
 887 046c 02       		.byte	0x2
 888 046d 23       		.byte	0x23
 889 046e 0C       		.uleb128 0xc
 890 046f 00       		.byte	0x0
 891 0470 11       		.uleb128 0x11
 892 0471 01       		.byte	0x1
 893 0472 09       		.uleb128 0x9
 894 0473 04       		.byte	0x4
 895 0474 70040000 		.4byte	0x470
 896 0478 12       		.uleb128 0x12
 897 0479 C2020000 		.4byte	.LASF72
 898 047d 01       		.byte	0x1
 899 047e 4E       		.byte	0x4e
 900 047f 01       		.byte	0x1
 901 0480 00000000 		.4byte	.LFB8
 902 0484 78000000 		.4byte	.LFE8
 903 0488 00000000 		.4byte	.LLST0
 904 048c AE040000 		.4byte	0x4ae
ARM GAS  /tmp/ccXUUKGz.s 			page 17


 905 0490 13       		.uleb128 0x13
 906 0491 747000   		.ascii	"tp\000"
 907 0494 01       		.byte	0x1
 908 0495 4F       		.byte	0x4f
 909 0496 2B020000 		.4byte	0x22b
 910 049a 2C000000 		.4byte	.LLST1
 911 049e 13       		.uleb128 0x13
 912 049f 6D736700 		.ascii	"msg\000"
 913 04a3 01       		.byte	0x1
 914 04a4 50       		.byte	0x50
 915 04a5 B8000000 		.4byte	0xb8
 916 04a9 55000000 		.4byte	.LLST2
 917 04ad 00       		.byte	0x0
 918 04ae 14       		.uleb128 0x14
 919 04af D6010000 		.4byte	.LASF73
 920 04b3 01       		.byte	0x1
 921 04b4 46       		.byte	0x46
 922 04b5 01       		.byte	0x1
 923 04b6 B8000000 		.4byte	0xb8
 924 04ba 00000000 		.4byte	.LFB7
 925 04be 1E000000 		.4byte	.LFE7
 926 04c2 A2000000 		.4byte	.LLST3
 927 04c6 D8040000 		.4byte	0x4d8
 928 04ca 15       		.uleb128 0x15
 929 04cb 7000     		.ascii	"p\000"
 930 04cd 01       		.byte	0x1
 931 04ce 46       		.byte	0x46
 932 04cf 69020000 		.4byte	0x269
 933 04d3 C2000000 		.4byte	.LLST4
 934 04d7 00       		.byte	0x0
 935 04d8 16       		.uleb128 0x16
 936 04d9 B4020000 		.4byte	.LASF66
 937 04dd 07       		.byte	0x7
 938 04de 72       		.byte	0x72
 939 04df 8B030000 		.4byte	0x38b
 940 04e3 01       		.byte	0x1
 941 04e4 01       		.byte	0x1
 942 04e5 17       		.uleb128 0x17
 943 04e6 2B020000 		.4byte	0x22b
 944 04ea F5040000 		.4byte	0x4f5
 945 04ee 18       		.uleb128 0x18
 946 04ef 2C000000 		.4byte	0x2c
 947 04f3 04       		.byte	0x4
 948 04f4 00       		.byte	0x0
 949 04f5 16       		.uleb128 0x16
 950 04f6 0F020000 		.4byte	.LASF67
 951 04fa 09       		.byte	0x9
 952 04fb B0       		.byte	0xb0
 953 04fc E5040000 		.4byte	0x4e5
 954 0500 01       		.byte	0x1
 955 0501 01       		.byte	0x1
 956 0502 17       		.uleb128 0x17
 957 0503 69020000 		.4byte	0x269
 958 0507 0D050000 		.4byte	0x50d
 959 050b 19       		.uleb128 0x19
 960 050c 00       		.byte	0x0
 961 050d 1A       		.uleb128 0x1a
ARM GAS  /tmp/ccXUUKGz.s 			page 18


 962 050e 776100   		.ascii	"wa\000"
 963 0511 09       		.byte	0x9
 964 0512 B2       		.byte	0xb2
 965 0513 19050000 		.4byte	0x519
 966 0517 01       		.byte	0x1
 967 0518 01       		.byte	0x1
 968 0519 10       		.uleb128 0x10
 969 051a 02050000 		.4byte	0x502
 970 051e 16       		.uleb128 0x16
 971 051f 1E020000 		.4byte	.LASF68
 972 0523 01       		.byte	0x1
 973 0524 66       		.byte	0x66
 974 0525 2B050000 		.4byte	0x52b
 975 0529 01       		.byte	0x1
 976 052a 01       		.byte	0x1
 977 052b 10       		.uleb128 0x10
 978 052c 2B040000 		.4byte	0x42b
 979 0530 16       		.uleb128 0x16
 980 0531 B4020000 		.4byte	.LASF66
 981 0535 07       		.byte	0x7
 982 0536 72       		.byte	0x72
 983 0537 8B030000 		.4byte	0x38b
 984 053b 01       		.byte	0x1
 985 053c 01       		.byte	0x1
 986 053d 16       		.uleb128 0x16
 987 053e 0F020000 		.4byte	.LASF67
 988 0542 09       		.byte	0x9
 989 0543 B0       		.byte	0xb0
 990 0544 E5040000 		.4byte	0x4e5
 991 0548 01       		.byte	0x1
 992 0549 01       		.byte	0x1
 993 054a 1A       		.uleb128 0x1a
 994 054b 776100   		.ascii	"wa\000"
 995 054e 09       		.byte	0x9
 996 054f B2       		.byte	0xb2
 997 0550 56050000 		.4byte	0x556
 998 0554 01       		.byte	0x1
 999 0555 01       		.byte	0x1
 1000 0556 10       		.uleb128 0x10
 1001 0557 02050000 		.4byte	0x502
 1002 055b 1B       		.uleb128 0x1b
 1003 055c 1E020000 		.4byte	.LASF68
 1004 0560 01       		.byte	0x1
 1005 0561 66       		.byte	0x66
 1006 0562 2B050000 		.4byte	0x52b
 1007 0566 01       		.byte	0x1
 1008 0567 05       		.byte	0x5
 1009 0568 03       		.byte	0x3
 1010 0569 00000000 		.4byte	testmsg1
 1011 056d 17       		.uleb128 0x17
 1012 056e 7D050000 		.4byte	0x57d
 1013 0572 7D050000 		.4byte	0x57d
 1014 0576 18       		.uleb128 0x18
 1015 0577 2C000000 		.4byte	0x2c
 1016 057b 01       		.byte	0x1
 1017 057c 00       		.byte	0x0
 1018 057d 09       		.uleb128 0x9
ARM GAS  /tmp/ccXUUKGz.s 			page 19


 1019 057e 04       		.byte	0x4
 1020 057f 2B050000 		.4byte	0x52b
 1021 0583 1B       		.uleb128 0x1b
 1022 0584 79010000 		.4byte	.LASF69
 1023 0588 01       		.byte	0x1
 1024 0589 72       		.byte	0x72
 1025 058a 95050000 		.4byte	0x595
 1026 058e 01       		.byte	0x1
 1027 058f 05       		.byte	0x5
 1028 0590 03       		.byte	0x3
 1029 0591 00000000 		.4byte	patternmsg
 1030 0595 10       		.uleb128 0x10
 1031 0596 6D050000 		.4byte	0x56d
 1032 059a 00       		.byte	0x0
 1033              		.section	.debug_abbrev
 1034 0000 01       		.uleb128 0x1
 1035 0001 11       		.uleb128 0x11
 1036 0002 01       		.byte	0x1
 1037 0003 25       		.uleb128 0x25
 1038 0004 0E       		.uleb128 0xe
 1039 0005 13       		.uleb128 0x13
 1040 0006 0B       		.uleb128 0xb
 1041 0007 03       		.uleb128 0x3
 1042 0008 0E       		.uleb128 0xe
 1043 0009 11       		.uleb128 0x11
 1044 000a 01       		.uleb128 0x1
 1045 000b 52       		.uleb128 0x52
 1046 000c 01       		.uleb128 0x1
 1047 000d 55       		.uleb128 0x55
 1048 000e 06       		.uleb128 0x6
 1049 000f 10       		.uleb128 0x10
 1050 0010 06       		.uleb128 0x6
 1051 0011 00       		.byte	0x0
 1052 0012 00       		.byte	0x0
 1053 0013 02       		.uleb128 0x2
 1054 0014 24       		.uleb128 0x24
 1055 0015 00       		.byte	0x0
 1056 0016 0B       		.uleb128 0xb
 1057 0017 0B       		.uleb128 0xb
 1058 0018 3E       		.uleb128 0x3e
 1059 0019 0B       		.uleb128 0xb
 1060 001a 03       		.uleb128 0x3
 1061 001b 08       		.uleb128 0x8
 1062 001c 00       		.byte	0x0
 1063 001d 00       		.byte	0x0
 1064 001e 03       		.uleb128 0x3
 1065 001f 24       		.uleb128 0x24
 1066 0020 00       		.byte	0x0
 1067 0021 0B       		.uleb128 0xb
 1068 0022 0B       		.uleb128 0xb
 1069 0023 3E       		.uleb128 0x3e
 1070 0024 0B       		.uleb128 0xb
 1071 0025 03       		.uleb128 0x3
 1072 0026 0E       		.uleb128 0xe
 1073 0027 00       		.byte	0x0
 1074 0028 00       		.byte	0x0
 1075 0029 04       		.uleb128 0x4
ARM GAS  /tmp/ccXUUKGz.s 			page 20


 1076 002a 16       		.uleb128 0x16
 1077 002b 00       		.byte	0x0
 1078 002c 03       		.uleb128 0x3
 1079 002d 0E       		.uleb128 0xe
 1080 002e 3A       		.uleb128 0x3a
 1081 002f 0B       		.uleb128 0xb
 1082 0030 3B       		.uleb128 0x3b
 1083 0031 0B       		.uleb128 0xb
 1084 0032 49       		.uleb128 0x49
 1085 0033 13       		.uleb128 0x13
 1086 0034 00       		.byte	0x0
 1087 0035 00       		.byte	0x0
 1088 0036 05       		.uleb128 0x5
 1089 0037 13       		.uleb128 0x13
 1090 0038 01       		.byte	0x1
 1091 0039 03       		.uleb128 0x3
 1092 003a 0E       		.uleb128 0xe
 1093 003b 0B       		.uleb128 0xb
 1094 003c 0B       		.uleb128 0xb
 1095 003d 3A       		.uleb128 0x3a
 1096 003e 0B       		.uleb128 0xb
 1097 003f 3B       		.uleb128 0x3b
 1098 0040 0B       		.uleb128 0xb
 1099 0041 01       		.uleb128 0x1
 1100 0042 13       		.uleb128 0x13
 1101 0043 00       		.byte	0x0
 1102 0044 00       		.byte	0x0
 1103 0045 06       		.uleb128 0x6
 1104 0046 0D       		.uleb128 0xd
 1105 0047 00       		.byte	0x0
 1106 0048 03       		.uleb128 0x3
 1107 0049 0E       		.uleb128 0xe
 1108 004a 3A       		.uleb128 0x3a
 1109 004b 0B       		.uleb128 0xb
 1110 004c 3B       		.uleb128 0x3b
 1111 004d 0B       		.uleb128 0xb
 1112 004e 49       		.uleb128 0x49
 1113 004f 13       		.uleb128 0x13
 1114 0050 38       		.uleb128 0x38
 1115 0051 0A       		.uleb128 0xa
 1116 0052 00       		.byte	0x0
 1117 0053 00       		.byte	0x0
 1118 0054 07       		.uleb128 0x7
 1119 0055 0D       		.uleb128 0xd
 1120 0056 00       		.byte	0x0
 1121 0057 03       		.uleb128 0x3
 1122 0058 08       		.uleb128 0x8
 1123 0059 3A       		.uleb128 0x3a
 1124 005a 0B       		.uleb128 0xb
 1125 005b 3B       		.uleb128 0x3b
 1126 005c 0B       		.uleb128 0xb
 1127 005d 49       		.uleb128 0x49
 1128 005e 13       		.uleb128 0x13
 1129 005f 38       		.uleb128 0x38
 1130 0060 0A       		.uleb128 0xa
 1131 0061 00       		.byte	0x0
 1132 0062 00       		.byte	0x0
ARM GAS  /tmp/ccXUUKGz.s 			page 21


 1133 0063 08       		.uleb128 0x8
 1134 0064 13       		.uleb128 0x13
 1135 0065 01       		.byte	0x1
 1136 0066 0B       		.uleb128 0xb
 1137 0067 0B       		.uleb128 0xb
 1138 0068 3A       		.uleb128 0x3a
 1139 0069 0B       		.uleb128 0xb
 1140 006a 3B       		.uleb128 0x3b
 1141 006b 0B       		.uleb128 0xb
 1142 006c 01       		.uleb128 0x1
 1143 006d 13       		.uleb128 0x13
 1144 006e 00       		.byte	0x0
 1145 006f 00       		.byte	0x0
 1146 0070 09       		.uleb128 0x9
 1147 0071 0F       		.uleb128 0xf
 1148 0072 00       		.byte	0x0
 1149 0073 0B       		.uleb128 0xb
 1150 0074 0B       		.uleb128 0xb
 1151 0075 49       		.uleb128 0x49
 1152 0076 13       		.uleb128 0x13
 1153 0077 00       		.byte	0x0
 1154 0078 00       		.byte	0x0
 1155 0079 0A       		.uleb128 0xa
 1156 007a 0F       		.uleb128 0xf
 1157 007b 00       		.byte	0x0
 1158 007c 0B       		.uleb128 0xb
 1159 007d 0B       		.uleb128 0xb
 1160 007e 00       		.byte	0x0
 1161 007f 00       		.byte	0x0
 1162 0080 0B       		.uleb128 0xb
 1163 0081 0D       		.uleb128 0xd
 1164 0082 00       		.byte	0x0
 1165 0083 03       		.uleb128 0x3
 1166 0084 08       		.uleb128 0x8
 1167 0085 3A       		.uleb128 0x3a
 1168 0086 0B       		.uleb128 0xb
 1169 0087 3B       		.uleb128 0x3b
 1170 0088 05       		.uleb128 0x5
 1171 0089 49       		.uleb128 0x49
 1172 008a 13       		.uleb128 0x13
 1173 008b 38       		.uleb128 0x38
 1174 008c 0A       		.uleb128 0xa
 1175 008d 00       		.byte	0x0
 1176 008e 00       		.byte	0x0
 1177 008f 0C       		.uleb128 0xc
 1178 0090 13       		.uleb128 0x13
 1179 0091 01       		.byte	0x1
 1180 0092 03       		.uleb128 0x3
 1181 0093 0E       		.uleb128 0xe
 1182 0094 0B       		.uleb128 0xb
 1183 0095 0B       		.uleb128 0xb
 1184 0096 3A       		.uleb128 0x3a
 1185 0097 0B       		.uleb128 0xb
 1186 0098 3B       		.uleb128 0x3b
 1187 0099 05       		.uleb128 0x5
 1188 009a 01       		.uleb128 0x1
 1189 009b 13       		.uleb128 0x13
ARM GAS  /tmp/ccXUUKGz.s 			page 22


 1190 009c 00       		.byte	0x0
 1191 009d 00       		.byte	0x0
 1192 009e 0D       		.uleb128 0xd
 1193 009f 35       		.uleb128 0x35
 1194 00a0 00       		.byte	0x0
 1195 00a1 49       		.uleb128 0x49
 1196 00a2 13       		.uleb128 0x13
 1197 00a3 00       		.byte	0x0
 1198 00a4 00       		.byte	0x0
 1199 00a5 0E       		.uleb128 0xe
 1200 00a6 17       		.uleb128 0x17
 1201 00a7 01       		.byte	0x1
 1202 00a8 0B       		.uleb128 0xb
 1203 00a9 0B       		.uleb128 0xb
 1204 00aa 3A       		.uleb128 0x3a
 1205 00ab 0B       		.uleb128 0xb
 1206 00ac 3B       		.uleb128 0x3b
 1207 00ad 0B       		.uleb128 0xb
 1208 00ae 01       		.uleb128 0x1
 1209 00af 13       		.uleb128 0x13
 1210 00b0 00       		.byte	0x0
 1211 00b1 00       		.byte	0x0
 1212 00b2 0F       		.uleb128 0xf
 1213 00b3 0D       		.uleb128 0xd
 1214 00b4 00       		.byte	0x0
 1215 00b5 03       		.uleb128 0x3
 1216 00b6 0E       		.uleb128 0xe
 1217 00b7 3A       		.uleb128 0x3a
 1218 00b8 0B       		.uleb128 0xb
 1219 00b9 3B       		.uleb128 0x3b
 1220 00ba 0B       		.uleb128 0xb
 1221 00bb 49       		.uleb128 0x49
 1222 00bc 13       		.uleb128 0x13
 1223 00bd 00       		.byte	0x0
 1224 00be 00       		.byte	0x0
 1225 00bf 10       		.uleb128 0x10
 1226 00c0 26       		.uleb128 0x26
 1227 00c1 00       		.byte	0x0
 1228 00c2 49       		.uleb128 0x49
 1229 00c3 13       		.uleb128 0x13
 1230 00c4 00       		.byte	0x0
 1231 00c5 00       		.byte	0x0
 1232 00c6 11       		.uleb128 0x11
 1233 00c7 15       		.uleb128 0x15
 1234 00c8 00       		.byte	0x0
 1235 00c9 27       		.uleb128 0x27
 1236 00ca 0C       		.uleb128 0xc
 1237 00cb 00       		.byte	0x0
 1238 00cc 00       		.byte	0x0
 1239 00cd 12       		.uleb128 0x12
 1240 00ce 2E       		.uleb128 0x2e
 1241 00cf 01       		.byte	0x1
 1242 00d0 03       		.uleb128 0x3
 1243 00d1 0E       		.uleb128 0xe
 1244 00d2 3A       		.uleb128 0x3a
 1245 00d3 0B       		.uleb128 0xb
 1246 00d4 3B       		.uleb128 0x3b
ARM GAS  /tmp/ccXUUKGz.s 			page 23


 1247 00d5 0B       		.uleb128 0xb
 1248 00d6 27       		.uleb128 0x27
 1249 00d7 0C       		.uleb128 0xc
 1250 00d8 11       		.uleb128 0x11
 1251 00d9 01       		.uleb128 0x1
 1252 00da 12       		.uleb128 0x12
 1253 00db 01       		.uleb128 0x1
 1254 00dc 40       		.uleb128 0x40
 1255 00dd 06       		.uleb128 0x6
 1256 00de 01       		.uleb128 0x1
 1257 00df 13       		.uleb128 0x13
 1258 00e0 00       		.byte	0x0
 1259 00e1 00       		.byte	0x0
 1260 00e2 13       		.uleb128 0x13
 1261 00e3 34       		.uleb128 0x34
 1262 00e4 00       		.byte	0x0
 1263 00e5 03       		.uleb128 0x3
 1264 00e6 08       		.uleb128 0x8
 1265 00e7 3A       		.uleb128 0x3a
 1266 00e8 0B       		.uleb128 0xb
 1267 00e9 3B       		.uleb128 0x3b
 1268 00ea 0B       		.uleb128 0xb
 1269 00eb 49       		.uleb128 0x49
 1270 00ec 13       		.uleb128 0x13
 1271 00ed 02       		.uleb128 0x2
 1272 00ee 06       		.uleb128 0x6
 1273 00ef 00       		.byte	0x0
 1274 00f0 00       		.byte	0x0
 1275 00f1 14       		.uleb128 0x14
 1276 00f2 2E       		.uleb128 0x2e
 1277 00f3 01       		.byte	0x1
 1278 00f4 03       		.uleb128 0x3
 1279 00f5 0E       		.uleb128 0xe
 1280 00f6 3A       		.uleb128 0x3a
 1281 00f7 0B       		.uleb128 0xb
 1282 00f8 3B       		.uleb128 0x3b
 1283 00f9 0B       		.uleb128 0xb
 1284 00fa 27       		.uleb128 0x27
 1285 00fb 0C       		.uleb128 0xc
 1286 00fc 49       		.uleb128 0x49
 1287 00fd 13       		.uleb128 0x13
 1288 00fe 11       		.uleb128 0x11
 1289 00ff 01       		.uleb128 0x1
 1290 0100 12       		.uleb128 0x12
 1291 0101 01       		.uleb128 0x1
 1292 0102 40       		.uleb128 0x40
 1293 0103 06       		.uleb128 0x6
 1294 0104 01       		.uleb128 0x1
 1295 0105 13       		.uleb128 0x13
 1296 0106 00       		.byte	0x0
 1297 0107 00       		.byte	0x0
 1298 0108 15       		.uleb128 0x15
 1299 0109 05       		.uleb128 0x5
 1300 010a 00       		.byte	0x0
 1301 010b 03       		.uleb128 0x3
 1302 010c 08       		.uleb128 0x8
 1303 010d 3A       		.uleb128 0x3a
ARM GAS  /tmp/ccXUUKGz.s 			page 24


 1304 010e 0B       		.uleb128 0xb
 1305 010f 3B       		.uleb128 0x3b
 1306 0110 0B       		.uleb128 0xb
 1307 0111 49       		.uleb128 0x49
 1308 0112 13       		.uleb128 0x13
 1309 0113 02       		.uleb128 0x2
 1310 0114 06       		.uleb128 0x6
 1311 0115 00       		.byte	0x0
 1312 0116 00       		.byte	0x0
 1313 0117 16       		.uleb128 0x16
 1314 0118 34       		.uleb128 0x34
 1315 0119 00       		.byte	0x0
 1316 011a 03       		.uleb128 0x3
 1317 011b 0E       		.uleb128 0xe
 1318 011c 3A       		.uleb128 0x3a
 1319 011d 0B       		.uleb128 0xb
 1320 011e 3B       		.uleb128 0x3b
 1321 011f 0B       		.uleb128 0xb
 1322 0120 49       		.uleb128 0x49
 1323 0121 13       		.uleb128 0x13
 1324 0122 3F       		.uleb128 0x3f
 1325 0123 0C       		.uleb128 0xc
 1326 0124 3C       		.uleb128 0x3c
 1327 0125 0C       		.uleb128 0xc
 1328 0126 00       		.byte	0x0
 1329 0127 00       		.byte	0x0
 1330 0128 17       		.uleb128 0x17
 1331 0129 01       		.uleb128 0x1
 1332 012a 01       		.byte	0x1
 1333 012b 49       		.uleb128 0x49
 1334 012c 13       		.uleb128 0x13
 1335 012d 01       		.uleb128 0x1
 1336 012e 13       		.uleb128 0x13
 1337 012f 00       		.byte	0x0
 1338 0130 00       		.byte	0x0
 1339 0131 18       		.uleb128 0x18
 1340 0132 21       		.uleb128 0x21
 1341 0133 00       		.byte	0x0
 1342 0134 49       		.uleb128 0x49
 1343 0135 13       		.uleb128 0x13
 1344 0136 2F       		.uleb128 0x2f
 1345 0137 0B       		.uleb128 0xb
 1346 0138 00       		.byte	0x0
 1347 0139 00       		.byte	0x0
 1348 013a 19       		.uleb128 0x19
 1349 013b 21       		.uleb128 0x21
 1350 013c 00       		.byte	0x0
 1351 013d 00       		.byte	0x0
 1352 013e 00       		.byte	0x0
 1353 013f 1A       		.uleb128 0x1a
 1354 0140 34       		.uleb128 0x34
 1355 0141 00       		.byte	0x0
 1356 0142 03       		.uleb128 0x3
 1357 0143 08       		.uleb128 0x8
 1358 0144 3A       		.uleb128 0x3a
 1359 0145 0B       		.uleb128 0xb
 1360 0146 3B       		.uleb128 0x3b
ARM GAS  /tmp/ccXUUKGz.s 			page 25


 1361 0147 0B       		.uleb128 0xb
 1362 0148 49       		.uleb128 0x49
 1363 0149 13       		.uleb128 0x13
 1364 014a 3F       		.uleb128 0x3f
 1365 014b 0C       		.uleb128 0xc
 1366 014c 3C       		.uleb128 0x3c
 1367 014d 0C       		.uleb128 0xc
 1368 014e 00       		.byte	0x0
 1369 014f 00       		.byte	0x0
 1370 0150 1B       		.uleb128 0x1b
 1371 0151 34       		.uleb128 0x34
 1372 0152 00       		.byte	0x0
 1373 0153 03       		.uleb128 0x3
 1374 0154 0E       		.uleb128 0xe
 1375 0155 3A       		.uleb128 0x3a
 1376 0156 0B       		.uleb128 0xb
 1377 0157 3B       		.uleb128 0x3b
 1378 0158 0B       		.uleb128 0xb
 1379 0159 49       		.uleb128 0x49
 1380 015a 13       		.uleb128 0x13
 1381 015b 3F       		.uleb128 0x3f
 1382 015c 0C       		.uleb128 0xc
 1383 015d 02       		.uleb128 0x2
 1384 015e 0A       		.uleb128 0xa
 1385 015f 00       		.byte	0x0
 1386 0160 00       		.byte	0x0
 1387 0161 00       		.byte	0x0
 1388              		.section	.debug_pubnames,"",%progbits
 1389 0000 2A000000 		.4byte	0x2a
 1390 0004 0200     		.2byte	0x2
 1391 0006 00000000 		.4byte	.Ldebug_info0
 1392 000a 9B050000 		.4byte	0x59b
 1393 000e 5B050000 		.4byte	0x55b
 1394 0012 74657374 		.ascii	"testmsg1\000"
 1394      6D736731 
 1394      00
 1395 001b 83050000 		.4byte	0x583
 1396 001f 70617474 		.ascii	"patternmsg\000"
 1396      65726E6D 
 1396      736700
 1397 002a 00000000 		.4byte	0x0
 1398              		.section	.debug_pubtypes,"",%progbits
 1399 0000 20010000 		.4byte	0x120
 1400 0004 0200     		.2byte	0x2
 1401 0006 00000000 		.4byte	.Ldebug_info0
 1402 000a 9B050000 		.4byte	0x59b
 1403 000e 3A000000 		.4byte	0x3a
 1404 0012 75696E74 		.ascii	"uint8_t\000"
 1404      385F7400 
 1405 001a 5A000000 		.4byte	0x5a
 1406 001e 696E7433 		.ascii	"int32_t\000"
 1406      325F7400 
 1407 0026 6C000000 		.4byte	0x6c
 1408 002a 75696E74 		.ascii	"uint32_t\000"
 1408      33325F74 
 1408      00
 1409 0033 8C000000 		.4byte	0x8c
ARM GAS  /tmp/ccXUUKGz.s 			page 26


 1410 0037 746D6F64 		.ascii	"tmode_t\000"
 1410      655F7400 
 1411 003f 97000000 		.4byte	0x97
 1412 0043 74737461 		.ascii	"tstate_t\000"
 1412      74655F74 
 1412      00
 1413 004c A2000000 		.4byte	0xa2
 1414 0050 74726566 		.ascii	"trefs_t\000"
 1414      735F7400 
 1415 0058 AD000000 		.4byte	0xad
 1416 005c 74707269 		.ascii	"tprio_t\000"
 1416      6F5F7400 
 1417 0064 B8000000 		.4byte	0xb8
 1418 0068 6D73675F 		.ascii	"msg_t\000"
 1418      7400
 1419 006e C3000000 		.4byte	0xc3
 1420 0072 6576656E 		.ascii	"eventmask_t\000"
 1420      746D6173 
 1420      6B5F7400 
 1421 007e CE000000 		.4byte	0xce
 1422 0082 73797374 		.ascii	"systime_t\000"
 1422      696D655F 
 1422      7400
 1423 008c D9000000 		.4byte	0xd9
 1424 0090 636E745F 		.ascii	"cnt_t\000"
 1424      7400
 1425 0096 E4000000 		.4byte	0xe4
 1426 009a 54687265 		.ascii	"Thread\000"
 1426      616400
 1427 00a1 31020000 		.4byte	0x231
 1428 00a5 54687265 		.ascii	"ThreadsQueue\000"
 1428      61647351 
 1428      75657565 
 1428      00
 1429 00b2 53020000 		.4byte	0x253
 1430 00b6 54687265 		.ascii	"ThreadsList\000"
 1430      6164734C 
 1430      69737400 
 1431 00c2 5E020000 		.4byte	0x25e
 1432 00c6 72656761 		.ascii	"regarm_t\000"
 1432      726D5F74 
 1432      00
 1433 00cf 6B020000 		.4byte	0x26b
 1434 00d3 696E7463 		.ascii	"intctx\000"
 1434      747800
 1435 00da F8020000 		.4byte	0x2f8
 1436 00de 636F6E74 		.ascii	"context\000"
 1436      65787400 
 1437 00e6 8B030000 		.4byte	0x38b
 1438 00ea 52656164 		.ascii	"ReadyList\000"
 1438      794C6973 
 1438      7400
 1439 00f4 96030000 		.4byte	0x396
 1440 00f8 4D757465 		.ascii	"Mutex\000"
 1440      7800
 1441 00fe D3030000 		.4byte	0x3d3
 1442 0102 4D757465 		.ascii	"Mutex\000"
ARM GAS  /tmp/ccXUUKGz.s 			page 27


 1442      7800
 1443 0108 EF000000 		.4byte	0xef
 1444 010c 54687265 		.ascii	"Thread\000"
 1444      616400
 1445 0113 2B040000 		.4byte	0x42b
 1446 0117 74657374 		.ascii	"testcase\000"
 1446      63617365 
 1446      00
 1447 0120 00000000 		.4byte	0x0
 1448              		.section	.debug_aranges,"",%progbits
 1449 0000 24000000 		.4byte	0x24
 1450 0004 0200     		.2byte	0x2
 1451 0006 00000000 		.4byte	.Ldebug_info0
 1452 000a 04       		.byte	0x4
 1453 000b 00       		.byte	0x0
 1454 000c 0000     		.2byte	0x0
 1455 000e 0000     		.2byte	0x0
 1456 0010 00000000 		.4byte	.LFB8
 1457 0014 78000000 		.4byte	.LFE8-.LFB8
 1458 0018 00000000 		.4byte	.LFB7
 1459 001c 1E000000 		.4byte	.LFE7-.LFB7
 1460 0020 00000000 		.4byte	0x0
 1461 0024 00000000 		.4byte	0x0
 1462              		.section	.debug_ranges,"",%progbits
 1463              	.Ldebug_ranges0:
 1464 0000 00000000 		.4byte	.LFB8
 1465 0004 78000000 		.4byte	.LFE8
 1466 0008 00000000 		.4byte	.LFB7
 1467 000c 1E000000 		.4byte	.LFE7
 1468 0010 00000000 		.4byte	0x0
 1469 0014 00000000 		.4byte	0x0
 1470              		.section	.debug_str,"MS",%progbits,1
 1471              	.LASF34:
 1472 0000 705F6D73 		.ascii	"p_msg\000"
 1472      6700
 1473              	.LASF56:
 1474 0006 7264796D 		.ascii	"rdymsg\000"
 1474      736700
 1475              	.LASF11:
 1476 000d 6C6F6E67 		.ascii	"long long unsigned int\000"
 1476      206C6F6E 
 1476      6720756E 
 1476      7369676E 
 1476      65642069 
 1477              	.LASF57:
 1478 0024 65786974 		.ascii	"exitcode\000"
 1478      636F6465 
 1478      00
 1479              	.LASF23:
 1480 002d 705F7072 		.ascii	"p_prio\000"
 1480      696F00
 1481              	.LASF10:
 1482 0034 6C6F6E67 		.ascii	"long long int\000"
 1482      206C6F6E 
 1482      6720696E 
 1482      7400
 1483              	.LASF1:
ARM GAS  /tmp/ccXUUKGz.s 			page 28


 1484 0042 7369676E 		.ascii	"signed char\000"
 1484      65642063 
 1484      68617200 
 1485              	.LASF38:
 1486 004e 705F6D70 		.ascii	"p_mpool\000"
 1486      6F6F6C00 
 1487              	.LASF53:
 1488 0056 6D5F7175 		.ascii	"m_queue\000"
 1488      65756500 
 1489              	.LASF7:
 1490 005e 6C6F6E67 		.ascii	"long int\000"
 1490      20696E74 
 1490      00
 1491              	.LASF13:
 1492 0067 74737461 		.ascii	"tstate_t\000"
 1492      74655F74 
 1492      00
 1493              	.LASF25:
 1494 0070 705F6E65 		.ascii	"p_newer\000"
 1494      77657200 
 1495              	.LASF47:
 1496 0078 725F6E65 		.ascii	"r_newer\000"
 1496      77657200 
 1497              	.LASF41:
 1498 0080 72656761 		.ascii	"regarm_t\000"
 1498      726D5F74 
 1498      00
 1499              	.LASF19:
 1500 0089 636E745F 		.ascii	"cnt_t\000"
 1500      7400
 1501              	.LASF0:
 1502 008f 756E7369 		.ascii	"unsigned int\000"
 1502      676E6564 
 1502      20696E74 
 1502      00
 1503              	.LASF9:
 1504 009c 6C6F6E67 		.ascii	"long unsigned int\000"
 1504      20756E73 
 1504      69676E65 
 1504      6420696E 
 1504      7400
 1505              	.LASF64:
 1506 00ae 74656172 		.ascii	"teardown\000"
 1506      646F776E 
 1506      00
 1507              	.LASF62:
 1508 00b7 6E616D65 		.ascii	"name\000"
 1508      00
 1509              	.LASF43:
 1510 00bc 636F6E74 		.ascii	"context\000"
 1510      65787400 
 1511              	.LASF4:
 1512 00c4 73686F72 		.ascii	"short unsigned int\000"
 1512      7420756E 
 1512      7369676E 
 1512      65642069 
 1512      6E7400
ARM GAS  /tmp/ccXUUKGz.s 			page 29


 1513              	.LASF71:
 1514 00d7 2F686F6D 		.ascii	"/home/jairom/Documentos/Proyectos/Embebidos/Robocop"
 1514      652F6A61 
 1514      69726F6D 
 1514      2F446F63 
 1514      756D656E 
 1515 010a 2F536F75 		.ascii	"/Source/code/matrix-creator-mcu/third_party/ChibiOS"
 1515      7263652F 
 1515      636F6465 
 1515      2F6D6174 
 1515      7269782D 
 1516 013d 2F746573 		.ascii	"/test/testmsg.c\000"
 1516      742F7465 
 1516      73746D73 
 1516      672E6300 
 1517              	.LASF16:
 1518 014d 6D73675F 		.ascii	"msg_t\000"
 1518      7400
 1519              	.LASF12:
 1520 0153 746D6F64 		.ascii	"tmode_t\000"
 1520      655F7400 
 1521              	.LASF40:
 1522 015b 54687265 		.ascii	"ThreadsList\000"
 1522      6164734C 
 1522      69737400 
 1523              	.LASF17:
 1524 0167 6576656E 		.ascii	"eventmask_t\000"
 1524      746D6173 
 1524      6B5F7400 
 1525              	.LASF52:
 1526 0173 4D757465 		.ascii	"Mutex\000"
 1526      7800
 1527              	.LASF69:
 1528 0179 70617474 		.ascii	"patternmsg\000"
 1528      65726E6D 
 1528      736700
 1529              	.LASF26:
 1530 0184 705F6F6C 		.ascii	"p_older\000"
 1530      64657200 
 1531              	.LASF46:
 1532 018c 725F6374 		.ascii	"r_ctx\000"
 1532      7800
 1533              	.LASF39:
 1534 0192 54687265 		.ascii	"ThreadsQueue\000"
 1534      61647351 
 1534      75657565 
 1534      00
 1535              	.LASF63:
 1536 019f 73657475 		.ascii	"setup\000"
 1536      7000
 1537              	.LASF50:
 1538 01a5 725F6375 		.ascii	"r_current\000"
 1538      7272656E 
 1538      7400
 1539              	.LASF48:
 1540 01af 725F6F6C 		.ascii	"r_older\000"
 1540      64657200 
ARM GAS  /tmp/ccXUUKGz.s 			page 30


 1541              	.LASF14:
 1542 01b7 74726566 		.ascii	"trefs_t\000"
 1542      735F7400 
 1543              	.LASF22:
 1544 01bf 705F7072 		.ascii	"p_prev\000"
 1544      657600
 1545              	.LASF65:
 1546 01c6 65786563 		.ascii	"execute\000"
 1546      75746500 
 1547              	.LASF15:
 1548 01ce 74707269 		.ascii	"tprio_t\000"
 1548      6F5F7400 
 1549              	.LASF73:
 1550 01d6 74687265 		.ascii	"thread\000"
 1550      616400
 1551              	.LASF6:
 1552 01dd 696E7433 		.ascii	"int32_t\000"
 1552      325F7400 
 1553              	.LASF2:
 1554 01e5 756E7369 		.ascii	"unsigned char\000"
 1554      676E6564 
 1554      20636861 
 1554      7200
 1555              	.LASF36:
 1556 01f3 705F6D74 		.ascii	"p_mtxlist\000"
 1556      786C6973 
 1556      7400
 1557              	.LASF3:
 1558 01fd 73686F72 		.ascii	"short int\000"
 1558      7420696E 
 1558      7400
 1559              	.LASF28:
 1560 0207 705F7374 		.ascii	"p_state\000"
 1560      61746500 
 1561              	.LASF67:
 1562 020f 74687265 		.ascii	"threads\000"
 1562      61647300 
 1563              	.LASF45:
 1564 0217 725F7072 		.ascii	"r_prio\000"
 1564      696F00
 1565              	.LASF68:
 1566 021e 74657374 		.ascii	"testmsg1\000"
 1566      6D736731 
 1566      00
 1567              	.LASF59:
 1568 0227 65776D61 		.ascii	"ewmask\000"
 1568      736B00
 1569              	.LASF21:
 1570 022e 705F6E65 		.ascii	"p_next\000"
 1570      787400
 1571              	.LASF29:
 1572 0235 705F666C 		.ascii	"p_flags\000"
 1572      61677300 
 1573              	.LASF20:
 1574 023d 54687265 		.ascii	"Thread\000"
 1574      616400
 1575              	.LASF61:
ARM GAS  /tmp/ccXUUKGz.s 			page 31


 1576 0244 74657374 		.ascii	"testcase\000"
 1576      63617365 
 1576      00
 1577              	.LASF35:
 1578 024d 705F6570 		.ascii	"p_epending\000"
 1578      656E6469 
 1578      6E6700
 1579              	.LASF8:
 1580 0258 75696E74 		.ascii	"uint32_t\000"
 1580      33325F74 
 1580      00
 1581              	.LASF44:
 1582 0261 725F7175 		.ascii	"r_queue\000"
 1582      65756500 
 1583              	.LASF60:
 1584 0269 63686172 		.ascii	"char\000"
 1584      00
 1585              	.LASF55:
 1586 026e 6D5F6E65 		.ascii	"m_next\000"
 1586      787400
 1587              	.LASF18:
 1588 0275 73797374 		.ascii	"systime_t\000"
 1588      696D655F 
 1588      7400
 1589              	.LASF37:
 1590 027f 705F7265 		.ascii	"p_realprio\000"
 1590      616C7072 
 1590      696F00
 1591              	.LASF31:
 1592 028a 705F7469 		.ascii	"p_time\000"
 1592      6D6500
 1593              	.LASF42:
 1594 0291 696E7463 		.ascii	"intctx\000"
 1594      747800
 1595              	.LASF33:
 1596 0298 705F6D73 		.ascii	"p_msgqueue\000"
 1596      67717565 
 1596      756500
 1597              	.LASF30:
 1598 02a3 705F7265 		.ascii	"p_refs\000"
 1598      667300
 1599              	.LASF51:
 1600 02aa 52656164 		.ascii	"ReadyList\000"
 1600      794C6973 
 1600      7400
 1601              	.LASF66:
 1602 02b4 726C6973 		.ascii	"rlist\000"
 1602      7400
 1603              	.LASF5:
 1604 02ba 75696E74 		.ascii	"uint8_t\000"
 1604      385F7400 
 1605              	.LASF72:
 1606 02c2 6D736731 		.ascii	"msg1_execute\000"
 1606      5F657865 
 1606      63757465 
 1606      00
 1607              	.LASF58:
ARM GAS  /tmp/ccXUUKGz.s 			page 32


 1608 02cf 77746F62 		.ascii	"wtobjp\000"
 1608      6A7000
 1609              	.LASF70:
 1610 02d6 474E5520 		.ascii	"GNU C 4.5.2\000"
 1610      4320342E 
 1610      352E3200 
 1611              	.LASF27:
 1612 02e2 705F6E61 		.ascii	"p_name\000"
 1612      6D6500
 1613              	.LASF49:
 1614 02e9 725F7072 		.ascii	"r_preempt\000"
 1614      65656D70 
 1614      7400
 1615              	.LASF54:
 1616 02f3 6D5F6F77 		.ascii	"m_owner\000"
 1616      6E657200 
 1617              	.LASF24:
 1618 02fb 705F6374 		.ascii	"p_ctx\000"
 1618      7800
 1619              	.LASF32:
 1620 0301 705F7761 		.ascii	"p_waiting\000"
 1620      6974696E 
 1620      6700
 1621              		.ident	"GCC: (Sourcery G++ Lite 2011.03-42) 4.5.2"
ARM GAS  /tmp/ccXUUKGz.s 			page 33


DEFINED SYMBOLS
                            *ABS*:00000000 testmsg.c
     /tmp/ccXUUKGz.s:24     .text.msg1_execute:00000000 $t
     /tmp/ccXUUKGz.s:29     .text.msg1_execute:00000000 msg1_execute
     /tmp/ccXUUKGz.s:111    .text.msg1_execute:00000064 $d
     /tmp/ccXUUKGz.s:125    .text.thread:00000000 thread
     /tmp/ccXUUKGz.s:120    .text.thread:00000000 $t
     /tmp/ccXUUKGz.s:164    .rodata.testmsg1:00000000 testmsg1
     /tmp/ccXUUKGz.s:179    .rodata.patternmsg:00000000 patternmsg
     /tmp/ccXUUKGz.s:161    .rodata.testmsg1:00000000 $d
     /tmp/ccXUUKGz.s:170    .rodata.str1.4:00000000 $d
     /tmp/ccXUUKGz.s:176    .rodata.patternmsg:00000000 $d
                     .debug_frame:00000010 $d
     /tmp/ccXUUKGz.s:119    .text.msg1_execute:00000078 $t

UNDEFINED SYMBOLS
chThdCreateStatic
chMsgWait
chMsgRelease
test_emit_token
_test_assert_sequence
rlist
wa
threads
chMsgSend
