ARM GAS  /tmp/ccx3zCP0.s 			page 1


   1              		.syntax unified
   2              		.cpu cortex-m3
   3              		.fpu softvfp
   4              		.eabi_attribute 20, 1
   5              		.eabi_attribute 21, 1
   6              		.eabi_attribute 23, 3
   7              		.eabi_attribute 24, 1
   8              		.eabi_attribute 25, 1
   9              		.eabi_attribute 26, 1
  10              		.eabi_attribute 30, 2
  11              		.eabi_attribute 18, 4
  12              		.thumb
  13              		.file	"testpools.c"
  14              		.section	.debug_abbrev,"",%progbits
  15              	.Ldebug_abbrev0:
  16              		.section	.debug_info,"",%progbits
  17              	.Ldebug_info0:
  18              		.section	.debug_line,"",%progbits
  19              	.Ldebug_line0:
  20 0000 CA010000 		.text
  20      02008601 
  20      00000201 
  20      FB0E0D00 
  20      01010101 
  21              	.Ltext0:
  22              		.cfi_sections	.debug_frame
  23              		.section	.text.null_provider,"ax",%progbits
  24              		.align	2
  25              		.p2align 4,,15
  26              		.thumb
  27              		.thumb_func
  28              		.type	null_provider, %function
  29              	null_provider:
  30              	.LFB7:
  31              		.file 1 "/home/jairom/Documentos/Proyectos/Embebidos/Robocop/Source/code/matrix-creator-mcu/third_
  32              		.loc 1 71 0
  33              		.cfi_startproc
  34              		@ args = 0, pretend = 0, frame = 0
  35              		@ frame_needed = 0, uses_anonymous_args = 0
  36              		@ link register save eliminated.
  37              	.LVL0:
  38              		.loc 1 75 0
  39 0000 0020     		movs	r0, #0
  40              	.LVL1:
  41 0002 7047     		bx	lr
  42              		.cfi_endproc
  43              	.LFE7:
  44              		.size	null_provider, .-null_provider
  45 0004 AFF30080 		.section	.text.pools1_execute,"ax",%progbits
  45      AFF30080 
  45      AFF30080 
  46              		.align	2
  47              		.p2align 4,,15
  48              		.thumb
  49              		.thumb_func
  50              		.type	pools1_execute, %function
  51              	pools1_execute:
ARM GAS  /tmp/ccx3zCP0.s 			page 2


  52              	.LFB9:
  53              		.loc 1 82 0
  54              		.cfi_startproc
  55              		@ args = 0, pretend = 0, frame = 0
  56              		@ frame_needed = 0, uses_anonymous_args = 0
  57              	.LVL2:
  58 0000 10B5     		push	{r4, lr}
  59              	.LCFI0:
  60              		.cfi_def_cfa_offset 8
  61              		.loc 1 87 0
  62 0002 324C     		ldr	r4, .L6
  63              		.cfi_offset 14, -4
  64              		.cfi_offset 4, -8
  65 0004 3248     		ldr	r0, .L6+4
  66 0006 2168     		ldr	r1, [r4, #0]
  67 0008 FFF7FEFF 		bl	chPoolFree
  68              	.LVL3:
  69 000c 3048     		ldr	r0, .L6+4
  70 000e 6168     		ldr	r1, [r4, #4]
  71 0010 FFF7FEFF 		bl	chPoolFree
  72              	.LVL4:
  73 0014 2E48     		ldr	r0, .L6+4
  74 0016 A168     		ldr	r1, [r4, #8]
  75 0018 FFF7FEFF 		bl	chPoolFree
  76              	.LVL5:
  77 001c 2C48     		ldr	r0, .L6+4
  78 001e E168     		ldr	r1, [r4, #12]
  79 0020 FFF7FEFF 		bl	chPoolFree
  80              	.LVL6:
  81 0024 2169     		ldr	r1, [r4, #16]
  82 0026 2A48     		ldr	r0, .L6+4
  83 0028 FFF7FEFF 		bl	chPoolFree
  84              	.LVL7:
  85              		.loc 1 91 0
  86 002c 2848     		ldr	r0, .L6+4
  87 002e FFF7FEFF 		bl	chPoolAlloc
  88 0032 011E     		subs	r1, r0, #0
  89 0034 18BF     		it	ne
  90 0036 0121     		movne	r1, #1
  91 0038 0120     		movs	r0, #1
  92 003a FFF7FEFF 		bl	_test_assert
  93 003e 0028     		cmp	r0, #0
  94 0040 32D1     		bne	.L2
  95              	.LVL8:
  96 0042 2348     		ldr	r0, .L6+4
  97 0044 FFF7FEFF 		bl	chPoolAlloc
  98 0048 011E     		subs	r1, r0, #0
  99 004a 18BF     		it	ne
 100 004c 0121     		movne	r1, #1
 101 004e 0120     		movs	r0, #1
 102 0050 FFF7FEFF 		bl	_test_assert
 103 0054 40BB     		cbnz	r0, .L2
 104              	.LVL9:
 105 0056 1E48     		ldr	r0, .L6+4
 106 0058 FFF7FEFF 		bl	chPoolAlloc
 107 005c 011E     		subs	r1, r0, #0
 108 005e 18BF     		it	ne
ARM GAS  /tmp/ccx3zCP0.s 			page 3


 109 0060 0121     		movne	r1, #1
 110 0062 0120     		movs	r0, #1
 111 0064 FFF7FEFF 		bl	_test_assert
 112 0068 F0B9     		cbnz	r0, .L2
 113              	.LVL10:
 114 006a 1948     		ldr	r0, .L6+4
 115 006c FFF7FEFF 		bl	chPoolAlloc
 116 0070 011E     		subs	r1, r0, #0
 117 0072 18BF     		it	ne
 118 0074 0121     		movne	r1, #1
 119 0076 0120     		movs	r0, #1
 120 0078 FFF7FEFF 		bl	_test_assert
 121 007c A0B9     		cbnz	r0, .L2
 122              	.LVL11:
 123 007e 1448     		ldr	r0, .L6+4
 124 0080 FFF7FEFF 		bl	chPoolAlloc
 125 0084 011E     		subs	r1, r0, #0
 126 0086 18BF     		it	ne
 127 0088 0121     		movne	r1, #1
 128 008a 0120     		movs	r0, #1
 129 008c FFF7FEFF 		bl	_test_assert
 130 0090 50B9     		cbnz	r0, .L2
 131              	.LVL12:
 132              		.loc 1 94 0
 133 0092 0F48     		ldr	r0, .L6+4
 134 0094 FFF7FEFF 		bl	chPoolAlloc
 135 0098 D0F10101 		rsbs	r1, r0, #1
 136 009c 38BF     		it	cc
 137 009e 0021     		movcc	r1, #0
 138 00a0 0220     		movs	r0, #2
 139 00a2 FFF7FEFF 		bl	_test_assert
 140 00a6 00B1     		cbz	r0, .L5
 141              	.LVL13:
 142              	.L2:
 143 00a8 10BD     		pop	{r4, pc}
 144              	.LVL14:
 145              	.L5:
 146              		.loc 1 97 0
 147 00aa 1021     		movs	r1, #16
 148 00ac 094A     		ldr	r2, .L6+8
 149 00ae 0848     		ldr	r0, .L6+4
 150 00b0 FFF7FEFF 		bl	chPoolInit
 151              		.loc 1 98 0
 152 00b4 0648     		ldr	r0, .L6+4
 153 00b6 FFF7FEFF 		bl	chPoolAlloc
 154 00ba D0F10101 		rsbs	r1, r0, #1
 155 00be 38BF     		it	cc
 156 00c0 0021     		movcc	r1, #0
 157 00c2 0320     		movs	r0, #3
 158              		.loc 1 99 0
 159 00c4 BDE81040 		pop	{r4, lr}
 160              		.loc 1 98 0
 161 00c8 FFF7FEBF 		b	_test_assert
 162              	.L7:
 163              		.align	2
 164              	.L6:
 165 00cc 00000000 		.word	wa
ARM GAS  /tmp/ccx3zCP0.s 			page 4


 166 00d0 00000000 		.word	.LANCHOR0
 167 00d4 00000000 		.word	null_provider
 168              		.cfi_endproc
 169              	.LFE9:
 170              		.size	pools1_execute, .-pools1_execute
 171 00d8 AFF30080 		.section	.text.pools1_setup,"ax",%progbits
 171      AFF30080 
 172              		.align	2
 173              		.p2align 4,,15
 174              		.thumb
 175              		.thumb_func
 176              		.type	pools1_setup, %function
 177              	pools1_setup:
 178              	.LFB8:
 179              		.loc 1 77 0
 180              		.cfi_startproc
 181              		@ args = 0, pretend = 0, frame = 0
 182              		@ frame_needed = 0, uses_anonymous_args = 0
 183              		@ link register save eliminated.
 184              		.loc 1 79 0
 185 0000 0248     		ldr	r0, .L9
 186 0002 4FF49871 		mov	r1, #304
 187 0006 0022     		movs	r2, #0
 188              		.loc 1 80 0
 189              		.loc 1 79 0
 190 0008 FFF7FEBF 		b	chPoolInit
 191              	.L10:
 192              		.align	2
 193              	.L9:
 194 000c 00000000 		.word	.LANCHOR0
 195              		.cfi_endproc
 196              	.LFE8:
 197              		.size	pools1_setup, .-pools1_setup
 198              		.global	testpools1
 199              		.global	patternpools
 200              		.section	.rodata.str1.4,"aMS",%progbits,1
 201              		.align	2
 202              	.LC0:
 203 0000 4D656D6F 		.ascii	"Memory Pools, queue/dequeue\000"
 203      72792050 
 203      6F6F6C73 
 203      2C207175 
 203      6575652F 
 204              		.section	.rodata.patternpools,"a",%progbits
 205              		.align	2
 206              		.type	patternpools, %object
 207              		.size	patternpools, 8
 208              	patternpools:
 209 0000 00000000 		.word	testpools1
 210 0004 00000000 		.word	0
 211              		.section	.data.mp1,"aw",%progbits
 212              		.align	2
 213              		.set	.LANCHOR0,. + 0
 214              		.type	mp1, %object
 215              		.size	mp1, 12
 216              	mp1:
 217 0000 00000000 		.word	0
ARM GAS  /tmp/ccx3zCP0.s 			page 5


 218 0004 30010000 		.word	304
 219 0008 00000000 		.word	0
 220              		.section	.rodata.testpools1,"a",%progbits
 221              		.align	2
 222              		.type	testpools1, %object
 223              		.size	testpools1, 16
 224              	testpools1:
 225 0000 00000000 		.word	.LC0
 226 0004 00000000 		.word	pools1_setup
 227 0008 00000000 		.word	0
 228 000c 00000000 		.word	pools1_execute
 229              		.text
 230              	.Letext0:
 231              		.section	.debug_loc,"",%progbits
 232              	.Ldebug_loc0:
 233              	.LLST0:
 234 0000 00000000 		.4byte	.LVL0
 235 0004 02000000 		.4byte	.LVL1
 236 0008 0100     		.2byte	0x1
 237 000a 50       		.byte	0x50
 238 000b 00000000 		.4byte	0x0
 239 000f 00000000 		.4byte	0x0
 240              	.LLST1:
 241 0013 00000000 		.4byte	.LFB9
 242 0017 02000000 		.4byte	.LCFI0
 243 001b 0200     		.2byte	0x2
 244 001d 7D       		.byte	0x7d
 245 001e 00       		.sleb128 0
 246 001f 02000000 		.4byte	.LCFI0
 247 0023 D8000000 		.4byte	.LFE9
 248 0027 0200     		.2byte	0x2
 249 0029 7D       		.byte	0x7d
 250 002a 08       		.sleb128 8
 251 002b 00000000 		.4byte	0x0
 252 002f 00000000 		.4byte	0x0
 253              	.LLST2:
 254 0033 00000000 		.4byte	.LVL2
 255 0037 0C000000 		.4byte	.LVL3
 256 003b 0200     		.2byte	0x2
 257 003d 30       		.byte	0x30
 258 003e 9F       		.byte	0x9f
 259 003f 0C000000 		.4byte	.LVL3
 260 0043 14000000 		.4byte	.LVL4
 261 0047 0200     		.2byte	0x2
 262 0049 31       		.byte	0x31
 263 004a 9F       		.byte	0x9f
 264 004b 14000000 		.4byte	.LVL4
 265 004f 1C000000 		.4byte	.LVL5
 266 0053 0200     		.2byte	0x2
 267 0055 32       		.byte	0x32
 268 0056 9F       		.byte	0x9f
 269 0057 1C000000 		.4byte	.LVL5
 270 005b 24000000 		.4byte	.LVL6
 271 005f 0200     		.2byte	0x2
 272 0061 33       		.byte	0x33
 273 0062 9F       		.byte	0x9f
 274 0063 24000000 		.4byte	.LVL6
ARM GAS  /tmp/ccx3zCP0.s 			page 6


 275 0067 2C000000 		.4byte	.LVL7
 276 006b 0200     		.2byte	0x2
 277 006d 34       		.byte	0x34
 278 006e 9F       		.byte	0x9f
 279 006f 2C000000 		.4byte	.LVL7
 280 0073 42000000 		.4byte	.LVL8
 281 0077 0200     		.2byte	0x2
 282 0079 35       		.byte	0x35
 283 007a 9F       		.byte	0x9f
 284 007b 42000000 		.4byte	.LVL8
 285 007f 56000000 		.4byte	.LVL9
 286 0083 0200     		.2byte	0x2
 287 0085 31       		.byte	0x31
 288 0086 9F       		.byte	0x9f
 289 0087 56000000 		.4byte	.LVL9
 290 008b 6A000000 		.4byte	.LVL10
 291 008f 0200     		.2byte	0x2
 292 0091 32       		.byte	0x32
 293 0092 9F       		.byte	0x9f
 294 0093 6A000000 		.4byte	.LVL10
 295 0097 7E000000 		.4byte	.LVL11
 296 009b 0200     		.2byte	0x2
 297 009d 33       		.byte	0x33
 298 009e 9F       		.byte	0x9f
 299 009f 7E000000 		.4byte	.LVL11
 300 00a3 92000000 		.4byte	.LVL12
 301 00a7 0200     		.2byte	0x2
 302 00a9 34       		.byte	0x34
 303 00aa 9F       		.byte	0x9f
 304 00ab 92000000 		.4byte	.LVL12
 305 00af A8000000 		.4byte	.LVL13
 306 00b3 0200     		.2byte	0x2
 307 00b5 35       		.byte	0x35
 308 00b6 9F       		.byte	0x9f
 309 00b7 AA000000 		.4byte	.LVL14
 310 00bb D8000000 		.4byte	.LFE9
 311 00bf 0200     		.2byte	0x2
 312 00c1 35       		.byte	0x35
 313 00c2 9F       		.byte	0x9f
 314 00c3 00000000 		.4byte	0x0
 315 00c7 00000000 		.4byte	0x0
 316              		.file 2 "/usr/local/CodeBench_1802_EABI/bin/../lib/gcc/arm-none-eabi/4.5.2/include/stddef.h"
 317              		.file 3 "/home/jairom/Documentos/Proyectos/Embebidos/Robocop/Source/code/matrix-creator-mcu/third_
 318              		.file 4 "/home/jairom/Documentos/Proyectos/Embebidos/Robocop/Source/code/matrix-creator-mcu/third_
 319              		.file 5 "/home/jairom/Documentos/Proyectos/Embebidos/Robocop/Source/code/matrix-creator-mcu/third_
 320              		.section	.debug_info
 321 0000 47020000 		.4byte	0x247
 322 0004 0200     		.2byte	0x2
 323 0006 00000000 		.4byte	.Ldebug_abbrev0
 324 000a 04       		.byte	0x4
 325 000b 01       		.uleb128 0x1
 326 000c 14000000 		.4byte	.LASF25
 327 0010 01       		.byte	0x1
 328 0011 35000000 		.4byte	.LASF26
 329 0015 00000000 		.4byte	0x0
 330 0019 00000000 		.4byte	0x0
 331 001d 00000000 		.4byte	.Ldebug_ranges0+0x0
ARM GAS  /tmp/ccx3zCP0.s 			page 7


 332 0021 00000000 		.4byte	.Ldebug_line0
 333 0025 02       		.uleb128 0x2
 334 0026 04       		.byte	0x4
 335 0027 05       		.byte	0x5
 336 0028 696E7400 		.ascii	"int\000"
 337 002c 03       		.uleb128 0x3
 338 002d 00000000 		.4byte	.LASF9
 339 0031 02       		.byte	0x2
 340 0032 D3       		.byte	0xd3
 341 0033 37000000 		.4byte	0x37
 342 0037 04       		.uleb128 0x4
 343 0038 04       		.byte	0x4
 344 0039 07       		.byte	0x7
 345 003a 3E010000 		.4byte	.LASF0
 346 003e 04       		.uleb128 0x4
 347 003f 01       		.byte	0x1
 348 0040 06       		.byte	0x6
 349 0041 AE010000 		.4byte	.LASF1
 350 0045 04       		.uleb128 0x4
 351 0046 01       		.byte	0x1
 352 0047 08       		.byte	0x8
 353 0048 1A010000 		.4byte	.LASF2
 354 004c 04       		.uleb128 0x4
 355 004d 02       		.byte	0x2
 356 004e 05       		.byte	0x5
 357 004f 96010000 		.4byte	.LASF3
 358 0053 04       		.uleb128 0x4
 359 0054 02       		.byte	0x2
 360 0055 07       		.byte	0x7
 361 0056 F1000000 		.4byte	.LASF4
 362 005a 04       		.uleb128 0x4
 363 005b 04       		.byte	0x4
 364 005c 05       		.byte	0x5
 365 005d A0010000 		.4byte	.LASF5
 366 0061 04       		.uleb128 0x4
 367 0062 04       		.byte	0x4
 368 0063 07       		.byte	0x7
 369 0064 D6000000 		.4byte	.LASF6
 370 0068 04       		.uleb128 0x4
 371 0069 08       		.byte	0x8
 372 006a 05       		.byte	0x5
 373 006b 6A010000 		.4byte	.LASF7
 374 006f 04       		.uleb128 0x4
 375 0070 08       		.byte	0x8
 376 0071 07       		.byte	0x7
 377 0072 4B010000 		.4byte	.LASF8
 378 0076 05       		.uleb128 0x5
 379 0077 04       		.byte	0x4
 380 0078 03       		.uleb128 0x3
 381 0079 7D010000 		.4byte	.LASF10
 382 007d 03       		.byte	0x3
 383 007e 2C       		.byte	0x2c
 384 007f 83000000 		.4byte	0x83
 385 0083 06       		.uleb128 0x6
 386 0084 04       		.byte	0x4
 387 0085 89000000 		.4byte	0x89
 388 0089 07       		.uleb128 0x7
ARM GAS  /tmp/ccx3zCP0.s 			page 8


 389 008a 01       		.byte	0x1
 390 008b 76000000 		.4byte	0x76
 391 008f 99000000 		.4byte	0x99
 392 0093 08       		.uleb128 0x8
 393 0094 2C000000 		.4byte	0x2c
 394 0098 00       		.byte	0x0
 395 0099 09       		.uleb128 0x9
 396 009a B6000000 		.4byte	.LASF17
 397 009e 04       		.byte	0x4
 398 009f 04       		.byte	0x4
 399 00a0 2C       		.byte	0x2c
 400 00a1 B4000000 		.4byte	0xb4
 401 00a5 0A       		.uleb128 0xa
 402 00a6 62010000 		.4byte	.LASF11
 403 00aa 04       		.byte	0x4
 404 00ab 2D       		.byte	0x2d
 405 00ac B4000000 		.4byte	0xb4
 406 00b0 02       		.byte	0x2
 407 00b1 23       		.byte	0x23
 408 00b2 00       		.uleb128 0x0
 409 00b3 00       		.byte	0x0
 410 00b4 06       		.uleb128 0x6
 411 00b5 04       		.byte	0x4
 412 00b6 99000000 		.4byte	0x99
 413 00ba 0B       		.uleb128 0xb
 414 00bb 0C       		.byte	0xc
 415 00bc 04       		.byte	0x4
 416 00bd 34       		.byte	0x34
 417 00be ED000000 		.4byte	0xed
 418 00c2 0A       		.uleb128 0xa
 419 00c3 BA010000 		.4byte	.LASF12
 420 00c7 04       		.byte	0x4
 421 00c8 35       		.byte	0x35
 422 00c9 B4000000 		.4byte	0xb4
 423 00cd 02       		.byte	0x2
 424 00ce 23       		.byte	0x23
 425 00cf 00       		.uleb128 0x0
 426 00d0 0A       		.uleb128 0xa
 427 00d1 26000000 		.4byte	.LASF13
 428 00d5 04       		.byte	0x4
 429 00d6 36       		.byte	0x36
 430 00d7 2C000000 		.4byte	0x2c
 431 00db 02       		.byte	0x2
 432 00dc 23       		.byte	0x23
 433 00dd 04       		.uleb128 0x4
 434 00de 0A       		.uleb128 0xa
 435 00df 8A010000 		.4byte	.LASF14
 436 00e3 04       		.byte	0x4
 437 00e4 38       		.byte	0x38
 438 00e5 78000000 		.4byte	0x78
 439 00e9 02       		.byte	0x2
 440 00ea 23       		.byte	0x23
 441 00eb 08       		.uleb128 0x8
 442 00ec 00       		.byte	0x0
 443 00ed 03       		.uleb128 0x3
 444 00ee 28010000 		.4byte	.LASF15
 445 00f2 04       		.byte	0x4
ARM GAS  /tmp/ccx3zCP0.s 			page 9


 446 00f3 3A       		.byte	0x3a
 447 00f4 BA000000 		.4byte	0xba
 448 00f8 06       		.uleb128 0x6
 449 00f9 04       		.byte	0x4
 450 00fa FE000000 		.4byte	0xfe
 451 00fe 0C       		.uleb128 0xc
 452 00ff 03010000 		.4byte	0x103
 453 0103 04       		.uleb128 0x4
 454 0104 01       		.byte	0x1
 455 0105 08       		.byte	0x8
 456 0106 A9010000 		.4byte	.LASF16
 457 010a 09       		.uleb128 0x9
 458 010b AD000000 		.4byte	.LASF18
 459 010f 10       		.byte	0x10
 460 0110 05       		.byte	0x5
 461 0111 46       		.byte	0x46
 462 0112 4F010000 		.4byte	0x14f
 463 0116 0A       		.uleb128 0xa
 464 0117 78010000 		.4byte	.LASF19
 465 011b 05       		.byte	0x5
 466 011c 47       		.byte	0x47
 467 011d F8000000 		.4byte	0xf8
 468 0121 02       		.byte	0x2
 469 0122 23       		.byte	0x23
 470 0123 00       		.uleb128 0x0
 471 0124 0A       		.uleb128 0xa
 472 0125 20000000 		.4byte	.LASF20
 473 0129 05       		.byte	0x5
 474 012a 48       		.byte	0x48
 475 012b 51010000 		.4byte	0x151
 476 012f 02       		.byte	0x2
 477 0130 23       		.byte	0x23
 478 0131 04       		.uleb128 0x4
 479 0132 0A       		.uleb128 0xa
 480 0133 E8000000 		.4byte	.LASF21
 481 0137 05       		.byte	0x5
 482 0138 49       		.byte	0x49
 483 0139 51010000 		.4byte	0x151
 484 013d 02       		.byte	0x2
 485 013e 23       		.byte	0x23
 486 013f 08       		.uleb128 0x8
 487 0140 0A       		.uleb128 0xa
 488 0141 12010000 		.4byte	.LASF22
 489 0145 05       		.byte	0x5
 490 0146 4A       		.byte	0x4a
 491 0147 51010000 		.4byte	0x151
 492 014b 02       		.byte	0x2
 493 014c 23       		.byte	0x23
 494 014d 0C       		.uleb128 0xc
 495 014e 00       		.byte	0x0
 496 014f 0D       		.uleb128 0xd
 497 0150 01       		.byte	0x1
 498 0151 06       		.uleb128 0x6
 499 0152 04       		.byte	0x4
 500 0153 4F010000 		.4byte	0x14f
 501 0157 0E       		.uleb128 0xe
 502 0158 04010000 		.4byte	.LASF27
ARM GAS  /tmp/ccx3zCP0.s 			page 10


 503 015c 01       		.byte	0x1
 504 015d 47       		.byte	0x47
 505 015e 01       		.byte	0x1
 506 015f 76000000 		.4byte	0x76
 507 0163 00000000 		.4byte	.LFB7
 508 0167 04000000 		.4byte	.LFE7
 509 016b 02       		.byte	0x2
 510 016c 7D       		.byte	0x7d
 511 016d 00       		.sleb128 0
 512 016e 82010000 		.4byte	0x182
 513 0172 0F       		.uleb128 0xf
 514 0173 D1000000 		.4byte	.LASF28
 515 0177 01       		.byte	0x1
 516 0178 47       		.byte	0x47
 517 0179 2C000000 		.4byte	0x2c
 518 017d 00000000 		.4byte	.LLST0
 519 0181 00       		.byte	0x0
 520 0182 10       		.uleb128 0x10
 521 0183 C2000000 		.4byte	.LASF29
 522 0187 01       		.byte	0x1
 523 0188 52       		.byte	0x52
 524 0189 01       		.byte	0x1
 525 018a 00000000 		.4byte	.LFB9
 526 018e D8000000 		.4byte	.LFE9
 527 0192 13000000 		.4byte	.LLST1
 528 0196 A8010000 		.4byte	0x1a8
 529 019a 11       		.uleb128 0x11
 530 019b 6900     		.ascii	"i\000"
 531 019d 01       		.byte	0x1
 532 019e 53       		.byte	0x53
 533 019f 25000000 		.4byte	0x25
 534 01a3 33000000 		.4byte	.LLST2
 535 01a7 00       		.byte	0x0
 536 01a8 12       		.uleb128 0x12
 537 01a9 07000000 		.4byte	.LASF30
 538 01ad 01       		.byte	0x1
 539 01ae 4D       		.byte	0x4d
 540 01af 01       		.byte	0x1
 541 01b0 00000000 		.4byte	.LFB8
 542 01b4 10000000 		.4byte	.LFE8
 543 01b8 02       		.byte	0x2
 544 01b9 7D       		.byte	0x7d
 545 01ba 00       		.sleb128 0
 546 01bb 13       		.uleb128 0x13
 547 01bc 76000000 		.4byte	0x76
 548 01c0 C6010000 		.4byte	0x1c6
 549 01c4 14       		.uleb128 0x14
 550 01c5 00       		.byte	0x0
 551 01c6 15       		.uleb128 0x15
 552 01c7 776100   		.ascii	"wa\000"
 553 01ca 05       		.byte	0x5
 554 01cb B2       		.byte	0xb2
 555 01cc D2010000 		.4byte	0x1d2
 556 01d0 01       		.byte	0x1
 557 01d1 01       		.byte	0x1
 558 01d2 0C       		.uleb128 0xc
 559 01d3 BB010000 		.4byte	0x1bb
ARM GAS  /tmp/ccx3zCP0.s 			page 11


 560 01d7 16       		.uleb128 0x16
 561 01d8 6D703100 		.ascii	"mp1\000"
 562 01dc 01       		.byte	0x1
 563 01dd 3C       		.byte	0x3c
 564 01de ED000000 		.4byte	0xed
 565 01e2 05       		.byte	0x5
 566 01e3 03       		.byte	0x3
 567 01e4 00000000 		.4byte	mp1
 568 01e8 17       		.uleb128 0x17
 569 01e9 33010000 		.4byte	.LASF23
 570 01ed 01       		.byte	0x1
 571 01ee 65       		.byte	0x65
 572 01ef F5010000 		.4byte	0x1f5
 573 01f3 01       		.byte	0x1
 574 01f4 01       		.byte	0x1
 575 01f5 0C       		.uleb128 0xc
 576 01f6 0A010000 		.4byte	0x10a
 577 01fa 15       		.uleb128 0x15
 578 01fb 776100   		.ascii	"wa\000"
 579 01fe 05       		.byte	0x5
 580 01ff B2       		.byte	0xb2
 581 0200 06020000 		.4byte	0x206
 582 0204 01       		.byte	0x1
 583 0205 01       		.byte	0x1
 584 0206 0C       		.uleb128 0xc
 585 0207 BB010000 		.4byte	0x1bb
 586 020b 18       		.uleb128 0x18
 587 020c 33010000 		.4byte	.LASF23
 588 0210 01       		.byte	0x1
 589 0211 65       		.byte	0x65
 590 0212 F5010000 		.4byte	0x1f5
 591 0216 01       		.byte	0x1
 592 0217 05       		.byte	0x5
 593 0218 03       		.byte	0x3
 594 0219 00000000 		.4byte	testpools1
 595 021d 13       		.uleb128 0x13
 596 021e 2D020000 		.4byte	0x22d
 597 0222 2D020000 		.4byte	0x22d
 598 0226 19       		.uleb128 0x19
 599 0227 37000000 		.4byte	0x37
 600 022b 01       		.byte	0x1
 601 022c 00       		.byte	0x0
 602 022d 06       		.uleb128 0x6
 603 022e 04       		.byte	0x4
 604 022f F5010000 		.4byte	0x1f5
 605 0233 18       		.uleb128 0x18
 606 0234 C2010000 		.4byte	.LASF24
 607 0238 01       		.byte	0x1
 608 0239 71       		.byte	0x71
 609 023a 45020000 		.4byte	0x245
 610 023e 01       		.byte	0x1
 611 023f 05       		.byte	0x5
 612 0240 03       		.byte	0x3
 613 0241 00000000 		.4byte	patternpools
 614 0245 0C       		.uleb128 0xc
 615 0246 1D020000 		.4byte	0x21d
 616 024a 00       		.byte	0x0
ARM GAS  /tmp/ccx3zCP0.s 			page 12


 617              		.section	.debug_abbrev
 618 0000 01       		.uleb128 0x1
 619 0001 11       		.uleb128 0x11
 620 0002 01       		.byte	0x1
 621 0003 25       		.uleb128 0x25
 622 0004 0E       		.uleb128 0xe
 623 0005 13       		.uleb128 0x13
 624 0006 0B       		.uleb128 0xb
 625 0007 03       		.uleb128 0x3
 626 0008 0E       		.uleb128 0xe
 627 0009 11       		.uleb128 0x11
 628 000a 01       		.uleb128 0x1
 629 000b 52       		.uleb128 0x52
 630 000c 01       		.uleb128 0x1
 631 000d 55       		.uleb128 0x55
 632 000e 06       		.uleb128 0x6
 633 000f 10       		.uleb128 0x10
 634 0010 06       		.uleb128 0x6
 635 0011 00       		.byte	0x0
 636 0012 00       		.byte	0x0
 637 0013 02       		.uleb128 0x2
 638 0014 24       		.uleb128 0x24
 639 0015 00       		.byte	0x0
 640 0016 0B       		.uleb128 0xb
 641 0017 0B       		.uleb128 0xb
 642 0018 3E       		.uleb128 0x3e
 643 0019 0B       		.uleb128 0xb
 644 001a 03       		.uleb128 0x3
 645 001b 08       		.uleb128 0x8
 646 001c 00       		.byte	0x0
 647 001d 00       		.byte	0x0
 648 001e 03       		.uleb128 0x3
 649 001f 16       		.uleb128 0x16
 650 0020 00       		.byte	0x0
 651 0021 03       		.uleb128 0x3
 652 0022 0E       		.uleb128 0xe
 653 0023 3A       		.uleb128 0x3a
 654 0024 0B       		.uleb128 0xb
 655 0025 3B       		.uleb128 0x3b
 656 0026 0B       		.uleb128 0xb
 657 0027 49       		.uleb128 0x49
 658 0028 13       		.uleb128 0x13
 659 0029 00       		.byte	0x0
 660 002a 00       		.byte	0x0
 661 002b 04       		.uleb128 0x4
 662 002c 24       		.uleb128 0x24
 663 002d 00       		.byte	0x0
 664 002e 0B       		.uleb128 0xb
 665 002f 0B       		.uleb128 0xb
 666 0030 3E       		.uleb128 0x3e
 667 0031 0B       		.uleb128 0xb
 668 0032 03       		.uleb128 0x3
 669 0033 0E       		.uleb128 0xe
 670 0034 00       		.byte	0x0
 671 0035 00       		.byte	0x0
 672 0036 05       		.uleb128 0x5
 673 0037 0F       		.uleb128 0xf
ARM GAS  /tmp/ccx3zCP0.s 			page 13


 674 0038 00       		.byte	0x0
 675 0039 0B       		.uleb128 0xb
 676 003a 0B       		.uleb128 0xb
 677 003b 00       		.byte	0x0
 678 003c 00       		.byte	0x0
 679 003d 06       		.uleb128 0x6
 680 003e 0F       		.uleb128 0xf
 681 003f 00       		.byte	0x0
 682 0040 0B       		.uleb128 0xb
 683 0041 0B       		.uleb128 0xb
 684 0042 49       		.uleb128 0x49
 685 0043 13       		.uleb128 0x13
 686 0044 00       		.byte	0x0
 687 0045 00       		.byte	0x0
 688 0046 07       		.uleb128 0x7
 689 0047 15       		.uleb128 0x15
 690 0048 01       		.byte	0x1
 691 0049 27       		.uleb128 0x27
 692 004a 0C       		.uleb128 0xc
 693 004b 49       		.uleb128 0x49
 694 004c 13       		.uleb128 0x13
 695 004d 01       		.uleb128 0x1
 696 004e 13       		.uleb128 0x13
 697 004f 00       		.byte	0x0
 698 0050 00       		.byte	0x0
 699 0051 08       		.uleb128 0x8
 700 0052 05       		.uleb128 0x5
 701 0053 00       		.byte	0x0
 702 0054 49       		.uleb128 0x49
 703 0055 13       		.uleb128 0x13
 704 0056 00       		.byte	0x0
 705 0057 00       		.byte	0x0
 706 0058 09       		.uleb128 0x9
 707 0059 13       		.uleb128 0x13
 708 005a 01       		.byte	0x1
 709 005b 03       		.uleb128 0x3
 710 005c 0E       		.uleb128 0xe
 711 005d 0B       		.uleb128 0xb
 712 005e 0B       		.uleb128 0xb
 713 005f 3A       		.uleb128 0x3a
 714 0060 0B       		.uleb128 0xb
 715 0061 3B       		.uleb128 0x3b
 716 0062 0B       		.uleb128 0xb
 717 0063 01       		.uleb128 0x1
 718 0064 13       		.uleb128 0x13
 719 0065 00       		.byte	0x0
 720 0066 00       		.byte	0x0
 721 0067 0A       		.uleb128 0xa
 722 0068 0D       		.uleb128 0xd
 723 0069 00       		.byte	0x0
 724 006a 03       		.uleb128 0x3
 725 006b 0E       		.uleb128 0xe
 726 006c 3A       		.uleb128 0x3a
 727 006d 0B       		.uleb128 0xb
 728 006e 3B       		.uleb128 0x3b
 729 006f 0B       		.uleb128 0xb
 730 0070 49       		.uleb128 0x49
ARM GAS  /tmp/ccx3zCP0.s 			page 14


 731 0071 13       		.uleb128 0x13
 732 0072 38       		.uleb128 0x38
 733 0073 0A       		.uleb128 0xa
 734 0074 00       		.byte	0x0
 735 0075 00       		.byte	0x0
 736 0076 0B       		.uleb128 0xb
 737 0077 13       		.uleb128 0x13
 738 0078 01       		.byte	0x1
 739 0079 0B       		.uleb128 0xb
 740 007a 0B       		.uleb128 0xb
 741 007b 3A       		.uleb128 0x3a
 742 007c 0B       		.uleb128 0xb
 743 007d 3B       		.uleb128 0x3b
 744 007e 0B       		.uleb128 0xb
 745 007f 01       		.uleb128 0x1
 746 0080 13       		.uleb128 0x13
 747 0081 00       		.byte	0x0
 748 0082 00       		.byte	0x0
 749 0083 0C       		.uleb128 0xc
 750 0084 26       		.uleb128 0x26
 751 0085 00       		.byte	0x0
 752 0086 49       		.uleb128 0x49
 753 0087 13       		.uleb128 0x13
 754 0088 00       		.byte	0x0
 755 0089 00       		.byte	0x0
 756 008a 0D       		.uleb128 0xd
 757 008b 15       		.uleb128 0x15
 758 008c 00       		.byte	0x0
 759 008d 27       		.uleb128 0x27
 760 008e 0C       		.uleb128 0xc
 761 008f 00       		.byte	0x0
 762 0090 00       		.byte	0x0
 763 0091 0E       		.uleb128 0xe
 764 0092 2E       		.uleb128 0x2e
 765 0093 01       		.byte	0x1
 766 0094 03       		.uleb128 0x3
 767 0095 0E       		.uleb128 0xe
 768 0096 3A       		.uleb128 0x3a
 769 0097 0B       		.uleb128 0xb
 770 0098 3B       		.uleb128 0x3b
 771 0099 0B       		.uleb128 0xb
 772 009a 27       		.uleb128 0x27
 773 009b 0C       		.uleb128 0xc
 774 009c 49       		.uleb128 0x49
 775 009d 13       		.uleb128 0x13
 776 009e 11       		.uleb128 0x11
 777 009f 01       		.uleb128 0x1
 778 00a0 12       		.uleb128 0x12
 779 00a1 01       		.uleb128 0x1
 780 00a2 40       		.uleb128 0x40
 781 00a3 0A       		.uleb128 0xa
 782 00a4 01       		.uleb128 0x1
 783 00a5 13       		.uleb128 0x13
 784 00a6 00       		.byte	0x0
 785 00a7 00       		.byte	0x0
 786 00a8 0F       		.uleb128 0xf
 787 00a9 05       		.uleb128 0x5
ARM GAS  /tmp/ccx3zCP0.s 			page 15


 788 00aa 00       		.byte	0x0
 789 00ab 03       		.uleb128 0x3
 790 00ac 0E       		.uleb128 0xe
 791 00ad 3A       		.uleb128 0x3a
 792 00ae 0B       		.uleb128 0xb
 793 00af 3B       		.uleb128 0x3b
 794 00b0 0B       		.uleb128 0xb
 795 00b1 49       		.uleb128 0x49
 796 00b2 13       		.uleb128 0x13
 797 00b3 02       		.uleb128 0x2
 798 00b4 06       		.uleb128 0x6
 799 00b5 00       		.byte	0x0
 800 00b6 00       		.byte	0x0
 801 00b7 10       		.uleb128 0x10
 802 00b8 2E       		.uleb128 0x2e
 803 00b9 01       		.byte	0x1
 804 00ba 03       		.uleb128 0x3
 805 00bb 0E       		.uleb128 0xe
 806 00bc 3A       		.uleb128 0x3a
 807 00bd 0B       		.uleb128 0xb
 808 00be 3B       		.uleb128 0x3b
 809 00bf 0B       		.uleb128 0xb
 810 00c0 27       		.uleb128 0x27
 811 00c1 0C       		.uleb128 0xc
 812 00c2 11       		.uleb128 0x11
 813 00c3 01       		.uleb128 0x1
 814 00c4 12       		.uleb128 0x12
 815 00c5 01       		.uleb128 0x1
 816 00c6 40       		.uleb128 0x40
 817 00c7 06       		.uleb128 0x6
 818 00c8 01       		.uleb128 0x1
 819 00c9 13       		.uleb128 0x13
 820 00ca 00       		.byte	0x0
 821 00cb 00       		.byte	0x0
 822 00cc 11       		.uleb128 0x11
 823 00cd 34       		.uleb128 0x34
 824 00ce 00       		.byte	0x0
 825 00cf 03       		.uleb128 0x3
 826 00d0 08       		.uleb128 0x8
 827 00d1 3A       		.uleb128 0x3a
 828 00d2 0B       		.uleb128 0xb
 829 00d3 3B       		.uleb128 0x3b
 830 00d4 0B       		.uleb128 0xb
 831 00d5 49       		.uleb128 0x49
 832 00d6 13       		.uleb128 0x13
 833 00d7 02       		.uleb128 0x2
 834 00d8 06       		.uleb128 0x6
 835 00d9 00       		.byte	0x0
 836 00da 00       		.byte	0x0
 837 00db 12       		.uleb128 0x12
 838 00dc 2E       		.uleb128 0x2e
 839 00dd 00       		.byte	0x0
 840 00de 03       		.uleb128 0x3
 841 00df 0E       		.uleb128 0xe
 842 00e0 3A       		.uleb128 0x3a
 843 00e1 0B       		.uleb128 0xb
 844 00e2 3B       		.uleb128 0x3b
ARM GAS  /tmp/ccx3zCP0.s 			page 16


 845 00e3 0B       		.uleb128 0xb
 846 00e4 27       		.uleb128 0x27
 847 00e5 0C       		.uleb128 0xc
 848 00e6 11       		.uleb128 0x11
 849 00e7 01       		.uleb128 0x1
 850 00e8 12       		.uleb128 0x12
 851 00e9 01       		.uleb128 0x1
 852 00ea 40       		.uleb128 0x40
 853 00eb 0A       		.uleb128 0xa
 854 00ec 00       		.byte	0x0
 855 00ed 00       		.byte	0x0
 856 00ee 13       		.uleb128 0x13
 857 00ef 01       		.uleb128 0x1
 858 00f0 01       		.byte	0x1
 859 00f1 49       		.uleb128 0x49
 860 00f2 13       		.uleb128 0x13
 861 00f3 01       		.uleb128 0x1
 862 00f4 13       		.uleb128 0x13
 863 00f5 00       		.byte	0x0
 864 00f6 00       		.byte	0x0
 865 00f7 14       		.uleb128 0x14
 866 00f8 21       		.uleb128 0x21
 867 00f9 00       		.byte	0x0
 868 00fa 00       		.byte	0x0
 869 00fb 00       		.byte	0x0
 870 00fc 15       		.uleb128 0x15
 871 00fd 34       		.uleb128 0x34
 872 00fe 00       		.byte	0x0
 873 00ff 03       		.uleb128 0x3
 874 0100 08       		.uleb128 0x8
 875 0101 3A       		.uleb128 0x3a
 876 0102 0B       		.uleb128 0xb
 877 0103 3B       		.uleb128 0x3b
 878 0104 0B       		.uleb128 0xb
 879 0105 49       		.uleb128 0x49
 880 0106 13       		.uleb128 0x13
 881 0107 3F       		.uleb128 0x3f
 882 0108 0C       		.uleb128 0xc
 883 0109 3C       		.uleb128 0x3c
 884 010a 0C       		.uleb128 0xc
 885 010b 00       		.byte	0x0
 886 010c 00       		.byte	0x0
 887 010d 16       		.uleb128 0x16
 888 010e 34       		.uleb128 0x34
 889 010f 00       		.byte	0x0
 890 0110 03       		.uleb128 0x3
 891 0111 08       		.uleb128 0x8
 892 0112 3A       		.uleb128 0x3a
 893 0113 0B       		.uleb128 0xb
 894 0114 3B       		.uleb128 0x3b
 895 0115 0B       		.uleb128 0xb
 896 0116 49       		.uleb128 0x49
 897 0117 13       		.uleb128 0x13
 898 0118 02       		.uleb128 0x2
 899 0119 0A       		.uleb128 0xa
 900 011a 00       		.byte	0x0
 901 011b 00       		.byte	0x0
ARM GAS  /tmp/ccx3zCP0.s 			page 17


 902 011c 17       		.uleb128 0x17
 903 011d 34       		.uleb128 0x34
 904 011e 00       		.byte	0x0
 905 011f 03       		.uleb128 0x3
 906 0120 0E       		.uleb128 0xe
 907 0121 3A       		.uleb128 0x3a
 908 0122 0B       		.uleb128 0xb
 909 0123 3B       		.uleb128 0x3b
 910 0124 0B       		.uleb128 0xb
 911 0125 49       		.uleb128 0x49
 912 0126 13       		.uleb128 0x13
 913 0127 3F       		.uleb128 0x3f
 914 0128 0C       		.uleb128 0xc
 915 0129 3C       		.uleb128 0x3c
 916 012a 0C       		.uleb128 0xc
 917 012b 00       		.byte	0x0
 918 012c 00       		.byte	0x0
 919 012d 18       		.uleb128 0x18
 920 012e 34       		.uleb128 0x34
 921 012f 00       		.byte	0x0
 922 0130 03       		.uleb128 0x3
 923 0131 0E       		.uleb128 0xe
 924 0132 3A       		.uleb128 0x3a
 925 0133 0B       		.uleb128 0xb
 926 0134 3B       		.uleb128 0x3b
 927 0135 0B       		.uleb128 0xb
 928 0136 49       		.uleb128 0x49
 929 0137 13       		.uleb128 0x13
 930 0138 3F       		.uleb128 0x3f
 931 0139 0C       		.uleb128 0xc
 932 013a 02       		.uleb128 0x2
 933 013b 0A       		.uleb128 0xa
 934 013c 00       		.byte	0x0
 935 013d 00       		.byte	0x0
 936 013e 19       		.uleb128 0x19
 937 013f 21       		.uleb128 0x21
 938 0140 00       		.byte	0x0
 939 0141 49       		.uleb128 0x49
 940 0142 13       		.uleb128 0x13
 941 0143 2F       		.uleb128 0x2f
 942 0144 0B       		.uleb128 0xb
 943 0145 00       		.byte	0x0
 944 0146 00       		.byte	0x0
 945 0147 00       		.byte	0x0
 946              		.section	.debug_pubnames,"",%progbits
 947 0000 2E000000 		.4byte	0x2e
 948 0004 0200     		.2byte	0x2
 949 0006 00000000 		.4byte	.Ldebug_info0
 950 000a 4B020000 		.4byte	0x24b
 951 000e 0B020000 		.4byte	0x20b
 952 0012 74657374 		.ascii	"testpools1\000"
 952      706F6F6C 
 952      733100
 953 001d 33020000 		.4byte	0x233
 954 0021 70617474 		.ascii	"patternpools\000"
 954      65726E70 
 954      6F6F6C73 
ARM GAS  /tmp/ccx3zCP0.s 			page 18


 954      00
 955 002e 00000000 		.4byte	0x0
 956              		.section	.debug_pubtypes,"",%progbits
 957 0000 56000000 		.4byte	0x56
 958 0004 0200     		.2byte	0x2
 959 0006 00000000 		.4byte	.Ldebug_info0
 960 000a 4B020000 		.4byte	0x24b
 961 000e 2C000000 		.4byte	0x2c
 962 0012 73697A65 		.ascii	"size_t\000"
 962      5F7400
 963 0019 78000000 		.4byte	0x78
 964 001d 6D656D67 		.ascii	"memgetfunc_t\000"
 964      65746675 
 964      6E635F74 
 964      00
 965 002a 99000000 		.4byte	0x99
 966 002e 706F6F6C 		.ascii	"pool_header\000"
 966      5F686561 
 966      64657200 
 967 003a ED000000 		.4byte	0xed
 968 003e 4D656D6F 		.ascii	"MemoryPool\000"
 968      7279506F 
 968      6F6C00
 969 0049 0A010000 		.4byte	0x10a
 970 004d 74657374 		.ascii	"testcase\000"
 970      63617365 
 970      00
 971 0056 00000000 		.4byte	0x0
 972              		.section	.debug_aranges,"",%progbits
 973 0000 2C000000 		.4byte	0x2c
 974 0004 0200     		.2byte	0x2
 975 0006 00000000 		.4byte	.Ldebug_info0
 976 000a 04       		.byte	0x4
 977 000b 00       		.byte	0x0
 978 000c 0000     		.2byte	0x0
 979 000e 0000     		.2byte	0x0
 980 0010 00000000 		.4byte	.LFB7
 981 0014 04000000 		.4byte	.LFE7-.LFB7
 982 0018 00000000 		.4byte	.LFB9
 983 001c D8000000 		.4byte	.LFE9-.LFB9
 984 0020 00000000 		.4byte	.LFB8
 985 0024 10000000 		.4byte	.LFE8-.LFB8
 986 0028 00000000 		.4byte	0x0
 987 002c 00000000 		.4byte	0x0
 988              		.section	.debug_ranges,"",%progbits
 989              	.Ldebug_ranges0:
 990 0000 00000000 		.4byte	.LFB7
 991 0004 04000000 		.4byte	.LFE7
 992 0008 00000000 		.4byte	.LFB9
 993 000c D8000000 		.4byte	.LFE9
 994 0010 00000000 		.4byte	.LFB8
 995 0014 10000000 		.4byte	.LFE8
 996 0018 00000000 		.4byte	0x0
 997 001c 00000000 		.4byte	0x0
 998              		.section	.debug_str,"MS",%progbits,1
 999              	.LASF9:
 1000 0000 73697A65 		.ascii	"size_t\000"
ARM GAS  /tmp/ccx3zCP0.s 			page 19


 1000      5F7400
 1001              	.LASF30:
 1002 0007 706F6F6C 		.ascii	"pools1_setup\000"
 1002      73315F73 
 1002      65747570 
 1002      00
 1003              	.LASF25:
 1004 0014 474E5520 		.ascii	"GNU C 4.5.2\000"
 1004      4320342E 
 1004      352E3200 
 1005              	.LASF20:
 1006 0020 73657475 		.ascii	"setup\000"
 1006      7000
 1007              	.LASF13:
 1008 0026 6D705F6F 		.ascii	"mp_object_size\000"
 1008      626A6563 
 1008      745F7369 
 1008      7A6500
 1009              	.LASF26:
 1010 0035 2F686F6D 		.ascii	"/home/jairom/Documentos/Proyectos/Embebidos/Robocop"
 1010      652F6A61 
 1010      69726F6D 
 1010      2F446F63 
 1010      756D656E 
 1011 0068 2F536F75 		.ascii	"/Source/code/matrix-creator-mcu/third_party/ChibiOS"
 1011      7263652F 
 1011      636F6465 
 1011      2F6D6174 
 1011      7269782D 
 1012 009b 2F746573 		.ascii	"/test/testpools.c\000"
 1012      742F7465 
 1012      7374706F 
 1012      6F6C732E 
 1012      6300
 1013              	.LASF18:
 1014 00ad 74657374 		.ascii	"testcase\000"
 1014      63617365 
 1014      00
 1015              	.LASF17:
 1016 00b6 706F6F6C 		.ascii	"pool_header\000"
 1016      5F686561 
 1016      64657200 
 1017              	.LASF29:
 1018 00c2 706F6F6C 		.ascii	"pools1_execute\000"
 1018      73315F65 
 1018      78656375 
 1018      746500
 1019              	.LASF28:
 1020 00d1 73697A65 		.ascii	"size\000"
 1020      00
 1021              	.LASF6:
 1022 00d6 6C6F6E67 		.ascii	"long unsigned int\000"
 1022      20756E73 
 1022      69676E65 
 1022      6420696E 
 1022      7400
 1023              	.LASF21:
ARM GAS  /tmp/ccx3zCP0.s 			page 20


 1024 00e8 74656172 		.ascii	"teardown\000"
 1024      646F776E 
 1024      00
 1025              	.LASF4:
 1026 00f1 73686F72 		.ascii	"short unsigned int\000"
 1026      7420756E 
 1026      7369676E 
 1026      65642069 
 1026      6E7400
 1027              	.LASF27:
 1028 0104 6E756C6C 		.ascii	"null_provider\000"
 1028      5F70726F 
 1028      76696465 
 1028      7200
 1029              	.LASF22:
 1030 0112 65786563 		.ascii	"execute\000"
 1030      75746500 
 1031              	.LASF2:
 1032 011a 756E7369 		.ascii	"unsigned char\000"
 1032      676E6564 
 1032      20636861 
 1032      7200
 1033              	.LASF15:
 1034 0128 4D656D6F 		.ascii	"MemoryPool\000"
 1034      7279506F 
 1034      6F6C00
 1035              	.LASF23:
 1036 0133 74657374 		.ascii	"testpools1\000"
 1036      706F6F6C 
 1036      733100
 1037              	.LASF0:
 1038 013e 756E7369 		.ascii	"unsigned int\000"
 1038      676E6564 
 1038      20696E74 
 1038      00
 1039              	.LASF8:
 1040 014b 6C6F6E67 		.ascii	"long long unsigned int\000"
 1040      206C6F6E 
 1040      6720756E 
 1040      7369676E 
 1040      65642069 
 1041              	.LASF11:
 1042 0162 70685F6E 		.ascii	"ph_next\000"
 1042      65787400 
 1043              	.LASF7:
 1044 016a 6C6F6E67 		.ascii	"long long int\000"
 1044      206C6F6E 
 1044      6720696E 
 1044      7400
 1045              	.LASF19:
 1046 0178 6E616D65 		.ascii	"name\000"
 1046      00
 1047              	.LASF10:
 1048 017d 6D656D67 		.ascii	"memgetfunc_t\000"
 1048      65746675 
 1048      6E635F74 
 1048      00
ARM GAS  /tmp/ccx3zCP0.s 			page 21


 1049              	.LASF14:
 1050 018a 6D705F70 		.ascii	"mp_provider\000"
 1050      726F7669 
 1050      64657200 
 1051              	.LASF3:
 1052 0196 73686F72 		.ascii	"short int\000"
 1052      7420696E 
 1052      7400
 1053              	.LASF5:
 1054 01a0 6C6F6E67 		.ascii	"long int\000"
 1054      20696E74 
 1054      00
 1055              	.LASF16:
 1056 01a9 63686172 		.ascii	"char\000"
 1056      00
 1057              	.LASF1:
 1058 01ae 7369676E 		.ascii	"signed char\000"
 1058      65642063 
 1058      68617200 
 1059              	.LASF12:
 1060 01ba 6D705F6E 		.ascii	"mp_next\000"
 1060      65787400 
 1061              	.LASF24:
 1062 01c2 70617474 		.ascii	"patternpools\000"
 1062      65726E70 
 1062      6F6F6C73 
 1062      00
 1063              		.ident	"GCC: (Sourcery G++ Lite 2011.03-42) 4.5.2"
ARM GAS  /tmp/ccx3zCP0.s 			page 22


DEFINED SYMBOLS
                            *ABS*:00000000 testpools.c
     /tmp/ccx3zCP0.s:24     .text.null_provider:00000000 $t
     /tmp/ccx3zCP0.s:29     .text.null_provider:00000000 null_provider
     /tmp/ccx3zCP0.s:46     .text.pools1_execute:00000000 $t
     /tmp/ccx3zCP0.s:51     .text.pools1_execute:00000000 pools1_execute
     /tmp/ccx3zCP0.s:165    .text.pools1_execute:000000cc $d
     /tmp/ccx3zCP0.s:172    .text.pools1_setup:00000000 $t
     /tmp/ccx3zCP0.s:177    .text.pools1_setup:00000000 pools1_setup
     /tmp/ccx3zCP0.s:194    .text.pools1_setup:0000000c $d
     /tmp/ccx3zCP0.s:224    .rodata.testpools1:00000000 testpools1
     /tmp/ccx3zCP0.s:208    .rodata.patternpools:00000000 patternpools
     /tmp/ccx3zCP0.s:201    .rodata.str1.4:00000000 $d
     /tmp/ccx3zCP0.s:205    .rodata.patternpools:00000000 $d
     /tmp/ccx3zCP0.s:212    .data.mp1:00000000 $d
     /tmp/ccx3zCP0.s:216    .data.mp1:00000000 mp1
     /tmp/ccx3zCP0.s:221    .rodata.testpools1:00000000 $d
                     .debug_frame:00000010 $d
     /tmp/ccx3zCP0.s:171    .text.pools1_execute:000000d8 $t

UNDEFINED SYMBOLS
chPoolFree
chPoolAlloc
_test_assert
chPoolInit
wa
